SYSTEM LOG -- DATE :2018-04-22 22:31:40 - CLASS : me - FUNCTION : index - URL : localhost:8080/kaderisasi/index.php/meme/me - USER ID : 340 - USER IP : ::1 - USER ROLE : 1 - BROWSER : Mozilla/5.0 (Windows NT 10.0; Win64; x64) AppleWebKit/537.36 (KHTML, like Gecko) Chrome/65.0.3325.181 Safari/537.36 - USERNAME : safari
SYSTEM LOG -- DATE :2018-04-22 22:31:44 - CLASS : master_anggota - FUNCTION : index - URL : localhost:8080/kaderisasi/index.php/master/master_anggota - USER ID : 340 - USER IP : ::1 - USER ROLE : 1 - BROWSER : Mozilla/5.0 (Windows NT 10.0; Win64; x64) AppleWebKit/537.36 (KHTML, like Gecko) Chrome/65.0.3325.181 Safari/537.36 - USERNAME : safari
SYSTEM LOG -- DATE :2018-04-22 22:31:50 - CLASS : master_anggota - FUNCTION : edit - URL : localhost:8080/kaderisasi/index.php/master/master_anggota/edit/?_id=E5YZ46qNj9DXy8%2F1JOIPh5p6Y6kZJpaDKCLmE%2F5cJw6ddws7SHwNW6qkIZjtD3wPN14PtTvhkPFv7ZCUODIz1g%3D%3D - USER ID : 340 - USER IP : ::1 - USER ROLE : 1 - BROWSER : Mozilla/5.0 (Windows NT 10.0; Win64; x64) AppleWebKit/537.36 (KHTML, like Gecko) Chrome/65.0.3325.181 Safari/537.36 - USERNAME : safari
SYSTEM LOG -- DATE :2018-04-22 22:31:51 - CLASS : data - FUNCTION : kabupaten - URL : localhost:8080/kaderisasi/index.php/ajax/data/kabupaten - USER ID : 340 - USER IP : ::1 - USER ROLE : 1 - BROWSER : Mozilla/5.0 (Windows NT 10.0; Win64; x64) AppleWebKit/537.36 (KHTML, like Gecko) Chrome/65.0.3325.181 Safari/537.36 - USERNAME : safari
SYSTEM LOG -- DATE :2018-04-22 22:31:51 - CLASS : data - FUNCTION : kecamatan - URL : localhost:8080/kaderisasi/index.php/ajax/data/kecamatan - USER ID : 340 - USER IP : ::1 - USER ROLE : 1 - BROWSER : Mozilla/5.0 (Windows NT 10.0; Win64; x64) AppleWebKit/537.36 (KHTML, like Gecko) Chrome/65.0.3325.181 Safari/537.36 - USERNAME : safari
SYSTEM LOG -- DATE :2018-04-22 22:31:51 - CLASS : data - FUNCTION : kelurahan - URL : localhost:8080/kaderisasi/index.php/ajax/data/kelurahan - USER ID : 340 - USER IP : ::1 - USER ROLE : 1 - BROWSER : Mozilla/5.0 (Windows NT 10.0; Win64; x64) AppleWebKit/537.36 (KHTML, like Gecko) Chrome/65.0.3325.181 Safari/537.36 - USERNAME : safari
SYSTEM LOG -- DATE :2018-04-22 22:31:51 - CLASS : master_anggota - FUNCTION : edit - URL : localhost:8080/kaderisasi/index.php/master/master_anggota/edit/favicon.ico - USER ID : 340 - USER IP : ::1 - USER ROLE : 1 - BROWSER : Mozilla/5.0 (Windows NT 10.0; Win64; x64) AppleWebKit/537.36 (KHTML, like Gecko) Chrome/65.0.3325.181 Safari/537.36 - USERNAME : safari
SYSTEM LOG -- DATE :2018-04-22 22:31:51 - CLASS : master_anggota - FUNCTION : index - URL : localhost:8080/kaderisasi/index.php/master/master_anggota?msg=Error%20Parse&type_msg=error - USER ID : 340 - USER IP : ::1 - USER ROLE : 1 - BROWSER : Mozilla/5.0 (Windows NT 10.0; Win64; x64) AppleWebKit/537.36 (KHTML, like Gecko) Chrome/65.0.3325.181 Safari/537.36 - USERNAME : safari
SYSTEM LOG -- DATE :2018-04-22 22:31:53 - CLASS : master_anggota - FUNCTION : save_upload - URL : localhost:8080/kaderisasi/index.php/master/master_anggota/save_upload - USER ID : 340 - USER IP : ::1 - USER ROLE : 1 - BROWSER : Mozilla/5.0 (Windows NT 10.0; Win64; x64) AppleWebKit/537.36 (KHTML, like Gecko) Chrome/65.0.3325.181 Safari/537.36 - USERNAME : safari
SYSTEM LOG -- DATE :2018-04-22 22:31:54 - CLASS : master_anggota - FUNCTION : crop - URL : localhost:8080/kaderisasi/index.php/master/master_anggota/crop/?_id=tAY7NbSx4yJ0NfAJ3wL2%2F12iawYsingoONK8RBJMberdnzcjiPoxRWSDPTZawTIe1SGizyi607mvIyJYO7hCXQ%3D%3D - USER ID : 340 - USER IP : ::1 - USER ROLE : 1 - BROWSER : Mozilla/5.0 (Windows NT 10.0; Win64; x64) AppleWebKit/537.36 (KHTML, like Gecko) Chrome/65.0.3325.181 Safari/537.36 - USERNAME : safari
SYSTEM LOG -- DATE :2018-04-22 22:31:54 - CLASS : data - FUNCTION : kabupaten - URL : localhost:8080/kaderisasi/index.php/ajax/data/kabupaten - USER ID : 340 - USER IP : ::1 - USER ROLE : 1 - BROWSER : Mozilla/5.0 (Windows NT 10.0; Win64; x64) AppleWebKit/537.36 (KHTML, like Gecko) Chrome/65.0.3325.181 Safari/537.36 - USERNAME : safari
SYSTEM LOG -- DATE :2018-04-22 22:31:54 - CLASS : data - FUNCTION : kecamatan - URL : localhost:8080/kaderisasi/index.php/ajax/data/kecamatan - USER ID : 340 - USER IP : ::1 - USER ROLE : 1 - BROWSER : Mozilla/5.0 (Windows NT 10.0; Win64; x64) AppleWebKit/537.36 (KHTML, like Gecko) Chrome/65.0.3325.181 Safari/537.36 - USERNAME : safari
SYSTEM LOG -- DATE :2018-04-22 22:31:54 - CLASS : data - FUNCTION : kelurahan - URL : localhost:8080/kaderisasi/index.php/ajax/data/kelurahan - USER ID : 340 - USER IP : ::1 - USER ROLE : 1 - BROWSER : Mozilla/5.0 (Windows NT 10.0; Win64; x64) AppleWebKit/537.36 (KHTML, like Gecko) Chrome/65.0.3325.181 Safari/537.36 - USERNAME : safari
SYSTEM LOG -- DATE :2018-04-22 22:31:54 - CLASS : master_anggota - FUNCTION : crop - URL : localhost:8080/kaderisasi/index.php/master/master_anggota/crop/favicon.ico - USER ID : 340 - USER IP : ::1 - USER ROLE : 1 - BROWSER : Mozilla/5.0 (Windows NT 10.0; Win64; x64) AppleWebKit/537.36 (KHTML, like Gecko) Chrome/65.0.3325.181 Safari/537.36 - USERNAME : safari
SYSTEM LOG -- DATE :2018-04-22 22:31:55 - CLASS : master_anggota - FUNCTION : index - URL : localhost:8080/kaderisasi/index.php/master/master_anggota?msg=Error%20Parse&type_msg=error - USER ID : 340 - USER IP : ::1 - USER ROLE : 1 - BROWSER : Mozilla/5.0 (Windows NT 10.0; Win64; x64) AppleWebKit/537.36 (KHTML, like Gecko) Chrome/65.0.3325.181 Safari/537.36 - USERNAME : safari
SYSTEM LOG -- DATE :2018-04-22 22:31:56 - CLASS : master_anggota - FUNCTION : save_crop - URL : localhost:8080/kaderisasi/index.php/master/master_anggota/save_crop - USER ID : 340 - USER IP : ::1 - USER ROLE : 1 - BROWSER : Mozilla/5.0 (Windows NT 10.0; Win64; x64) AppleWebKit/537.36 (KHTML, like Gecko) Chrome/65.0.3325.181 Safari/537.36 - USERNAME : safari
SYSTEM LOG -- DATE :2018-04-22 22:31:57 - CLASS : data - FUNCTION : kabupaten - URL : localhost:8080/kaderisasi/index.php/ajax/data/kabupaten - USER ID : 340 - USER IP : ::1 - USER ROLE : 1 - BROWSER : Mozilla/5.0 (Windows NT 10.0; Win64; x64) AppleWebKit/537.36 (KHTML, like Gecko) Chrome/65.0.3325.181 Safari/537.36 - USERNAME : safari
SYSTEM LOG -- DATE :2018-04-22 22:31:57 - CLASS : data - FUNCTION : kecamatan - URL : localhost:8080/kaderisasi/index.php/ajax/data/kecamatan - USER ID : 340 - USER IP : ::1 - USER ROLE : 1 - BROWSER : Mozilla/5.0 (Windows NT 10.0; Win64; x64) AppleWebKit/537.36 (KHTML, like Gecko) Chrome/65.0.3325.181 Safari/537.36 - USERNAME : safari
SYSTEM LOG -- DATE :2018-04-22 22:31:57 - CLASS : data - FUNCTION : kelurahan - URL : localhost:8080/kaderisasi/index.php/ajax/data/kelurahan - USER ID : 340 - USER IP : ::1 - USER ROLE : 1 - BROWSER : Mozilla/5.0 (Windows NT 10.0; Win64; x64) AppleWebKit/537.36 (KHTML, like Gecko) Chrome/65.0.3325.181 Safari/537.36 - USERNAME : safari
SYSTEM LOG -- DATE :2018-04-22 22:31:57 - CLASS : data - FUNCTION : kabupaten - URL : localhost:8080/kaderisasi/index.php/ajax/data/kabupaten - USER ID : 340 - USER IP : ::1 - USER ROLE : 1 - BROWSER : Mozilla/5.0 (Windows NT 10.0; Win64; x64) AppleWebKit/537.36 (KHTML, like Gecko) Chrome/65.0.3325.181 Safari/537.36 - USERNAME : safari
SYSTEM LOG -- DATE :2018-04-22 22:31:57 - CLASS : data - FUNCTION : kecamatan - URL : localhost:8080/kaderisasi/index.php/ajax/data/kecamatan - USER ID : 340 - USER IP : ::1 - USER ROLE : 1 - BROWSER : Mozilla/5.0 (Windows NT 10.0; Win64; x64) AppleWebKit/537.36 (KHTML, like Gecko) Chrome/65.0.3325.181 Safari/537.36 - USERNAME : safari
SYSTEM LOG -- DATE :2018-04-22 22:31:57 - CLASS : data - FUNCTION : kabupaten - URL : localhost:8080/kaderisasi/index.php/ajax/data/kabupaten - USER ID : 340 - USER IP : ::1 - USER ROLE : 1 - BROWSER : Mozilla/5.0 (Windows NT 10.0; Win64; x64) AppleWebKit/537.36 (KHTML, like Gecko) Chrome/65.0.3325.181 Safari/537.36 - USERNAME : safari
SYSTEM LOG -- DATE :2018-04-22 22:31:57 - CLASS : data - FUNCTION : kecamatan - URL : localhost:8080/kaderisasi/index.php/ajax/data/kecamatan - USER ID : 340 - USER IP : ::1 - USER ROLE : 1 - BROWSER : Mozilla/5.0 (Windows NT 10.0; Win64; x64) AppleWebKit/537.36 (KHTML, like Gecko) Chrome/65.0.3325.181 Safari/537.36 - USERNAME : safari
SYSTEM LOG -- DATE :2018-04-22 22:31:57 - CLASS : master_anggota - FUNCTION : favicon.ico - URL : localhost:8080/kaderisasi/index.php/master/master_anggota/favicon.ico - USER ID : 340 - USER IP : ::1 - USER ROLE : 1 - BROWSER : Mozilla/5.0 (Windows NT 10.0; Win64; x64) AppleWebKit/537.36 (KHTML, like Gecko) Chrome/65.0.3325.181 Safari/537.36 - USERNAME : safari
SYSTEM LOG -- DATE :2018-04-22 22:45:47 - CLASS : master_anggota - FUNCTION : save_crop - URL : localhost:8080/kaderisasi/index.php/master/master_anggota/save_crop - USER ID : 340 - USER IP : ::1 - USER ROLE : 1 - BROWSER : Mozilla/5.0 (Windows NT 10.0; Win64; x64) AppleWebKit/537.36 (KHTML, like Gecko) Chrome/65.0.3325.181 Safari/537.36 - USERNAME : safari
SYSTEM LOG -- DATE :2018-04-22 22:45:48 - CLASS : data - FUNCTION : kabupaten - URL : localhost:8080/kaderisasi/index.php/ajax/data/kabupaten - USER ID : 340 - USER IP : ::1 - USER ROLE : 1 - BROWSER : Mozilla/5.0 (Windows NT 10.0; Win64; x64) AppleWebKit/537.36 (KHTML, like Gecko) Chrome/65.0.3325.181 Safari/537.36 - USERNAME : safari
SYSTEM LOG -- DATE :2018-04-22 22:45:48 - CLASS : data - FUNCTION : kecamatan - URL : localhost:8080/kaderisasi/index.php/ajax/data/kecamatan - USER ID : 340 - USER IP : ::1 - USER ROLE : 1 - BROWSER : Mozilla/5.0 (Windows NT 10.0; Win64; x64) AppleWebKit/537.36 (KHTML, like Gecko) Chrome/65.0.3325.181 Safari/537.36 - USERNAME : safari
SYSTEM LOG -- DATE :2018-04-22 22:45:48 - CLASS : data - FUNCTION : kelurahan - URL : localhost:8080/kaderisasi/index.php/ajax/data/kelurahan - USER ID : 340 - USER IP : ::1 - USER ROLE : 1 - BROWSER : Mozilla/5.0 (Windows NT 10.0; Win64; x64) AppleWebKit/537.36 (KHTML, like Gecko) Chrome/65.0.3325.181 Safari/537.36 - USERNAME : safari
SYSTEM LOG -- DATE :2018-04-22 22:45:48 - CLASS : data - FUNCTION : kabupaten - URL : localhost:8080/kaderisasi/index.php/ajax/data/kabupaten - USER ID : 340 - USER IP : ::1 - USER ROLE : 1 - BROWSER : Mozilla/5.0 (Windows NT 10.0; Win64; x64) AppleWebKit/537.36 (KHTML, like Gecko) Chrome/65.0.3325.181 Safari/537.36 - USERNAME : safari
SYSTEM LOG -- DATE :2018-04-22 22:45:48 - CLASS : data - FUNCTION : kecamatan - URL : localhost:8080/kaderisasi/index.php/ajax/data/kecamatan - USER ID : 340 - USER IP : ::1 - USER ROLE : 1 - BROWSER : Mozilla/5.0 (Windows NT 10.0; Win64; x64) AppleWebKit/537.36 (KHTML, like Gecko) Chrome/65.0.3325.181 Safari/537.36 - USERNAME : safari
SYSTEM LOG -- DATE :2018-04-22 22:45:48 - CLASS : data - FUNCTION : kabupaten - URL : localhost:8080/kaderisasi/index.php/ajax/data/kabupaten - USER ID : 340 - USER IP : ::1 - USER ROLE : 1 - BROWSER : Mozilla/5.0 (Windows NT 10.0; Win64; x64) AppleWebKit/537.36 (KHTML, like Gecko) Chrome/65.0.3325.181 Safari/537.36 - USERNAME : safari
SYSTEM LOG -- DATE :2018-04-22 22:45:48 - CLASS : data - FUNCTION : kecamatan - URL : localhost:8080/kaderisasi/index.php/ajax/data/kecamatan - USER ID : 340 - USER IP : ::1 - USER ROLE : 1 - BROWSER : Mozilla/5.0 (Windows NT 10.0; Win64; x64) AppleWebKit/537.36 (KHTML, like Gecko) Chrome/65.0.3325.181 Safari/537.36 - USERNAME : safari
SYSTEM LOG -- DATE :2018-04-22 22:49:00 - CLASS : master_anggota - FUNCTION : save_crop - URL : localhost:8080/kaderisasi/index.php/master/master_anggota/save_crop - USER ID : 340 - USER IP : ::1 - USER ROLE : 1 - BROWSER : Mozilla/5.0 (Windows NT 10.0; Win64; x64) AppleWebKit/537.36 (KHTML, like Gecko) Chrome/65.0.3325.181 Safari/537.36 - USERNAME : safari
SYSTEM LOG -- DATE :2018-04-22 22:49:01 - CLASS : data - FUNCTION : kabupaten - URL : localhost:8080/kaderisasi/index.php/ajax/data/kabupaten - USER ID : 340 - USER IP : ::1 - USER ROLE : 1 - BROWSER : Mozilla/5.0 (Windows NT 10.0; Win64; x64) AppleWebKit/537.36 (KHTML, like Gecko) Chrome/65.0.3325.181 Safari/537.36 - USERNAME : safari
SYSTEM LOG -- DATE :2018-04-22 22:49:01 - CLASS : data - FUNCTION : kecamatan - URL : localhost:8080/kaderisasi/index.php/ajax/data/kecamatan - USER ID : 340 - USER IP : ::1 - USER ROLE : 1 - BROWSER : Mozilla/5.0 (Windows NT 10.0; Win64; x64) AppleWebKit/537.36 (KHTML, like Gecko) Chrome/65.0.3325.181 Safari/537.36 - USERNAME : safari
SYSTEM LOG -- DATE :2018-04-22 22:49:01 - CLASS : data - FUNCTION : kelurahan - URL : localhost:8080/kaderisasi/index.php/ajax/data/kelurahan - USER ID : 340 - USER IP : ::1 - USER ROLE : 1 - BROWSER : Mozilla/5.0 (Windows NT 10.0; Win64; x64) AppleWebKit/537.36 (KHTML, like Gecko) Chrome/65.0.3325.181 Safari/537.36 - USERNAME : safari
SYSTEM LOG -- DATE :2018-04-22 22:49:01 - CLASS : data - FUNCTION : kabupaten - URL : localhost:8080/kaderisasi/index.php/ajax/data/kabupaten - USER ID : 340 - USER IP : ::1 - USER ROLE : 1 - BROWSER : Mozilla/5.0 (Windows NT 10.0; Win64; x64) AppleWebKit/537.36 (KHTML, like Gecko) Chrome/65.0.3325.181 Safari/537.36 - USERNAME : safari
SYSTEM LOG -- DATE :2018-04-22 22:49:01 - CLASS : data - FUNCTION : kecamatan - URL : localhost:8080/kaderisasi/index.php/ajax/data/kecamatan - USER ID : 340 - USER IP : ::1 - USER ROLE : 1 - BROWSER : Mozilla/5.0 (Windows NT 10.0; Win64; x64) AppleWebKit/537.36 (KHTML, like Gecko) Chrome/65.0.3325.181 Safari/537.36 - USERNAME : safari
SYSTEM LOG -- DATE :2018-04-22 22:49:01 - CLASS : data - FUNCTION : kabupaten - URL : localhost:8080/kaderisasi/index.php/ajax/data/kabupaten - USER ID : 340 - USER IP : ::1 - USER ROLE : 1 - BROWSER : Mozilla/5.0 (Windows NT 10.0; Win64; x64) AppleWebKit/537.36 (KHTML, like Gecko) Chrome/65.0.3325.181 Safari/537.36 - USERNAME : safari
SYSTEM LOG -- DATE :2018-04-22 22:49:01 - CLASS : data - FUNCTION : kecamatan - URL : localhost:8080/kaderisasi/index.php/ajax/data/kecamatan - USER ID : 340 - USER IP : ::1 - USER ROLE : 1 - BROWSER : Mozilla/5.0 (Windows NT 10.0; Win64; x64) AppleWebKit/537.36 (KHTML, like Gecko) Chrome/65.0.3325.181 Safari/537.36 - USERNAME : safari
SYSTEM LOG -- DATE :2018-04-22 22:49:57 - CLASS : master_anggota - FUNCTION : save_crop - URL : localhost:8080/kaderisasi/index.php/master/master_anggota/save_crop - USER ID : 340 - USER IP : ::1 - USER ROLE : 1 - BROWSER : Mozilla/5.0 (Windows NT 10.0; Win64; x64) AppleWebKit/537.36 (KHTML, like Gecko) Chrome/65.0.3325.181 Safari/537.36 - USERNAME : safari
SYSTEM LOG -- DATE :2018-04-22 22:49:58 - CLASS : data - FUNCTION : kabupaten - URL : localhost:8080/kaderisasi/index.php/ajax/data/kabupaten - USER ID : 340 - USER IP : ::1 - USER ROLE : 1 - BROWSER : Mozilla/5.0 (Windows NT 10.0; Win64; x64) AppleWebKit/537.36 (KHTML, like Gecko) Chrome/65.0.3325.181 Safari/537.36 - USERNAME : safari
SYSTEM LOG -- DATE :2018-04-22 22:49:58 - CLASS : data - FUNCTION : kecamatan - URL : localhost:8080/kaderisasi/index.php/ajax/data/kecamatan - USER ID : 340 - USER IP : ::1 - USER ROLE : 1 - BROWSER : Mozilla/5.0 (Windows NT 10.0; Win64; x64) AppleWebKit/537.36 (KHTML, like Gecko) Chrome/65.0.3325.181 Safari/537.36 - USERNAME : safari
SYSTEM LOG -- DATE :2018-04-22 22:49:58 - CLASS : data - FUNCTION : kelurahan - URL : localhost:8080/kaderisasi/index.php/ajax/data/kelurahan - USER ID : 340 - USER IP : ::1 - USER ROLE : 1 - BROWSER : Mozilla/5.0 (Windows NT 10.0; Win64; x64) AppleWebKit/537.36 (KHTML, like Gecko) Chrome/65.0.3325.181 Safari/537.36 - USERNAME : safari
SYSTEM LOG -- DATE :2018-04-22 22:49:58 - CLASS : data - FUNCTION : kabupaten - URL : localhost:8080/kaderisasi/index.php/ajax/data/kabupaten - USER ID : 340 - USER IP : ::1 - USER ROLE : 1 - BROWSER : Mozilla/5.0 (Windows NT 10.0; Win64; x64) AppleWebKit/537.36 (KHTML, like Gecko) Chrome/65.0.3325.181 Safari/537.36 - USERNAME : safari
SYSTEM LOG -- DATE :2018-04-22 22:49:58 - CLASS : data - FUNCTION : kecamatan - URL : localhost:8080/kaderisasi/index.php/ajax/data/kecamatan - USER ID : 340 - USER IP : ::1 - USER ROLE : 1 - BROWSER : Mozilla/5.0 (Windows NT 10.0; Win64; x64) AppleWebKit/537.36 (KHTML, like Gecko) Chrome/65.0.3325.181 Safari/537.36 - USERNAME : safari
SYSTEM LOG -- DATE :2018-04-22 22:49:58 - CLASS : data - FUNCTION : kabupaten - URL : localhost:8080/kaderisasi/index.php/ajax/data/kabupaten - USER ID : 340 - USER IP : ::1 - USER ROLE : 1 - BROWSER : Mozilla/5.0 (Windows NT 10.0; Win64; x64) AppleWebKit/537.36 (KHTML, like Gecko) Chrome/65.0.3325.181 Safari/537.36 - USERNAME : safari
SYSTEM LOG -- DATE :2018-04-22 22:49:58 - CLASS : data - FUNCTION : kecamatan - URL : localhost:8080/kaderisasi/index.php/ajax/data/kecamatan - USER ID : 340 - USER IP : ::1 - USER ROLE : 1 - BROWSER : Mozilla/5.0 (Windows NT 10.0; Win64; x64) AppleWebKit/537.36 (KHTML, like Gecko) Chrome/65.0.3325.181 Safari/537.36 - USERNAME : safari
SYSTEM LOG -- DATE :2018-04-22 22:57:01 - CLASS : master_anggota - FUNCTION : index - URL : localhost:8080/kaderisasi/index.php/master/master_anggota/index - USER ID : 340 - USER IP : ::1 - USER ROLE : 1 - BROWSER : Mozilla/5.0 (Windows NT 10.0; Win64; x64) AppleWebKit/537.36 (KHTML, like Gecko) Chrome/65.0.3325.181 Safari/537.36 - USERNAME : safari
SYSTEM LOG -- DATE :2018-04-22 22:57:07 - CLASS : master_anggota - FUNCTION : edit - URL : localhost:8080/kaderisasi/index.php/master/master_anggota/edit/?_id=3JeOfilTZ3Jfs43p6KQVdqov8p1pS9HmiY%2FPsSBMoQ8jataUqnEcBf%2B2L7bx2qf%2FT3Er0mxhz%2FBwoQMqeO%2BbXA%3D%3D - USER ID : 340 - USER IP : ::1 - USER ROLE : 1 - BROWSER : Mozilla/5.0 (Windows NT 10.0; Win64; x64) AppleWebKit/537.36 (KHTML, like Gecko) Chrome/65.0.3325.181 Safari/537.36 - USERNAME : safari
SYSTEM LOG -- DATE :2018-04-22 22:57:08 - CLASS : data - FUNCTION : kabupaten - URL : localhost:8080/kaderisasi/index.php/ajax/data/kabupaten - USER ID : 340 - USER IP : ::1 - USER ROLE : 1 - BROWSER : Mozilla/5.0 (Windows NT 10.0; Win64; x64) AppleWebKit/537.36 (KHTML, like Gecko) Chrome/65.0.3325.181 Safari/537.36 - USERNAME : safari
SYSTEM LOG -- DATE :2018-04-22 22:57:08 - CLASS : data - FUNCTION : kecamatan - URL : localhost:8080/kaderisasi/index.php/ajax/data/kecamatan - USER ID : 340 - USER IP : ::1 - USER ROLE : 1 - BROWSER : Mozilla/5.0 (Windows NT 10.0; Win64; x64) AppleWebKit/537.36 (KHTML, like Gecko) Chrome/65.0.3325.181 Safari/537.36 - USERNAME : safari
SYSTEM LOG -- DATE :2018-04-22 22:57:08 - CLASS : data - FUNCTION : kelurahan - URL : localhost:8080/kaderisasi/index.php/ajax/data/kelurahan - USER ID : 340 - USER IP : ::1 - USER ROLE : 1 - BROWSER : Mozilla/5.0 (Windows NT 10.0; Win64; x64) AppleWebKit/537.36 (KHTML, like Gecko) Chrome/65.0.3325.181 Safari/537.36 - USERNAME : safari
SYSTEM LOG -- DATE :2018-04-22 22:57:08 - CLASS : master_anggota - FUNCTION : edit - URL : localhost:8080/kaderisasi/index.php/master/master_anggota/edit/favicon.ico - USER ID : 340 - USER IP : ::1 - USER ROLE : 1 - BROWSER : Mozilla/5.0 (Windows NT 10.0; Win64; x64) AppleWebKit/537.36 (KHTML, like Gecko) Chrome/65.0.3325.181 Safari/537.36 - USERNAME : safari
SYSTEM LOG -- DATE :2018-04-22 22:57:08 - CLASS : master_anggota - FUNCTION : index - URL : localhost:8080/kaderisasi/index.php/master/master_anggota?msg=Error%20Parse&type_msg=error - USER ID : 340 - USER IP : ::1 - USER ROLE : 1 - BROWSER : Mozilla/5.0 (Windows NT 10.0; Win64; x64) AppleWebKit/537.36 (KHTML, like Gecko) Chrome/65.0.3325.181 Safari/537.36 - USERNAME : safari
SYSTEM LOG -- DATE :2018-04-22 22:57:10 - CLASS : master_anggota - FUNCTION : save_upload - URL : localhost:8080/kaderisasi/index.php/master/master_anggota/save_upload - USER ID : 340 - USER IP : ::1 - USER ROLE : 1 - BROWSER : Mozilla/5.0 (Windows NT 10.0; Win64; x64) AppleWebKit/537.36 (KHTML, like Gecko) Chrome/65.0.3325.181 Safari/537.36 - USERNAME : safari
SYSTEM LOG -- DATE :2018-04-22 22:57:11 - CLASS : master_anggota - FUNCTION : crop - URL : localhost:8080/kaderisasi/index.php/master/master_anggota/crop/?_id=fQew0DN4u8T8G679o8T87m1Y%2Bfp8rrOMmECl4DU75er09cMcUgcECRTN2k7JCCVeCy%2BxnIEqdXKtQraP1vI9Qw%3D%3D - USER ID : 340 - USER IP : ::1 - USER ROLE : 1 - BROWSER : Mozilla/5.0 (Windows NT 10.0; Win64; x64) AppleWebKit/537.36 (KHTML, like Gecko) Chrome/65.0.3325.181 Safari/537.36 - USERNAME : safari
SYSTEM LOG -- DATE :2018-04-22 22:57:11 - CLASS : data - FUNCTION : kabupaten - URL : localhost:8080/kaderisasi/index.php/ajax/data/kabupaten - USER ID : 340 - USER IP : ::1 - USER ROLE : 1 - BROWSER : Mozilla/5.0 (Windows NT 10.0; Win64; x64) AppleWebKit/537.36 (KHTML, like Gecko) Chrome/65.0.3325.181 Safari/537.36 - USERNAME : safari
SYSTEM LOG -- DATE :2018-04-22 22:57:11 - CLASS : data - FUNCTION : kecamatan - URL : localhost:8080/kaderisasi/index.php/ajax/data/kecamatan - USER ID : 340 - USER IP : ::1 - USER ROLE : 1 - BROWSER : Mozilla/5.0 (Windows NT 10.0; Win64; x64) AppleWebKit/537.36 (KHTML, like Gecko) Chrome/65.0.3325.181 Safari/537.36 - USERNAME : safari
SYSTEM LOG -- DATE :2018-04-22 22:57:11 - CLASS : data - FUNCTION : kelurahan - URL : localhost:8080/kaderisasi/index.php/ajax/data/kelurahan - USER ID : 340 - USER IP : ::1 - USER ROLE : 1 - BROWSER : Mozilla/5.0 (Windows NT 10.0; Win64; x64) AppleWebKit/537.36 (KHTML, like Gecko) Chrome/65.0.3325.181 Safari/537.36 - USERNAME : safari
SYSTEM LOG -- DATE :2018-04-22 22:57:11 - CLASS : master_anggota - FUNCTION : crop - URL : localhost:8080/kaderisasi/index.php/master/master_anggota/crop/favicon.ico - USER ID : 340 - USER IP : ::1 - USER ROLE : 1 - BROWSER : Mozilla/5.0 (Windows NT 10.0; Win64; x64) AppleWebKit/537.36 (KHTML, like Gecko) Chrome/65.0.3325.181 Safari/537.36 - USERNAME : safari
SYSTEM LOG -- DATE :2018-04-22 22:57:11 - CLASS : master_anggota - FUNCTION : index - URL : localhost:8080/kaderisasi/index.php/master/master_anggota?msg=Error%20Parse&type_msg=error - USER ID : 340 - USER IP : ::1 - USER ROLE : 1 - BROWSER : Mozilla/5.0 (Windows NT 10.0; Win64; x64) AppleWebKit/537.36 (KHTML, like Gecko) Chrome/65.0.3325.181 Safari/537.36 - USERNAME : safari
SYSTEM LOG -- DATE :2018-04-22 22:57:13 - CLASS : master_anggota - FUNCTION : save_crop - URL : localhost:8080/kaderisasi/index.php/master/master_anggota/save_crop - USER ID : 340 - USER IP : ::1 - USER ROLE : 1 - BROWSER : Mozilla/5.0 (Windows NT 10.0; Win64; x64) AppleWebKit/537.36 (KHTML, like Gecko) Chrome/65.0.3325.181 Safari/537.36 - USERNAME : safari
SYSTEM LOG -- DATE :2018-04-22 22:57:13 - CLASS : data - FUNCTION : kabupaten - URL : localhost:8080/kaderisasi/index.php/ajax/data/kabupaten - USER ID : 340 - USER IP : ::1 - USER ROLE : 1 - BROWSER : Mozilla/5.0 (Windows NT 10.0; Win64; x64) AppleWebKit/537.36 (KHTML, like Gecko) Chrome/65.0.3325.181 Safari/537.36 - USERNAME : safari
SYSTEM LOG -- DATE :2018-04-22 22:57:13 - CLASS : data - FUNCTION : kecamatan - URL : localhost:8080/kaderisasi/index.php/ajax/data/kecamatan - USER ID : 340 - USER IP : ::1 - USER ROLE : 1 - BROWSER : Mozilla/5.0 (Windows NT 10.0; Win64; x64) AppleWebKit/537.36 (KHTML, like Gecko) Chrome/65.0.3325.181 Safari/537.36 - USERNAME : safari
SYSTEM LOG -- DATE :2018-04-22 22:57:13 - CLASS : data - FUNCTION : kelurahan - URL : localhost:8080/kaderisasi/index.php/ajax/data/kelurahan - USER ID : 340 - USER IP : ::1 - USER ROLE : 1 - BROWSER : Mozilla/5.0 (Windows NT 10.0; Win64; x64) AppleWebKit/537.36 (KHTML, like Gecko) Chrome/65.0.3325.181 Safari/537.36 - USERNAME : safari
SYSTEM LOG -- DATE :2018-04-22 22:57:13 - CLASS : data - FUNCTION : kabupaten - URL : localhost:8080/kaderisasi/index.php/ajax/data/kabupaten - USER ID : 340 - USER IP : ::1 - USER ROLE : 1 - BROWSER : Mozilla/5.0 (Windows NT 10.0; Win64; x64) AppleWebKit/537.36 (KHTML, like Gecko) Chrome/65.0.3325.181 Safari/537.36 - USERNAME : safari
SYSTEM LOG -- DATE :2018-04-22 22:57:13 - CLASS : data - FUNCTION : kecamatan - URL : localhost:8080/kaderisasi/index.php/ajax/data/kecamatan - USER ID : 340 - USER IP : ::1 - USER ROLE : 1 - BROWSER : Mozilla/5.0 (Windows NT 10.0; Win64; x64) AppleWebKit/537.36 (KHTML, like Gecko) Chrome/65.0.3325.181 Safari/537.36 - USERNAME : safari
SYSTEM LOG -- DATE :2018-04-22 22:57:13 - CLASS : data - FUNCTION : kabupaten - URL : localhost:8080/kaderisasi/index.php/ajax/data/kabupaten - USER ID : 340 - USER IP : ::1 - USER ROLE : 1 - BROWSER : Mozilla/5.0 (Windows NT 10.0; Win64; x64) AppleWebKit/537.36 (KHTML, like Gecko) Chrome/65.0.3325.181 Safari/537.36 - USERNAME : safari
SYSTEM LOG -- DATE :2018-04-22 22:57:13 - CLASS : data - FUNCTION : kecamatan - URL : localhost:8080/kaderisasi/index.php/ajax/data/kecamatan - USER ID : 340 - USER IP : ::1 - USER ROLE : 1 - BROWSER : Mozilla/5.0 (Windows NT 10.0; Win64; x64) AppleWebKit/537.36 (KHTML, like Gecko) Chrome/65.0.3325.181 Safari/537.36 - USERNAME : safari
SYSTEM LOG -- DATE :2018-04-22 22:57:38 - CLASS : master_anggota - FUNCTION : save - URL : localhost:8080/kaderisasi/index.php/master/master_anggota/save - USER ID : 340 - USER IP : ::1 - USER ROLE : 1 - BROWSER : Mozilla/5.0 (Windows NT 10.0; Win64; x64) AppleWebKit/537.36 (KHTML, like Gecko) Chrome/65.0.3325.181 Safari/537.36 - USERNAME : safari
SYSTEM LOG -- DATE :2018-04-22 22:58:51 - CLASS : master_anggota - FUNCTION : index - URL : localhost:8080/kaderisasi/index.php/master/master_anggota?msg=Input%20Anggota%20Berhasil&type_msg=success - USER ID : 340 - USER IP : ::1 - USER ROLE : 1 - BROWSER : Mozilla/5.0 (Windows NT 10.0; Win64; x64) AppleWebKit/537.36 (KHTML, like Gecko) Chrome/65.0.3325.181 Safari/537.36 - USERNAME : safari
SYSTEM LOG -- DATE :2018-04-22 22:59:00 - CLASS : master_anggota - FUNCTION : edit - URL : localhost:8080/kaderisasi/index.php/master/master_anggota/edit/?_id=iDUuMjJ9UpdyQ5H677Y8L9MfiPoetWIjeFAnSzV%2BzMEFs3e8RSHES7iPGyIebv%2BA8qYhNez56d1HC4JCutmj%2Fg%3D%3D - USER ID : 340 - USER IP : ::1 - USER ROLE : 1 - BROWSER : Mozilla/5.0 (Windows NT 10.0; Win64; x64) AppleWebKit/537.36 (KHTML, like Gecko) Chrome/65.0.3325.181 Safari/537.36 - USERNAME : safari
SYSTEM LOG -- DATE :2018-04-22 22:59:00 - CLASS : data - FUNCTION : kabupaten - URL : localhost:8080/kaderisasi/index.php/ajax/data/kabupaten - USER ID : 340 - USER IP : ::1 - USER ROLE : 1 - BROWSER : Mozilla/5.0 (Windows NT 10.0; Win64; x64) AppleWebKit/537.36 (KHTML, like Gecko) Chrome/65.0.3325.181 Safari/537.36 - USERNAME : safari
SYSTEM LOG -- DATE :2018-04-22 22:59:00 - CLASS : data - FUNCTION : kecamatan - URL : localhost:8080/kaderisasi/index.php/ajax/data/kecamatan - USER ID : 340 - USER IP : ::1 - USER ROLE : 1 - BROWSER : Mozilla/5.0 (Windows NT 10.0; Win64; x64) AppleWebKit/537.36 (KHTML, like Gecko) Chrome/65.0.3325.181 Safari/537.36 - USERNAME : safari
SYSTEM LOG -- DATE :2018-04-22 22:59:00 - CLASS : data - FUNCTION : kelurahan - URL : localhost:8080/kaderisasi/index.php/ajax/data/kelurahan - USER ID : 340 - USER IP : ::1 - USER ROLE : 1 - BROWSER : Mozilla/5.0 (Windows NT 10.0; Win64; x64) AppleWebKit/537.36 (KHTML, like Gecko) Chrome/65.0.3325.181 Safari/537.36 - USERNAME : safari
SYSTEM LOG -- DATE :2018-04-22 22:59:00 - CLASS : master_anggota - FUNCTION : edit - URL : localhost:8080/kaderisasi/index.php/master/master_anggota/edit/favicon.ico - USER ID : 340 - USER IP : ::1 - USER ROLE : 1 - BROWSER : Mozilla/5.0 (Windows NT 10.0; Win64; x64) AppleWebKit/537.36 (KHTML, like Gecko) Chrome/65.0.3325.181 Safari/537.36 - USERNAME : safari
SYSTEM LOG -- DATE :2018-04-22 22:59:00 - CLASS : master_anggota - FUNCTION : index - URL : localhost:8080/kaderisasi/index.php/master/master_anggota?msg=Error%20Parse&type_msg=error - USER ID : 340 - USER IP : ::1 - USER ROLE : 1 - BROWSER : Mozilla/5.0 (Windows NT 10.0; Win64; x64) AppleWebKit/537.36 (KHTML, like Gecko) Chrome/65.0.3325.181 Safari/537.36 - USERNAME : safari
SYSTEM LOG -- DATE :2018-04-22 22:59:03 - CLASS : master_anggota - FUNCTION : save_upload - URL : localhost:8080/kaderisasi/index.php/master/master_anggota/save_upload - USER ID : 340 - USER IP : ::1 - USER ROLE : 1 - BROWSER : Mozilla/5.0 (Windows NT 10.0; Win64; x64) AppleWebKit/537.36 (KHTML, like Gecko) Chrome/65.0.3325.181 Safari/537.36 - USERNAME : safari
SYSTEM LOG -- DATE :2018-04-22 22:59:03 - CLASS : master_anggota - FUNCTION : crop - URL : localhost:8080/kaderisasi/index.php/master/master_anggota/crop/?_id=XiFbSpVXGFqZI2e%2FkzYazytV583jOjoA4TvwivtofTyRwaichEUHOht7ODLTWdwJ800Fih30vpkgnSMijnxWhg%3D%3D - USER ID : 340 - USER IP : ::1 - USER ROLE : 1 - BROWSER : Mozilla/5.0 (Windows NT 10.0; Win64; x64) AppleWebKit/537.36 (KHTML, like Gecko) Chrome/65.0.3325.181 Safari/537.36 - USERNAME : safari
SYSTEM LOG -- DATE :2018-04-22 22:59:03 - CLASS : data - FUNCTION : kabupaten - URL : localhost:8080/kaderisasi/index.php/ajax/data/kabupaten - USER ID : 340 - USER IP : ::1 - USER ROLE : 1 - BROWSER : Mozilla/5.0 (Windows NT 10.0; Win64; x64) AppleWebKit/537.36 (KHTML, like Gecko) Chrome/65.0.3325.181 Safari/537.36 - USERNAME : safari
SYSTEM LOG -- DATE :2018-04-22 22:59:03 - CLASS : data - FUNCTION : kecamatan - URL : localhost:8080/kaderisasi/index.php/ajax/data/kecamatan - USER ID : 340 - USER IP : ::1 - USER ROLE : 1 - BROWSER : Mozilla/5.0 (Windows NT 10.0; Win64; x64) AppleWebKit/537.36 (KHTML, like Gecko) Chrome/65.0.3325.181 Safari/537.36 - USERNAME : safari
SYSTEM LOG -- DATE :2018-04-22 22:59:04 - CLASS : data - FUNCTION : kelurahan - URL : localhost:8080/kaderisasi/index.php/ajax/data/kelurahan - USER ID : 340 - USER IP : ::1 - USER ROLE : 1 - BROWSER : Mozilla/5.0 (Windows NT 10.0; Win64; x64) AppleWebKit/537.36 (KHTML, like Gecko) Chrome/65.0.3325.181 Safari/537.36 - USERNAME : safari
SYSTEM LOG -- DATE :2018-04-22 22:59:04 - CLASS : master_anggota - FUNCTION : crop - URL : localhost:8080/kaderisasi/index.php/master/master_anggota/crop/favicon.ico - USER ID : 340 - USER IP : ::1 - USER ROLE : 1 - BROWSER : Mozilla/5.0 (Windows NT 10.0; Win64; x64) AppleWebKit/537.36 (KHTML, like Gecko) Chrome/65.0.3325.181 Safari/537.36 - USERNAME : safari
SYSTEM LOG -- DATE :2018-04-22 22:59:04 - CLASS : master_anggota - FUNCTION : index - URL : localhost:8080/kaderisasi/index.php/master/master_anggota?msg=Error%20Parse&type_msg=error - USER ID : 340 - USER IP : ::1 - USER ROLE : 1 - BROWSER : Mozilla/5.0 (Windows NT 10.0; Win64; x64) AppleWebKit/537.36 (KHTML, like Gecko) Chrome/65.0.3325.181 Safari/537.36 - USERNAME : safari
SYSTEM LOG -- DATE :2018-04-22 22:59:05 - CLASS : master_anggota - FUNCTION : save_crop - URL : localhost:8080/kaderisasi/index.php/master/master_anggota/save_crop - USER ID : 340 - USER IP : ::1 - USER ROLE : 1 - BROWSER : Mozilla/5.0 (Windows NT 10.0; Win64; x64) AppleWebKit/537.36 (KHTML, like Gecko) Chrome/65.0.3325.181 Safari/537.36 - USERNAME : safari
SYSTEM LOG -- DATE :2018-04-22 22:59:06 - CLASS : data - FUNCTION : kabupaten - URL : localhost:8080/kaderisasi/index.php/ajax/data/kabupaten - USER ID : 340 - USER IP : ::1 - USER ROLE : 1 - BROWSER : Mozilla/5.0 (Windows NT 10.0; Win64; x64) AppleWebKit/537.36 (KHTML, like Gecko) Chrome/65.0.3325.181 Safari/537.36 - USERNAME : safari
SYSTEM LOG -- DATE :2018-04-22 22:59:06 - CLASS : data - FUNCTION : kecamatan - URL : localhost:8080/kaderisasi/index.php/ajax/data/kecamatan - USER ID : 340 - USER IP : ::1 - USER ROLE : 1 - BROWSER : Mozilla/5.0 (Windows NT 10.0; Win64; x64) AppleWebKit/537.36 (KHTML, like Gecko) Chrome/65.0.3325.181 Safari/537.36 - USERNAME : safari
SYSTEM LOG -- DATE :2018-04-22 22:59:06 - CLASS : data - FUNCTION : kelurahan - URL : localhost:8080/kaderisasi/index.php/ajax/data/kelurahan - USER ID : 340 - USER IP : ::1 - USER ROLE : 1 - BROWSER : Mozilla/5.0 (Windows NT 10.0; Win64; x64) AppleWebKit/537.36 (KHTML, like Gecko) Chrome/65.0.3325.181 Safari/537.36 - USERNAME : safari
SYSTEM LOG -- DATE :2018-04-22 22:59:06 - CLASS : data - FUNCTION : kabupaten - URL : localhost:8080/kaderisasi/index.php/ajax/data/kabupaten - USER ID : 340 - USER IP : ::1 - USER ROLE : 1 - BROWSER : Mozilla/5.0 (Windows NT 10.0; Win64; x64) AppleWebKit/537.36 (KHTML, like Gecko) Chrome/65.0.3325.181 Safari/537.36 - USERNAME : safari
SYSTEM LOG -- DATE :2018-04-22 22:59:06 - CLASS : data - FUNCTION : kecamatan - URL : localhost:8080/kaderisasi/index.php/ajax/data/kecamatan - USER ID : 340 - USER IP : ::1 - USER ROLE : 1 - BROWSER : Mozilla/5.0 (Windows NT 10.0; Win64; x64) AppleWebKit/537.36 (KHTML, like Gecko) Chrome/65.0.3325.181 Safari/537.36 - USERNAME : safari
SYSTEM LOG -- DATE :2018-04-22 22:59:06 - CLASS : data - FUNCTION : kabupaten - URL : localhost:8080/kaderisasi/index.php/ajax/data/kabupaten - USER ID : 340 - USER IP : ::1 - USER ROLE : 1 - BROWSER : Mozilla/5.0 (Windows NT 10.0; Win64; x64) AppleWebKit/537.36 (KHTML, like Gecko) Chrome/65.0.3325.181 Safari/537.36 - USERNAME : safari
SYSTEM LOG -- DATE :2018-04-22 22:59:06 - CLASS : data - FUNCTION : kecamatan - URL : localhost:8080/kaderisasi/index.php/ajax/data/kecamatan - USER ID : 340 - USER IP : ::1 - USER ROLE : 1 - BROWSER : Mozilla/5.0 (Windows NT 10.0; Win64; x64) AppleWebKit/537.36 (KHTML, like Gecko) Chrome/65.0.3325.181 Safari/537.36 - USERNAME : safari
SYSTEM LOG -- DATE :2018-04-22 22:59:19 - CLASS : master_anggota - FUNCTION : save - URL : localhost:8080/kaderisasi/index.php/master/master_anggota/save - USER ID : 340 - USER IP : ::1 - USER ROLE : 1 - BROWSER : Mozilla/5.0 (Windows NT 10.0; Win64; x64) AppleWebKit/537.36 (KHTML, like Gecko) Chrome/65.0.3325.181 Safari/537.36 - USERNAME : safari
SYSTEM LOG -- DATE :2018-04-22 22:59:19 - CLASS : master_anggota - FUNCTION : index - URL : localhost:8080/kaderisasi/index.php/master/master_anggota?msg=Input%20Anggota%20Berhasil&type_msg=success - USER ID : 340 - USER IP : ::1 - USER ROLE : 1 - BROWSER : Mozilla/5.0 (Windows NT 10.0; Win64; x64) AppleWebKit/537.36 (KHTML, like Gecko) Chrome/65.0.3325.181 Safari/537.36 - USERNAME : safari
SYSTEM LOG -- DATE :2018-04-22 22:59:27 - CLASS : master_anggota - FUNCTION : edit - URL : localhost:8080/kaderisasi/index.php/master/master_anggota/edit/?_id=e7KZFRkly7MiUC%2FGw%2BCZpKGevJA%2FQATSwx5RiQJKE4nXqsdx7eptucw3wO50nm1pDNwfw8Wk54UJ4Z3kEypWjg%3D%3D - USER ID : 340 - USER IP : ::1 - USER ROLE : 1 - BROWSER : Mozilla/5.0 (Windows NT 10.0; Win64; x64) AppleWebKit/537.36 (KHTML, like Gecko) Chrome/65.0.3325.181 Safari/537.36 - USERNAME : safari
SYSTEM LOG -- DATE :2018-04-22 22:59:27 - CLASS : data - FUNCTION : kabupaten - URL : localhost:8080/kaderisasi/index.php/ajax/data/kabupaten - USER ID : 340 - USER IP : ::1 - USER ROLE : 1 - BROWSER : Mozilla/5.0 (Windows NT 10.0; Win64; x64) AppleWebKit/537.36 (KHTML, like Gecko) Chrome/65.0.3325.181 Safari/537.36 - USERNAME : safari
SYSTEM LOG -- DATE :2018-04-22 22:59:27 - CLASS : data - FUNCTION : kecamatan - URL : localhost:8080/kaderisasi/index.php/ajax/data/kecamatan - USER ID : 340 - USER IP : ::1 - USER ROLE : 1 - BROWSER : Mozilla/5.0 (Windows NT 10.0; Win64; x64) AppleWebKit/537.36 (KHTML, like Gecko) Chrome/65.0.3325.181 Safari/537.36 - USERNAME : safari
SYSTEM LOG -- DATE :2018-04-22 22:59:27 - CLASS : data - FUNCTION : kelurahan - URL : localhost:8080/kaderisasi/index.php/ajax/data/kelurahan - USER ID : 340 - USER IP : ::1 - USER ROLE : 1 - BROWSER : Mozilla/5.0 (Windows NT 10.0; Win64; x64) AppleWebKit/537.36 (KHTML, like Gecko) Chrome/65.0.3325.181 Safari/537.36 - USERNAME : safari
SYSTEM LOG -- DATE :2018-04-22 22:59:27 - CLASS : master_anggota - FUNCTION : edit - URL : localhost:8080/kaderisasi/index.php/master/master_anggota/edit/favicon.ico - USER ID : 340 - USER IP : ::1 - USER ROLE : 1 - BROWSER : Mozilla/5.0 (Windows NT 10.0; Win64; x64) AppleWebKit/537.36 (KHTML, like Gecko) Chrome/65.0.3325.181 Safari/537.36 - USERNAME : safari
SYSTEM LOG -- DATE :2018-04-22 22:59:27 - CLASS : master_anggota - FUNCTION : index - URL : localhost:8080/kaderisasi/index.php/master/master_anggota?msg=Error%20Parse&type_msg=error - USER ID : 340 - USER IP : ::1 - USER ROLE : 1 - BROWSER : Mozilla/5.0 (Windows NT 10.0; Win64; x64) AppleWebKit/537.36 (KHTML, like Gecko) Chrome/65.0.3325.181 Safari/537.36 - USERNAME : safari
SYSTEM LOG -- DATE :2018-04-22 22:59:30 - CLASS : master_anggota - FUNCTION : save_upload - URL : localhost:8080/kaderisasi/index.php/master/master_anggota/save_upload - USER ID : 340 - USER IP : ::1 - USER ROLE : 1 - BROWSER : Mozilla/5.0 (Windows NT 10.0; Win64; x64) AppleWebKit/537.36 (KHTML, like Gecko) Chrome/65.0.3325.181 Safari/537.36 - USERNAME : safari
SYSTEM LOG -- DATE :2018-04-22 22:59:30 - CLASS : master_anggota - FUNCTION : crop - URL : localhost:8080/kaderisasi/index.php/master/master_anggota/crop/?_id=QHXCQbPEFVBxXsr7w5XQN3LP%2FuYdZODxDUxzGDc2TM3tcpYs9StgKKkvYuT8OgpsvdQUUM8gBoGzR0D0X0v6iQ%3D%3D - USER ID : 340 - USER IP : ::1 - USER ROLE : 1 - BROWSER : Mozilla/5.0 (Windows NT 10.0; Win64; x64) AppleWebKit/537.36 (KHTML, like Gecko) Chrome/65.0.3325.181 Safari/537.36 - USERNAME : safari
SYSTEM LOG -- DATE :2018-04-22 22:59:30 - CLASS : data - FUNCTION : kabupaten - URL : localhost:8080/kaderisasi/index.php/ajax/data/kabupaten - USER ID : 340 - USER IP : ::1 - USER ROLE : 1 - BROWSER : Mozilla/5.0 (Windows NT 10.0; Win64; x64) AppleWebKit/537.36 (KHTML, like Gecko) Chrome/65.0.3325.181 Safari/537.36 - USERNAME : safari
SYSTEM LOG -- DATE :2018-04-22 22:59:30 - CLASS : data - FUNCTION : kecamatan - URL : localhost:8080/kaderisasi/index.php/ajax/data/kecamatan - USER ID : 340 - USER IP : ::1 - USER ROLE : 1 - BROWSER : Mozilla/5.0 (Windows NT 10.0; Win64; x64) AppleWebKit/537.36 (KHTML, like Gecko) Chrome/65.0.3325.181 Safari/537.36 - USERNAME : safari
SYSTEM LOG -- DATE :2018-04-22 22:59:30 - CLASS : data - FUNCTION : kelurahan - URL : localhost:8080/kaderisasi/index.php/ajax/data/kelurahan - USER ID : 340 - USER IP : ::1 - USER ROLE : 1 - BROWSER : Mozilla/5.0 (Windows NT 10.0; Win64; x64) AppleWebKit/537.36 (KHTML, like Gecko) Chrome/65.0.3325.181 Safari/537.36 - USERNAME : safari
SYSTEM LOG -- DATE :2018-04-22 22:59:31 - CLASS : master_anggota - FUNCTION : crop - URL : localhost:8080/kaderisasi/index.php/master/master_anggota/crop/favicon.ico - USER ID : 340 - USER IP : ::1 - USER ROLE : 1 - BROWSER : Mozilla/5.0 (Windows NT 10.0; Win64; x64) AppleWebKit/537.36 (KHTML, like Gecko) Chrome/65.0.3325.181 Safari/537.36 - USERNAME : safari
SYSTEM LOG -- DATE :2018-04-22 22:59:31 - CLASS : master_anggota - FUNCTION : index - URL : localhost:8080/kaderisasi/index.php/master/master_anggota?msg=Error%20Parse&type_msg=error - USER ID : 340 - USER IP : ::1 - USER ROLE : 1 - BROWSER : Mozilla/5.0 (Windows NT 10.0; Win64; x64) AppleWebKit/537.36 (KHTML, like Gecko) Chrome/65.0.3325.181 Safari/537.36 - USERNAME : safari
SYSTEM LOG -- DATE :2018-04-22 22:59:32 - CLASS : master_anggota - FUNCTION : save_crop - URL : localhost:8080/kaderisasi/index.php/master/master_anggota/save_crop - USER ID : 340 - USER IP : ::1 - USER ROLE : 1 - BROWSER : Mozilla/5.0 (Windows NT 10.0; Win64; x64) AppleWebKit/537.36 (KHTML, like Gecko) Chrome/65.0.3325.181 Safari/537.36 - USERNAME : safari
SYSTEM LOG -- DATE :2018-04-22 22:59:32 - CLASS : data - FUNCTION : kabupaten - URL : localhost:8080/kaderisasi/index.php/ajax/data/kabupaten - USER ID : 340 - USER IP : ::1 - USER ROLE : 1 - BROWSER : Mozilla/5.0 (Windows NT 10.0; Win64; x64) AppleWebKit/537.36 (KHTML, like Gecko) Chrome/65.0.3325.181 Safari/537.36 - USERNAME : safari
SYSTEM LOG -- DATE :2018-04-22 22:59:32 - CLASS : data - FUNCTION : kecamatan - URL : localhost:8080/kaderisasi/index.php/ajax/data/kecamatan - USER ID : 340 - USER IP : ::1 - USER ROLE : 1 - BROWSER : Mozilla/5.0 (Windows NT 10.0; Win64; x64) AppleWebKit/537.36 (KHTML, like Gecko) Chrome/65.0.3325.181 Safari/537.36 - USERNAME : safari
SYSTEM LOG -- DATE :2018-04-22 22:59:32 - CLASS : data - FUNCTION : kelurahan - URL : localhost:8080/kaderisasi/index.php/ajax/data/kelurahan - USER ID : 340 - USER IP : ::1 - USER ROLE : 1 - BROWSER : Mozilla/5.0 (Windows NT 10.0; Win64; x64) AppleWebKit/537.36 (KHTML, like Gecko) Chrome/65.0.3325.181 Safari/537.36 - USERNAME : safari
SYSTEM LOG -- DATE :2018-04-22 22:59:32 - CLASS : data - FUNCTION : kabupaten - URL : localhost:8080/kaderisasi/index.php/ajax/data/kabupaten - USER ID : 340 - USER IP : ::1 - USER ROLE : 1 - BROWSER : Mozilla/5.0 (Windows NT 10.0; Win64; x64) AppleWebKit/537.36 (KHTML, like Gecko) Chrome/65.0.3325.181 Safari/537.36 - USERNAME : safari
SYSTEM LOG -- DATE :2018-04-22 22:59:32 - CLASS : data - FUNCTION : kecamatan - URL : localhost:8080/kaderisasi/index.php/ajax/data/kecamatan - USER ID : 340 - USER IP : ::1 - USER ROLE : 1 - BROWSER : Mozilla/5.0 (Windows NT 10.0; Win64; x64) AppleWebKit/537.36 (KHTML, like Gecko) Chrome/65.0.3325.181 Safari/537.36 - USERNAME : safari
SYSTEM LOG -- DATE :2018-04-22 22:59:33 - CLASS : data - FUNCTION : kabupaten - URL : localhost:8080/kaderisasi/index.php/ajax/data/kabupaten - USER ID : 340 - USER IP : ::1 - USER ROLE : 1 - BROWSER : Mozilla/5.0 (Windows NT 10.0; Win64; x64) AppleWebKit/537.36 (KHTML, like Gecko) Chrome/65.0.3325.181 Safari/537.36 - USERNAME : safari
SYSTEM LOG -- DATE :2018-04-22 22:59:33 - CLASS : data - FUNCTION : kecamatan - URL : localhost:8080/kaderisasi/index.php/ajax/data/kecamatan - USER ID : 340 - USER IP : ::1 - USER ROLE : 1 - BROWSER : Mozilla/5.0 (Windows NT 10.0; Win64; x64) AppleWebKit/537.36 (KHTML, like Gecko) Chrome/65.0.3325.181 Safari/537.36 - USERNAME : safari
SYSTEM LOG -- DATE :2018-04-22 22:59:40 - CLASS : data - FUNCTION : kelurahan - URL : localhost:8080/kaderisasi/index.php/ajax/data/kelurahan - USER ID : 340 - USER IP : ::1 - USER ROLE : 1 - BROWSER : Mozilla/5.0 (Windows NT 10.0; Win64; x64) AppleWebKit/537.36 (KHTML, like Gecko) Chrome/65.0.3325.181 Safari/537.36 - USERNAME : safari
SYSTEM LOG -- DATE :2018-04-22 22:59:42 - CLASS : master_anggota - FUNCTION : save - URL : localhost:8080/kaderisasi/index.php/master/master_anggota/save - USER ID : 340 - USER IP : ::1 - USER ROLE : 1 - BROWSER : Mozilla/5.0 (Windows NT 10.0; Win64; x64) AppleWebKit/537.36 (KHTML, like Gecko) Chrome/65.0.3325.181 Safari/537.36 - USERNAME : safari
SYSTEM LOG -- DATE :2018-04-22 22:59:42 - CLASS : master_anggota - FUNCTION : index - URL : localhost:8080/kaderisasi/index.php/master/master_anggota?msg=Input%20Anggota%20Berhasil&type_msg=success - USER ID : 340 - USER IP : ::1 - USER ROLE : 1 - BROWSER : Mozilla/5.0 (Windows NT 10.0; Win64; x64) AppleWebKit/537.36 (KHTML, like Gecko) Chrome/65.0.3325.181 Safari/537.36 - USERNAME : safari
SYSTEM LOG -- DATE :2018-04-22 23:01:48 - CLASS : tanda_terima - FUNCTION : index - URL : localhost:8080/kaderisasi/index.php/report/tanda_terima - USER ID : 340 - USER IP : ::1 - USER ROLE : 1 - BROWSER : Mozilla/5.0 (Windows NT 10.0; Win64; x64) AppleWebKit/537.36 (KHTML, like Gecko) Chrome/65.0.3325.181 Safari/537.36 - USERNAME : safari
SYSTEM LOG -- DATE :2018-04-22 23:01:52 - CLASS : tanda_terima - FUNCTION : add - URL : localhost:8080/kaderisasi/index.php/report/tanda_terima/add - USER ID : 340 - USER IP : ::1 - USER ROLE : 1 - BROWSER : Mozilla/5.0 (Windows NT 10.0; Win64; x64) AppleWebKit/537.36 (KHTML, like Gecko) Chrome/65.0.3325.181 Safari/537.36 - USERNAME : safari
SYSTEM LOG -- DATE :2018-04-22 23:01:53 - CLASS : tanda_terima - FUNCTION : favicon.ico - URL : localhost:8080/kaderisasi/index.php/report/tanda_terima/favicon.ico - USER ID : 340 - USER IP : ::1 - USER ROLE : 1 - BROWSER : Mozilla/5.0 (Windows NT 10.0; Win64; x64) AppleWebKit/537.36 (KHTML, like Gecko) Chrome/65.0.3325.181 Safari/537.36 - USERNAME : safari
SYSTEM LOG -- DATE :2018-04-22 23:03:12 - CLASS : tanda_terima - FUNCTION : add - URL : localhost:8080/kaderisasi/index.php/report/tanda_terima/add - USER ID : 340 - USER IP : ::1 - USER ROLE : 1 - BROWSER : Mozilla/5.0 (Windows NT 10.0; Win64; x64) AppleWebKit/537.36 (KHTML, like Gecko) Chrome/65.0.3325.181 Safari/537.36 - USERNAME : safari
SYSTEM LOG -- DATE :2018-04-22 23:03:54 - CLASS : tanda_terima - FUNCTION : save - URL : localhost:8080/kaderisasi/index.php/report/tanda_terima/save - USER ID : 340 - USER IP : ::1 - USER ROLE : 1 - BROWSER : Mozilla/5.0 (Windows NT 10.0; Win64; x64) AppleWebKit/537.36 (KHTML, like Gecko) Chrome/65.0.3325.181 Safari/537.36 - USERNAME : safari
SYSTEM LOG -- DATE :2018-04-22 23:03:57 - CLASS : tanda_terima - FUNCTION : print_pdf - URL : localhost:8080/kaderisasi/index.php/report/tanda_terima/print_pdf/?id=436&filename=20180422110356lkasjdflkasjf.pdf - USER ID : 340 - USER IP : ::1 - USER ROLE : 1 - BROWSER : Mozilla/5.0 (Windows NT 10.0; Win64; x64) AppleWebKit/537.36 (KHTML, like Gecko) Chrome/65.0.3325.181 Safari/537.36 - USERNAME : safari
SYSTEM LOG -- DATE :2018-04-22 23:04:25 - CLASS : tanda_terima - FUNCTION : save - URL : localhost:8080/kaderisasi/index.php/report/tanda_terima/save - USER ID : 340 - USER IP : ::1 - USER ROLE : 1 - BROWSER : Mozilla/5.0 (Windows NT 10.0; Win64; x64) AppleWebKit/537.36 (KHTML, like Gecko) Chrome/65.0.3325.181 Safari/537.36 - USERNAME : safari
SYSTEM LOG -- DATE :2018-04-22 23:04:26 - CLASS : tanda_terima - FUNCTION : print_pdf - URL : localhost:8080/kaderisasi/index.php/report/tanda_terima/print_pdf/?id=437&filename=20180422110426lkasjdflkasjf.pdf - USER ID : 340 - USER IP : ::1 - USER ROLE : 1 - BROWSER : Mozilla/5.0 (Windows NT 10.0; Win64; x64) AppleWebKit/537.36 (KHTML, like Gecko) Chrome/65.0.3325.181 Safari/537.36 - USERNAME : safari
SYSTEM LOG -- DATE :2018-04-22 23:05:08 - CLASS : tanda_terima - FUNCTION : save - URL : localhost:8080/kaderisasi/index.php/report/tanda_terima/save - USER ID : 340 - USER IP : ::1 - USER ROLE : 1 - BROWSER : Mozilla/5.0 (Windows NT 10.0; Win64; x64) AppleWebKit/537.36 (KHTML, like Gecko) Chrome/65.0.3325.181 Safari/537.36 - USERNAME : safari
SYSTEM LOG -- DATE :2018-04-22 23:05:09 - CLASS : tanda_terima - FUNCTION : print_pdf - URL : localhost:8080/kaderisasi/index.php/report/tanda_terima/print_pdf/?id=438&filename=20180422110509lkasjdflkasjf.pdf - USER ID : 340 - USER IP : ::1 - USER ROLE : 1 - BROWSER : Mozilla/5.0 (Windows NT 10.0; Win64; x64) AppleWebKit/537.36 (KHTML, like Gecko) Chrome/65.0.3325.181 Safari/537.36 - USERNAME : safari
SYSTEM LOG -- DATE :2018-04-22 23:05:55 - CLASS : tanda_terima - FUNCTION : save - URL : localhost:8080/kaderisasi/index.php/report/tanda_terima/save - USER ID : 340 - USER IP : ::1 - USER ROLE : 1 - BROWSER : Mozilla/5.0 (Windows NT 10.0; Win64; x64) AppleWebKit/537.36 (KHTML, like Gecko) Chrome/65.0.3325.181 Safari/537.36 - USERNAME : safari
SYSTEM LOG -- DATE :2018-04-22 23:05:56 - CLASS : tanda_terima - FUNCTION : print_pdf - URL : localhost:8080/kaderisasi/index.php/report/tanda_terima/print_pdf/?id=439&filename=20180422110556lkasjdflkasjf.pdf - USER ID : 340 - USER IP : ::1 - USER ROLE : 1 - BROWSER : Mozilla/5.0 (Windows NT 10.0; Win64; x64) AppleWebKit/537.36 (KHTML, like Gecko) Chrome/65.0.3325.181 Safari/537.36 - USERNAME : safari
SYSTEM LOG -- DATE :2018-04-22 23:06:04 - CLASS : tanda_terima - FUNCTION : save - URL : localhost:8080/kaderisasi/index.php/report/tanda_terima/save - USER ID : 340 - USER IP : ::1 - USER ROLE : 1 - BROWSER : Mozilla/5.0 (Windows NT 10.0; Win64; x64) AppleWebKit/537.36 (KHTML, like Gecko) Chrome/65.0.3325.181 Safari/537.36 - USERNAME : safari
SYSTEM LOG -- DATE :2018-04-22 23:06:06 - CLASS : tanda_terima - FUNCTION : print_pdf - URL : localhost:8080/kaderisasi/index.php/report/tanda_terima/print_pdf/?id=440&filename=20180422110605lkasjdflkasjf.pdf - USER ID : 340 - USER IP : ::1 - USER ROLE : 1 - BROWSER : Mozilla/5.0 (Windows NT 10.0; Win64; x64) AppleWebKit/537.36 (KHTML, like Gecko) Chrome/65.0.3325.181 Safari/537.36 - USERNAME : safari
SYSTEM LOG -- DATE :2018-04-22 23:06:15 - CLASS : tanda_terima - FUNCTION : save - URL : localhost:8080/kaderisasi/index.php/report/tanda_terima/save - USER ID : 340 - USER IP : ::1 - USER ROLE : 1 - BROWSER : Mozilla/5.0 (Windows NT 10.0; Win64; x64) AppleWebKit/537.36 (KHTML, like Gecko) Chrome/65.0.3325.181 Safari/537.36 - USERNAME : safari
SYSTEM LOG -- DATE :2018-04-22 23:06:16 - CLASS : tanda_terima - FUNCTION : print_pdf - URL : localhost:8080/kaderisasi/index.php/report/tanda_terima/print_pdf/?id=441&filename=20180422110616lkasjdflkasjf.pdf - USER ID : 340 - USER IP : ::1 - USER ROLE : 1 - BROWSER : Mozilla/5.0 (Windows NT 10.0; Win64; x64) AppleWebKit/537.36 (KHTML, like Gecko) Chrome/65.0.3325.181 Safari/537.36 - USERNAME : safari
SYSTEM LOG -- DATE :2018-04-22 23:07:22 - CLASS : tanda_terima - FUNCTION : index - URL : localhost:8080/kaderisasi/index.php/report/tanda_terima/index - USER ID : 340 - USER IP : ::1 - USER ROLE : 1 - BROWSER : Mozilla/5.0 (Windows NT 10.0; Win64; x64) AppleWebKit/537.36 (KHTML, like Gecko) Chrome/65.0.3325.181 Safari/537.36 - USERNAME : safari
SYSTEM LOG -- DATE :2018-04-22 23:07:29 - CLASS : tanda_terima - FUNCTION : add - URL : localhost:8080/kaderisasi/index.php/report/tanda_terima/add - USER ID : 340 - USER IP : ::1 - USER ROLE : 1 - BROWSER : Mozilla/5.0 (Windows NT 10.0; Win64; x64) AppleWebKit/537.36 (KHTML, like Gecko) Chrome/65.0.3325.181 Safari/537.36 - USERNAME : safari
SYSTEM LOG -- DATE :2018-04-22 23:07:51 - CLASS : tanda_terima - FUNCTION : save - URL : localhost:8080/kaderisasi/index.php/report/tanda_terima/save - USER ID : 340 - USER IP : ::1 - USER ROLE : 1 - BROWSER : Mozilla/5.0 (Windows NT 10.0; Win64; x64) AppleWebKit/537.36 (KHTML, like Gecko) Chrome/65.0.3325.181 Safari/537.36 - USERNAME : safari
SYSTEM LOG -- DATE :2018-04-22 23:07:53 - CLASS : tanda_terima - FUNCTION : print_pdf - URL : localhost:8080/kaderisasi/index.php/report/tanda_terima/print_pdf/?id=442&filename=20180422110752Nurul%20Astria.pdf - USER ID : 340 - USER IP : ::1 - USER ROLE : 1 - BROWSER : Mozilla/5.0 (Windows NT 10.0; Win64; x64) AppleWebKit/537.36 (KHTML, like Gecko) Chrome/65.0.3325.181 Safari/537.36 - USERNAME : safari
SYSTEM LOG -- DATE :2018-04-22 23:08:34 - CLASS : master_anggota - FUNCTION : index - URL : localhost:8080/kaderisasi/index.php/master/master_anggota - USER ID : 340 - USER IP : ::1 - USER ROLE : 1 - BROWSER : Mozilla/5.0 (Windows NT 10.0; Win64; x64) AppleWebKit/537.36 (KHTML, like Gecko) Chrome/65.0.3325.181 Safari/537.36 - USERNAME : safari
SYSTEM LOG -- DATE :2018-04-22 23:26:19 - CLASS : me - FUNCTION : index - URL : localhost:8080/kaderisasi/ - USER ID : 340 - USER IP : ::1 - USER ROLE : 1 - BROWSER : Mozilla/5.0 (Windows NT 10.0; Win64; x64) AppleWebKit/537.36 (KHTML, like Gecko) Chrome/65.0.3325.181 Safari/537.36 - USERNAME : safari
SYSTEM LOG -- DATE :2018-04-22 23:26:31 - CLASS : master_anggota - FUNCTION : index - URL : localhost:8080/kaderisasi/index.php/master/master_anggota - USER ID : 340 - USER IP : ::1 - USER ROLE : 1 - BROWSER : Mozilla/5.0 (Windows NT 10.0; Win64; x64) AppleWebKit/537.36 (KHTML, like Gecko) Chrome/65.0.3325.181 Safari/537.36 - USERNAME : safari
SYSTEM LOG -- DATE :2018-04-22 23:31:38 - CLASS : me - FUNCTION : index - URL : localhost:8080/kaderisasi/ - USER ID : 340 - USER IP : ::1 - USER ROLE : 1 - BROWSER : Mozilla/5.0 (Windows NT 10.0; Win64; x64) AppleWebKit/537.36 (KHTML, like Gecko) Chrome/65.0.3325.181 Safari/537.36 - USERNAME : safari
SYSTEM LOG -- DATE :2018-04-22 23:32:13 - CLASS : me - FUNCTION : index - URL : localhost:8080/kaderisasi/index.php/meme/me - USER ID : 340 - USER IP : ::1 - USER ROLE : 1 - BROWSER : Mozilla/5.0 (Windows NT 10.0; Win64; x64) AppleWebKit/537.36 (KHTML, like Gecko) Chrome/65.0.3325.181 Safari/537.36 - USERNAME : safari
SYSTEM LOG -- DATE :2018-04-22 23:32:15 - CLASS : master_anggota - FUNCTION : index - URL : localhost:8080/kaderisasi/index.php/master/master_anggota - USER ID : 340 - USER IP : ::1 - USER ROLE : 1 - BROWSER : Mozilla/5.0 (Windows NT 10.0; Win64; x64) AppleWebKit/537.36 (KHTML, like Gecko) Chrome/65.0.3325.181 Safari/537.36 - USERNAME : safari
SYSTEM LOG -- DATE :2018-04-22 23:49:15 - CLASS : master_anggota - FUNCTION : edit - URL : localhost:8080/kaderisasi/index.php/master/master_anggota/edit/?_id=DdDeind7y6jRuIBr6VtwRgVI75xHWQrXdQNANgR5oargjUMxRIkhgqIOUrQPr%2FbQOIWZE9FCwjtn7sY3AjjfvQ%3D%3D - USER ID : 340 - USER IP : ::1 - USER ROLE : 1 - BROWSER : Mozilla/5.0 (Windows NT 10.0; Win64; x64) AppleWebKit/537.36 (KHTML, like Gecko) Chrome/65.0.3325.181 Safari/537.36 - USERNAME : safari
SYSTEM LOG -- DATE :2018-04-22 23:49:16 - CLASS : data - FUNCTION : kabupaten - URL : localhost:8080/kaderisasi/index.php/ajax/data/kabupaten - USER ID : 340 - USER IP : ::1 - USER ROLE : 1 - BROWSER : Mozilla/5.0 (Windows NT 10.0; Win64; x64) AppleWebKit/537.36 (KHTML, like Gecko) Chrome/65.0.3325.181 Safari/537.36 - USERNAME : safari
SYSTEM LOG -- DATE :2018-04-22 23:49:16 - CLASS : data - FUNCTION : kecamatan - URL : localhost:8080/kaderisasi/index.php/ajax/data/kecamatan - USER ID : 340 - USER IP : ::1 - USER ROLE : 1 - BROWSER : Mozilla/5.0 (Windows NT 10.0; Win64; x64) AppleWebKit/537.36 (KHTML, like Gecko) Chrome/65.0.3325.181 Safari/537.36 - USERNAME : safari
SYSTEM LOG -- DATE :2018-04-22 23:49:16 - CLASS : data - FUNCTION : kelurahan - URL : localhost:8080/kaderisasi/index.php/ajax/data/kelurahan - USER ID : 340 - USER IP : ::1 - USER ROLE : 1 - BROWSER : Mozilla/5.0 (Windows NT 10.0; Win64; x64) AppleWebKit/537.36 (KHTML, like Gecko) Chrome/65.0.3325.181 Safari/537.36 - USERNAME : safari
SYSTEM LOG -- DATE :2018-04-22 23:49:16 - CLASS : master_anggota - FUNCTION : edit - URL : localhost:8080/kaderisasi/index.php/master/master_anggota/edit/favicon.ico - USER ID : 340 - USER IP : ::1 - USER ROLE : 1 - BROWSER : Mozilla/5.0 (Windows NT 10.0; Win64; x64) AppleWebKit/537.36 (KHTML, like Gecko) Chrome/65.0.3325.181 Safari/537.36 - USERNAME : safari
SYSTEM LOG -- DATE :2018-04-22 23:49:16 - CLASS : master_anggota - FUNCTION : index - URL : localhost:8080/kaderisasi/index.php/master/master_anggota?msg=Error%20Parse&type_msg=error - USER ID : 340 - USER IP : ::1 - USER ROLE : 1 - BROWSER : Mozilla/5.0 (Windows NT 10.0; Win64; x64) AppleWebKit/537.36 (KHTML, like Gecko) Chrome/65.0.3325.181 Safari/537.36 - USERNAME : safari
SYSTEM LOG -- DATE :2018-04-22 23:49:19 - CLASS : master_anggota - FUNCTION : save_upload - URL : localhost:8080/kaderisasi/index.php/master/master_anggota/save_upload - USER ID : 340 - USER IP : ::1 - USER ROLE : 1 - BROWSER : Mozilla/5.0 (Windows NT 10.0; Win64; x64) AppleWebKit/537.36 (KHTML, like Gecko) Chrome/65.0.3325.181 Safari/537.36 - USERNAME : safari
SYSTEM LOG -- DATE :2018-04-22 23:49:19 - CLASS : master_anggota - FUNCTION : crop - URL : localhost:8080/kaderisasi/index.php/master/master_anggota/crop/?_id=rkH%2F3IGeH%2FlvIKF%2FpXpYvchx9%2FpbvOx9hLQVZhhp5oX03rUxDKpAmROx2Cq1h875KB1%2BHoub%2FbJIo0BLC4JxLg%3D%3D - USER ID : 340 - USER IP : ::1 - USER ROLE : 1 - BROWSER : Mozilla/5.0 (Windows NT 10.0; Win64; x64) AppleWebKit/537.36 (KHTML, like Gecko) Chrome/65.0.3325.181 Safari/537.36 - USERNAME : safari
SYSTEM LOG -- DATE :2018-04-22 23:49:19 - CLASS : data - FUNCTION : kabupaten - URL : localhost:8080/kaderisasi/index.php/ajax/data/kabupaten - USER ID : 340 - USER IP : ::1 - USER ROLE : 1 - BROWSER : Mozilla/5.0 (Windows NT 10.0; Win64; x64) AppleWebKit/537.36 (KHTML, like Gecko) Chrome/65.0.3325.181 Safari/537.36 - USERNAME : safari
SYSTEM LOG -- DATE :2018-04-22 23:49:19 - CLASS : data - FUNCTION : kecamatan - URL : localhost:8080/kaderisasi/index.php/ajax/data/kecamatan - USER ID : 340 - USER IP : ::1 - USER ROLE : 1 - BROWSER : Mozilla/5.0 (Windows NT 10.0; Win64; x64) AppleWebKit/537.36 (KHTML, like Gecko) Chrome/65.0.3325.181 Safari/537.36 - USERNAME : safari
SYSTEM LOG -- DATE :2018-04-22 23:49:19 - CLASS : data - FUNCTION : kelurahan - URL : localhost:8080/kaderisasi/index.php/ajax/data/kelurahan - USER ID : 340 - USER IP : ::1 - USER ROLE : 1 - BROWSER : Mozilla/5.0 (Windows NT 10.0; Win64; x64) AppleWebKit/537.36 (KHTML, like Gecko) Chrome/65.0.3325.181 Safari/537.36 - USERNAME : safari
SYSTEM LOG -- DATE :2018-04-22 23:49:20 - CLASS : master_anggota - FUNCTION : crop - URL : localhost:8080/kaderisasi/index.php/master/master_anggota/crop/favicon.ico - USER ID : 340 - USER IP : ::1 - USER ROLE : 1 - BROWSER : Mozilla/5.0 (Windows NT 10.0; Win64; x64) AppleWebKit/537.36 (KHTML, like Gecko) Chrome/65.0.3325.181 Safari/537.36 - USERNAME : safari
SYSTEM LOG -- DATE :2018-04-22 23:49:20 - CLASS : master_anggota - FUNCTION : index - URL : localhost:8080/kaderisasi/index.php/master/master_anggota?msg=Error%20Parse&type_msg=error - USER ID : 340 - USER IP : ::1 - USER ROLE : 1 - BROWSER : Mozilla/5.0 (Windows NT 10.0; Win64; x64) AppleWebKit/537.36 (KHTML, like Gecko) Chrome/65.0.3325.181 Safari/537.36 - USERNAME : safari
SYSTEM LOG -- DATE :2018-04-22 23:49:23 - CLASS : master_anggota - FUNCTION : save_crop - URL : localhost:8080/kaderisasi/index.php/master/master_anggota/save_crop - USER ID : 340 - USER IP : ::1 - USER ROLE : 1 - BROWSER : Mozilla/5.0 (Windows NT 10.0; Win64; x64) AppleWebKit/537.36 (KHTML, like Gecko) Chrome/65.0.3325.181 Safari/537.36 - USERNAME : safari
SYSTEM LOG -- DATE :2018-04-22 23:49:24 - CLASS : data - FUNCTION : kabupaten - URL : localhost:8080/kaderisasi/index.php/ajax/data/kabupaten - USER ID : 340 - USER IP : ::1 - USER ROLE : 1 - BROWSER : Mozilla/5.0 (Windows NT 10.0; Win64; x64) AppleWebKit/537.36 (KHTML, like Gecko) Chrome/65.0.3325.181 Safari/537.36 - USERNAME : safari
SYSTEM LOG -- DATE :2018-04-22 23:49:24 - CLASS : data - FUNCTION : kecamatan - URL : localhost:8080/kaderisasi/index.php/ajax/data/kecamatan - USER ID : 340 - USER IP : ::1 - USER ROLE : 1 - BROWSER : Mozilla/5.0 (Windows NT 10.0; Win64; x64) AppleWebKit/537.36 (KHTML, like Gecko) Chrome/65.0.3325.181 Safari/537.36 - USERNAME : safari
SYSTEM LOG -- DATE :2018-04-22 23:49:24 - CLASS : data - FUNCTION : kelurahan - URL : localhost:8080/kaderisasi/index.php/ajax/data/kelurahan - USER ID : 340 - USER IP : ::1 - USER ROLE : 1 - BROWSER : Mozilla/5.0 (Windows NT 10.0; Win64; x64) AppleWebKit/537.36 (KHTML, like Gecko) Chrome/65.0.3325.181 Safari/537.36 - USERNAME : safari
SYSTEM LOG -- DATE :2018-04-22 23:49:24 - CLASS : data - FUNCTION : kabupaten - URL : localhost:8080/kaderisasi/index.php/ajax/data/kabupaten - USER ID : 340 - USER IP : ::1 - USER ROLE : 1 - BROWSER : Mozilla/5.0 (Windows NT 10.0; Win64; x64) AppleWebKit/537.36 (KHTML, like Gecko) Chrome/65.0.3325.181 Safari/537.36 - USERNAME : safari
SYSTEM LOG -- DATE :2018-04-22 23:49:24 - CLASS : data - FUNCTION : kecamatan - URL : localhost:8080/kaderisasi/index.php/ajax/data/kecamatan - USER ID : 340 - USER IP : ::1 - USER ROLE : 1 - BROWSER : Mozilla/5.0 (Windows NT 10.0; Win64; x64) AppleWebKit/537.36 (KHTML, like Gecko) Chrome/65.0.3325.181 Safari/537.36 - USERNAME : safari
SYSTEM LOG -- DATE :2018-04-22 23:49:24 - CLASS : data - FUNCTION : kabupaten - URL : localhost:8080/kaderisasi/index.php/ajax/data/kabupaten - USER ID : 340 - USER IP : ::1 - USER ROLE : 1 - BROWSER : Mozilla/5.0 (Windows NT 10.0; Win64; x64) AppleWebKit/537.36 (KHTML, like Gecko) Chrome/65.0.3325.181 Safari/537.36 - USERNAME : safari
SYSTEM LOG -- DATE :2018-04-22 23:49:24 - CLASS : data - FUNCTION : kecamatan - URL : localhost:8080/kaderisasi/index.php/ajax/data/kecamatan - USER ID : 340 - USER IP : ::1 - USER ROLE : 1 - BROWSER : Mozilla/5.0 (Windows NT 10.0; Win64; x64) AppleWebKit/537.36 (KHTML, like Gecko) Chrome/65.0.3325.181 Safari/537.36 - USERNAME : safari
SYSTEM LOG -- DATE :2018-04-22 23:49:33 - CLASS : data - FUNCTION : kabupaten - URL : localhost:8080/kaderisasi/index.php/ajax/data/kabupaten - USER ID : 340 - USER IP : ::1 - USER ROLE : 1 - BROWSER : Mozilla/5.0 (Windows NT 10.0; Win64; x64) AppleWebKit/537.36 (KHTML, like Gecko) Chrome/65.0.3325.181 Safari/537.36 - USERNAME : safari
SYSTEM LOG -- DATE :2018-04-22 23:49:34 - CLASS : data - FUNCTION : kecamatan - URL : localhost:8080/kaderisasi/index.php/ajax/data/kecamatan - USER ID : 340 - USER IP : ::1 - USER ROLE : 1 - BROWSER : Mozilla/5.0 (Windows NT 10.0; Win64; x64) AppleWebKit/537.36 (KHTML, like Gecko) Chrome/65.0.3325.181 Safari/537.36 - USERNAME : safari
SYSTEM LOG -- DATE :2018-04-22 23:49:36 - CLASS : data - FUNCTION : kelurahan - URL : localhost:8080/kaderisasi/index.php/ajax/data/kelurahan - USER ID : 340 - USER IP : ::1 - USER ROLE : 1 - BROWSER : Mozilla/5.0 (Windows NT 10.0; Win64; x64) AppleWebKit/537.36 (KHTML, like Gecko) Chrome/65.0.3325.181 Safari/537.36 - USERNAME : safari
SYSTEM LOG -- DATE :2018-04-22 23:49:42 - CLASS : master_anggota - FUNCTION : save - URL : localhost:8080/kaderisasi/index.php/master/master_anggota/save - USER ID : 340 - USER IP : ::1 - USER ROLE : 1 - BROWSER : Mozilla/5.0 (Windows NT 10.0; Win64; x64) AppleWebKit/537.36 (KHTML, like Gecko) Chrome/65.0.3325.181 Safari/537.36 - USERNAME : safari
SYSTEM LOG -- DATE :2018-04-22 23:49:42 - CLASS : master_anggota - FUNCTION : index - URL : localhost:8080/kaderisasi/index.php/master/master_anggota?msg=Input%20Anggota%20Berhasil&type_msg=success - USER ID : 340 - USER IP : ::1 - USER ROLE : 1 - BROWSER : Mozilla/5.0 (Windows NT 10.0; Win64; x64) AppleWebKit/537.36 (KHTML, like Gecko) Chrome/65.0.3325.181 Safari/537.36 - USERNAME : safari
SYSTEM LOG -- DATE :2018-04-22 23:58:51 - CLASS : tanda_terima - FUNCTION : index - URL : localhost:8080/kaderisasi/index.php/report/tanda_terima - USER ID : 340 - USER IP : ::1 - USER ROLE : 1 - BROWSER : Mozilla/5.0 (Windows NT 10.0; Win64; x64) AppleWebKit/537.36 (KHTML, like Gecko) Chrome/65.0.3325.181 Safari/537.36 - USERNAME : safari
SYSTEM LOG -- DATE :2018-04-22 23:58:59 - CLASS : tanda_terima - FUNCTION : add - URL : localhost:8080/kaderisasi/index.php/report/tanda_terima/add - USER ID : 340 - USER IP : ::1 - USER ROLE : 1 - BROWSER : Mozilla/5.0 (Windows NT 10.0; Win64; x64) AppleWebKit/537.36 (KHTML, like Gecko) Chrome/65.0.3325.181 Safari/537.36 - USERNAME : safari
