SYSTEM LOG -- DATE :2018-04-14 18:17:09 - CLASS : me - FUNCTION : index - URL : localhost:8080/kaderisasi/index.php/meme/me - USER ID : 340 - USER IP : ::1 - USER ROLE : 1 - BROWSER : Mozilla/5.0 (Windows NT 10.0; Win64; x64) AppleWebKit/537.36 (KHTML, like Gecko) Chrome/65.0.3325.181 Safari/537.36 - USERNAME : safari
SYSTEM LOG -- DATE :2018-04-14 18:17:11 - CLASS : master_anggota - FUNCTION : index - URL : localhost:8080/kaderisasi/index.php/master/master_anggota - USER ID : 340 - USER IP : ::1 - USER ROLE : 1 - BROWSER : Mozilla/5.0 (Windows NT 10.0; Win64; x64) AppleWebKit/537.36 (KHTML, like Gecko) Chrome/65.0.3325.181 Safari/537.36 - USERNAME : safari
SYSTEM LOG -- DATE :2018-04-14 18:17:16 - CLASS : master_anggota - FUNCTION : edit - URL : localhost:8080/kaderisasi/index.php/master/master_anggota/edit/?_id=1PWTQ2aumoUj25P8OC9Q%2Fkpyh87bWKO0EzuDz8cpm%2FL%2BQcWv7Jl%2Bl0O8vPEuDgaPhcITSpDzQJbvMn49TVgZ%2Fw%3D%3D - USER ID : 340 - USER IP : ::1 - USER ROLE : 1 - BROWSER : Mozilla/5.0 (Windows NT 10.0; Win64; x64) AppleWebKit/537.36 (KHTML, like Gecko) Chrome/65.0.3325.181 Safari/537.36 - USERNAME : safari
SYSTEM LOG -- DATE :2018-04-14 18:17:16 - CLASS : data - FUNCTION : kabupaten - URL : localhost:8080/kaderisasi/index.php/ajax/data/kabupaten - USER ID : 340 - USER IP : ::1 - USER ROLE : 1 - BROWSER : Mozilla/5.0 (Windows NT 10.0; Win64; x64) AppleWebKit/537.36 (KHTML, like Gecko) Chrome/65.0.3325.181 Safari/537.36 - USERNAME : safari
SYSTEM LOG -- DATE :2018-04-14 18:17:17 - CLASS : data - FUNCTION : kecamatan - URL : localhost:8080/kaderisasi/index.php/ajax/data/kecamatan - USER ID : 340 - USER IP : ::1 - USER ROLE : 1 - BROWSER : Mozilla/5.0 (Windows NT 10.0; Win64; x64) AppleWebKit/537.36 (KHTML, like Gecko) Chrome/65.0.3325.181 Safari/537.36 - USERNAME : safari
SYSTEM LOG -- DATE :2018-04-14 18:17:17 - CLASS : data - FUNCTION : kelurahan - URL : localhost:8080/kaderisasi/index.php/ajax/data/kelurahan - USER ID : 340 - USER IP : ::1 - USER ROLE : 1 - BROWSER : Mozilla/5.0 (Windows NT 10.0; Win64; x64) AppleWebKit/537.36 (KHTML, like Gecko) Chrome/65.0.3325.181 Safari/537.36 - USERNAME : safari
SYSTEM LOG -- DATE :2018-04-14 18:17:17 - CLASS : master_anggota - FUNCTION : edit - URL : localhost:8080/kaderisasi/index.php/master/master_anggota/edit/favicon.ico - USER ID : 340 - USER IP : ::1 - USER ROLE : 1 - BROWSER : Mozilla/5.0 (Windows NT 10.0; Win64; x64) AppleWebKit/537.36 (KHTML, like Gecko) Chrome/65.0.3325.181 Safari/537.36 - USERNAME : safari
SYSTEM LOG -- DATE :2018-04-14 18:17:17 - CLASS : master_anggota - FUNCTION : index - URL : localhost:8080/kaderisasi/index.php/master/master_anggota?msg=Error%20Parse&type_msg=error - USER ID : 340 - USER IP : ::1 - USER ROLE : 1 - BROWSER : Mozilla/5.0 (Windows NT 10.0; Win64; x64) AppleWebKit/537.36 (KHTML, like Gecko) Chrome/65.0.3325.181 Safari/537.36 - USERNAME : safari
SYSTEM LOG -- DATE :2018-04-14 18:21:00 - CLASS : master_anggota - FUNCTION : save_upload - URL : localhost:8080/kaderisasi/index.php/master/master_anggota/save_upload - USER ID : 340 - USER IP : ::1 - USER ROLE : 1 - BROWSER : Mozilla/5.0 (Windows NT 10.0; Win64; x64) AppleWebKit/537.36 (KHTML, like Gecko) Chrome/65.0.3325.181 Safari/537.36 - USERNAME : safari
SYSTEM LOG -- DATE :2018-04-14 18:21:00 - CLASS : master_anggota - FUNCTION : crop - URL : localhost:8080/kaderisasi/index.php/master/master_anggota/crop/?_id=zKT3%2F4IjxiDlY7oyAXOE6F56uuZbj6fVAGwKMgR%2BNjF3%2F36wRuCvxxRCKsoAOdbR%2FVL78awyeQTVgpj2%2BmCcPw%3D%3D - USER ID : 340 - USER IP : ::1 - USER ROLE : 1 - BROWSER : Mozilla/5.0 (Windows NT 10.0; Win64; x64) AppleWebKit/537.36 (KHTML, like Gecko) Chrome/65.0.3325.181 Safari/537.36 - USERNAME : safari
SYSTEM LOG -- DATE :2018-04-14 18:21:01 - CLASS : data - FUNCTION : kabupaten - URL : localhost:8080/kaderisasi/index.php/ajax/data/kabupaten - USER ID : 340 - USER IP : ::1 - USER ROLE : 1 - BROWSER : Mozilla/5.0 (Windows NT 10.0; Win64; x64) AppleWebKit/537.36 (KHTML, like Gecko) Chrome/65.0.3325.181 Safari/537.36 - USERNAME : safari
SYSTEM LOG -- DATE :2018-04-14 18:21:01 - CLASS : data - FUNCTION : kecamatan - URL : localhost:8080/kaderisasi/index.php/ajax/data/kecamatan - USER ID : 340 - USER IP : ::1 - USER ROLE : 1 - BROWSER : Mozilla/5.0 (Windows NT 10.0; Win64; x64) AppleWebKit/537.36 (KHTML, like Gecko) Chrome/65.0.3325.181 Safari/537.36 - USERNAME : safari
SYSTEM LOG -- DATE :2018-04-14 18:21:01 - CLASS : data - FUNCTION : kelurahan - URL : localhost:8080/kaderisasi/index.php/ajax/data/kelurahan - USER ID : 340 - USER IP : ::1 - USER ROLE : 1 - BROWSER : Mozilla/5.0 (Windows NT 10.0; Win64; x64) AppleWebKit/537.36 (KHTML, like Gecko) Chrome/65.0.3325.181 Safari/537.36 - USERNAME : safari
SYSTEM LOG -- DATE :2018-04-14 18:21:01 - CLASS : master_anggota - FUNCTION : crop - URL : localhost:8080/kaderisasi/index.php/master/master_anggota/crop/favicon.ico - USER ID : 340 - USER IP : ::1 - USER ROLE : 1 - BROWSER : Mozilla/5.0 (Windows NT 10.0; Win64; x64) AppleWebKit/537.36 (KHTML, like Gecko) Chrome/65.0.3325.181 Safari/537.36 - USERNAME : safari
SYSTEM LOG -- DATE :2018-04-14 18:21:01 - CLASS : master_anggota - FUNCTION : index - URL : localhost:8080/kaderisasi/index.php/master/master_anggota?msg=Error%20Parse&type_msg=error - USER ID : 340 - USER IP : ::1 - USER ROLE : 1 - BROWSER : Mozilla/5.0 (Windows NT 10.0; Win64; x64) AppleWebKit/537.36 (KHTML, like Gecko) Chrome/65.0.3325.181 Safari/537.36 - USERNAME : safari
SYSTEM LOG -- DATE :2018-04-14 18:21:02 - CLASS : master_anggota - FUNCTION : save_crop - URL : localhost:8080/kaderisasi/index.php/master/master_anggota/save_crop - USER ID : 340 - USER IP : ::1 - USER ROLE : 1 - BROWSER : Mozilla/5.0 (Windows NT 10.0; Win64; x64) AppleWebKit/537.36 (KHTML, like Gecko) Chrome/65.0.3325.181 Safari/537.36 - USERNAME : safari
SYSTEM LOG -- DATE :2018-04-14 18:21:02 - CLASS : data - FUNCTION : kabupaten - URL : localhost:8080/kaderisasi/index.php/ajax/data/kabupaten - USER ID : 340 - USER IP : ::1 - USER ROLE : 1 - BROWSER : Mozilla/5.0 (Windows NT 10.0; Win64; x64) AppleWebKit/537.36 (KHTML, like Gecko) Chrome/65.0.3325.181 Safari/537.36 - USERNAME : safari
SYSTEM LOG -- DATE :2018-04-14 18:21:03 - CLASS : data - FUNCTION : kecamatan - URL : localhost:8080/kaderisasi/index.php/ajax/data/kecamatan - USER ID : 340 - USER IP : ::1 - USER ROLE : 1 - BROWSER : Mozilla/5.0 (Windows NT 10.0; Win64; x64) AppleWebKit/537.36 (KHTML, like Gecko) Chrome/65.0.3325.181 Safari/537.36 - USERNAME : safari
SYSTEM LOG -- DATE :2018-04-14 18:21:03 - CLASS : data - FUNCTION : kelurahan - URL : localhost:8080/kaderisasi/index.php/ajax/data/kelurahan - USER ID : 340 - USER IP : ::1 - USER ROLE : 1 - BROWSER : Mozilla/5.0 (Windows NT 10.0; Win64; x64) AppleWebKit/537.36 (KHTML, like Gecko) Chrome/65.0.3325.181 Safari/537.36 - USERNAME : safari
SYSTEM LOG -- DATE :2018-04-14 18:21:03 - CLASS : data - FUNCTION : kabupaten - URL : localhost:8080/kaderisasi/index.php/ajax/data/kabupaten - USER ID : 340 - USER IP : ::1 - USER ROLE : 1 - BROWSER : Mozilla/5.0 (Windows NT 10.0; Win64; x64) AppleWebKit/537.36 (KHTML, like Gecko) Chrome/65.0.3325.181 Safari/537.36 - USERNAME : safari
SYSTEM LOG -- DATE :2018-04-14 18:21:03 - CLASS : data - FUNCTION : kecamatan - URL : localhost:8080/kaderisasi/index.php/ajax/data/kecamatan - USER ID : 340 - USER IP : ::1 - USER ROLE : 1 - BROWSER : Mozilla/5.0 (Windows NT 10.0; Win64; x64) AppleWebKit/537.36 (KHTML, like Gecko) Chrome/65.0.3325.181 Safari/537.36 - USERNAME : safari
SYSTEM LOG -- DATE :2018-04-14 18:21:03 - CLASS : data - FUNCTION : kabupaten - URL : localhost:8080/kaderisasi/index.php/ajax/data/kabupaten - USER ID : 340 - USER IP : ::1 - USER ROLE : 1 - BROWSER : Mozilla/5.0 (Windows NT 10.0; Win64; x64) AppleWebKit/537.36 (KHTML, like Gecko) Chrome/65.0.3325.181 Safari/537.36 - USERNAME : safari
SYSTEM LOG -- DATE :2018-04-14 18:21:03 - CLASS : data - FUNCTION : kecamatan - URL : localhost:8080/kaderisasi/index.php/ajax/data/kecamatan - USER ID : 340 - USER IP : ::1 - USER ROLE : 1 - BROWSER : Mozilla/5.0 (Windows NT 10.0; Win64; x64) AppleWebKit/537.36 (KHTML, like Gecko) Chrome/65.0.3325.181 Safari/537.36 - USERNAME : safari
SYSTEM LOG -- DATE :2018-04-14 18:21:03 - CLASS : master_anggota - FUNCTION : favicon.ico - URL : localhost:8080/kaderisasi/index.php/master/master_anggota/favicon.ico - USER ID : 340 - USER IP : ::1 - USER ROLE : 1 - BROWSER : Mozilla/5.0 (Windows NT 10.0; Win64; x64) AppleWebKit/537.36 (KHTML, like Gecko) Chrome/65.0.3325.181 Safari/537.36 - USERNAME : safari
SYSTEM LOG -- DATE :2018-04-14 18:22:22 - CLASS : master_anggota - FUNCTION : save_crop - URL : localhost:8080/kaderisasi/index.php/master/master_anggota/save_crop - USER ID : 340 - USER IP : ::1 - USER ROLE : 1 - BROWSER : Mozilla/5.0 (Windows NT 10.0; Win64; x64) AppleWebKit/537.36 (KHTML, like Gecko) Chrome/65.0.3325.181 Safari/537.36 - USERNAME : safari
SYSTEM LOG -- DATE :2018-04-14 18:22:22 - CLASS : data - FUNCTION : kabupaten - URL : localhost:8080/kaderisasi/index.php/ajax/data/kabupaten - USER ID : 340 - USER IP : ::1 - USER ROLE : 1 - BROWSER : Mozilla/5.0 (Windows NT 10.0; Win64; x64) AppleWebKit/537.36 (KHTML, like Gecko) Chrome/65.0.3325.181 Safari/537.36 - USERNAME : safari
SYSTEM LOG -- DATE :2018-04-14 18:22:22 - CLASS : data - FUNCTION : kecamatan - URL : localhost:8080/kaderisasi/index.php/ajax/data/kecamatan - USER ID : 340 - USER IP : ::1 - USER ROLE : 1 - BROWSER : Mozilla/5.0 (Windows NT 10.0; Win64; x64) AppleWebKit/537.36 (KHTML, like Gecko) Chrome/65.0.3325.181 Safari/537.36 - USERNAME : safari
SYSTEM LOG -- DATE :2018-04-14 18:22:22 - CLASS : data - FUNCTION : kelurahan - URL : localhost:8080/kaderisasi/index.php/ajax/data/kelurahan - USER ID : 340 - USER IP : ::1 - USER ROLE : 1 - BROWSER : Mozilla/5.0 (Windows NT 10.0; Win64; x64) AppleWebKit/537.36 (KHTML, like Gecko) Chrome/65.0.3325.181 Safari/537.36 - USERNAME : safari
SYSTEM LOG -- DATE :2018-04-14 18:22:23 - CLASS : data - FUNCTION : kabupaten - URL : localhost:8080/kaderisasi/index.php/ajax/data/kabupaten - USER ID : 340 - USER IP : ::1 - USER ROLE : 1 - BROWSER : Mozilla/5.0 (Windows NT 10.0; Win64; x64) AppleWebKit/537.36 (KHTML, like Gecko) Chrome/65.0.3325.181 Safari/537.36 - USERNAME : safari
SYSTEM LOG -- DATE :2018-04-14 18:22:23 - CLASS : data - FUNCTION : kecamatan - URL : localhost:8080/kaderisasi/index.php/ajax/data/kecamatan - USER ID : 340 - USER IP : ::1 - USER ROLE : 1 - BROWSER : Mozilla/5.0 (Windows NT 10.0; Win64; x64) AppleWebKit/537.36 (KHTML, like Gecko) Chrome/65.0.3325.181 Safari/537.36 - USERNAME : safari
SYSTEM LOG -- DATE :2018-04-14 18:22:23 - CLASS : data - FUNCTION : kabupaten - URL : localhost:8080/kaderisasi/index.php/ajax/data/kabupaten - USER ID : 340 - USER IP : ::1 - USER ROLE : 1 - BROWSER : Mozilla/5.0 (Windows NT 10.0; Win64; x64) AppleWebKit/537.36 (KHTML, like Gecko) Chrome/65.0.3325.181 Safari/537.36 - USERNAME : safari
SYSTEM LOG -- DATE :2018-04-14 18:22:23 - CLASS : data - FUNCTION : kecamatan - URL : localhost:8080/kaderisasi/index.php/ajax/data/kecamatan - USER ID : 340 - USER IP : ::1 - USER ROLE : 1 - BROWSER : Mozilla/5.0 (Windows NT 10.0; Win64; x64) AppleWebKit/537.36 (KHTML, like Gecko) Chrome/65.0.3325.181 Safari/537.36 - USERNAME : safari
SYSTEM LOG -- DATE :2018-04-14 18:23:06 - CLASS : master_anggota - FUNCTION : save_crop - URL : localhost:8080/kaderisasi/index.php/master/master_anggota/save_crop - USER ID : 340 - USER IP : ::1 - USER ROLE : 1 - BROWSER : Mozilla/5.0 (Windows NT 10.0; Win64; x64) AppleWebKit/537.36 (KHTML, like Gecko) Chrome/65.0.3325.181 Safari/537.36 - USERNAME : safari
SYSTEM LOG -- DATE :2018-04-14 18:24:47 - CLASS : data - FUNCTION : kabupaten - URL : localhost:8080/kaderisasi/index.php/ajax/data/kabupaten - USER ID : 340 - USER IP : ::1 - USER ROLE : 1 - BROWSER : Mozilla/5.0 (Windows NT 10.0; Win64; x64) AppleWebKit/537.36 (KHTML, like Gecko) Chrome/65.0.3325.181 Safari/537.36 - USERNAME : safari
SYSTEM LOG -- DATE :2018-04-14 18:24:47 - CLASS : data - FUNCTION : kecamatan - URL : localhost:8080/kaderisasi/index.php/ajax/data/kecamatan - USER ID : 340 - USER IP : ::1 - USER ROLE : 1 - BROWSER : Mozilla/5.0 (Windows NT 10.0; Win64; x64) AppleWebKit/537.36 (KHTML, like Gecko) Chrome/65.0.3325.181 Safari/537.36 - USERNAME : safari
SYSTEM LOG -- DATE :2018-04-14 18:24:47 - CLASS : data - FUNCTION : kelurahan - URL : localhost:8080/kaderisasi/index.php/ajax/data/kelurahan - USER ID : 340 - USER IP : ::1 - USER ROLE : 1 - BROWSER : Mozilla/5.0 (Windows NT 10.0; Win64; x64) AppleWebKit/537.36 (KHTML, like Gecko) Chrome/65.0.3325.181 Safari/537.36 - USERNAME : safari
SYSTEM LOG -- DATE :2018-04-14 18:24:48 - CLASS : data - FUNCTION : kabupaten - URL : localhost:8080/kaderisasi/index.php/ajax/data/kabupaten - USER ID : 340 - USER IP : ::1 - USER ROLE : 1 - BROWSER : Mozilla/5.0 (Windows NT 10.0; Win64; x64) AppleWebKit/537.36 (KHTML, like Gecko) Chrome/65.0.3325.181 Safari/537.36 - USERNAME : safari
SYSTEM LOG -- DATE :2018-04-14 18:24:48 - CLASS : data - FUNCTION : kecamatan - URL : localhost:8080/kaderisasi/index.php/ajax/data/kecamatan - USER ID : 340 - USER IP : ::1 - USER ROLE : 1 - BROWSER : Mozilla/5.0 (Windows NT 10.0; Win64; x64) AppleWebKit/537.36 (KHTML, like Gecko) Chrome/65.0.3325.181 Safari/537.36 - USERNAME : safari
SYSTEM LOG -- DATE :2018-04-14 18:24:48 - CLASS : data - FUNCTION : kabupaten - URL : localhost:8080/kaderisasi/index.php/ajax/data/kabupaten - USER ID : 340 - USER IP : ::1 - USER ROLE : 1 - BROWSER : Mozilla/5.0 (Windows NT 10.0; Win64; x64) AppleWebKit/537.36 (KHTML, like Gecko) Chrome/65.0.3325.181 Safari/537.36 - USERNAME : safari
SYSTEM LOG -- DATE :2018-04-14 18:24:48 - CLASS : data - FUNCTION : kecamatan - URL : localhost:8080/kaderisasi/index.php/ajax/data/kecamatan - USER ID : 340 - USER IP : ::1 - USER ROLE : 1 - BROWSER : Mozilla/5.0 (Windows NT 10.0; Win64; x64) AppleWebKit/537.36 (KHTML, like Gecko) Chrome/65.0.3325.181 Safari/537.36 - USERNAME : safari
SYSTEM LOG -- DATE :2018-04-14 18:37:48 - CLASS : master_anggota - FUNCTION : crop - URL : localhost:8080/kaderisasi/index.php/master/master_anggota/crop/?_id=zKT3%2F4IjxiDlY7oyAXOE6F56uuZbj6fVAGwKMgR%2BNjF3%2F36wRuCvxxRCKsoAOdbR%2FVL78awyeQTVgpj2%2BmCcPw%3D%3D - USER ID : 340 - USER IP : ::1 - USER ROLE : 1 - BROWSER : Mozilla/5.0 (Windows NT 10.0; Win64; x64) AppleWebKit/537.36 (KHTML, like Gecko) Chrome/65.0.3325.181 Safari/537.36 - USERNAME : safari
SYSTEM LOG -- DATE :2018-04-14 18:37:48 - CLASS : data - FUNCTION : kabupaten - URL : localhost:8080/kaderisasi/index.php/ajax/data/kabupaten - USER ID : 340 - USER IP : ::1 - USER ROLE : 1 - BROWSER : Mozilla/5.0 (Windows NT 10.0; Win64; x64) AppleWebKit/537.36 (KHTML, like Gecko) Chrome/65.0.3325.181 Safari/537.36 - USERNAME : safari
SYSTEM LOG -- DATE :2018-04-14 18:37:48 - CLASS : data - FUNCTION : kecamatan - URL : localhost:8080/kaderisasi/index.php/ajax/data/kecamatan - USER ID : 340 - USER IP : ::1 - USER ROLE : 1 - BROWSER : Mozilla/5.0 (Windows NT 10.0; Win64; x64) AppleWebKit/537.36 (KHTML, like Gecko) Chrome/65.0.3325.181 Safari/537.36 - USERNAME : safari
SYSTEM LOG -- DATE :2018-04-14 18:37:48 - CLASS : data - FUNCTION : kelurahan - URL : localhost:8080/kaderisasi/index.php/ajax/data/kelurahan - USER ID : 340 - USER IP : ::1 - USER ROLE : 1 - BROWSER : Mozilla/5.0 (Windows NT 10.0; Win64; x64) AppleWebKit/537.36 (KHTML, like Gecko) Chrome/65.0.3325.181 Safari/537.36 - USERNAME : safari
SYSTEM LOG -- DATE :2018-04-14 18:37:48 - CLASS : data - FUNCTION : kecamatan - URL : localhost:8080/kaderisasi/index.php/ajax/data/kecamatan - USER ID : 340 - USER IP : ::1 - USER ROLE : 1 - BROWSER : Mozilla/5.0 (Windows NT 10.0; Win64; x64) AppleWebKit/537.36 (KHTML, like Gecko) Chrome/65.0.3325.181 Safari/537.36 - USERNAME : safari
SYSTEM LOG -- DATE :2018-04-14 18:37:48 - CLASS : data - FUNCTION : kelurahan - URL : localhost:8080/kaderisasi/index.php/ajax/data/kelurahan - USER ID : 340 - USER IP : ::1 - USER ROLE : 1 - BROWSER : Mozilla/5.0 (Windows NT 10.0; Win64; x64) AppleWebKit/537.36 (KHTML, like Gecko) Chrome/65.0.3325.181 Safari/537.36 - USERNAME : safari
SYSTEM LOG -- DATE :2018-04-14 18:37:48 - CLASS : master_anggota - FUNCTION : crop - URL : localhost:8080/kaderisasi/index.php/master/master_anggota/crop/favicon.ico - USER ID : 340 - USER IP : ::1 - USER ROLE : 1 - BROWSER : Mozilla/5.0 (Windows NT 10.0; Win64; x64) AppleWebKit/537.36 (KHTML, like Gecko) Chrome/65.0.3325.181 Safari/537.36 - USERNAME : safari
SYSTEM LOG -- DATE :2018-04-14 18:37:48 - CLASS : master_anggota - FUNCTION : edit - URL : localhost:8080/kaderisasi/index.php/master/master_anggota/edit/?_id=1PWTQ2aumoUj25P8OC9Q%2Fkpyh87bWKO0EzuDz8cpm%2FL%2BQcWv7Jl%2Bl0O8vPEuDgaPhcITSpDzQJbvMn49TVgZ%2Fw%3D%3D - USER ID : 340 - USER IP : ::1 - USER ROLE : 1 - BROWSER : Mozilla/5.0 (Windows NT 10.0; Win64; x64) AppleWebKit/537.36 (KHTML, like Gecko) Chrome/65.0.3325.181 Safari/537.36 - USERNAME : safari
SYSTEM LOG -- DATE :2018-04-14 18:37:49 - CLASS : master_anggota - FUNCTION : index - URL : localhost:8080/kaderisasi/index.php/master/master_anggota?msg=Error%20Parse&type_msg=error - USER ID : 340 - USER IP : ::1 - USER ROLE : 1 - BROWSER : Mozilla/5.0 (Windows NT 10.0; Win64; x64) AppleWebKit/537.36 (KHTML, like Gecko) Chrome/65.0.3325.181 Safari/537.36 - USERNAME : safari
SYSTEM LOG -- DATE :2018-04-14 18:37:49 - CLASS : data - FUNCTION : kabupaten - URL : localhost:8080/kaderisasi/index.php/ajax/data/kabupaten - USER ID : 340 - USER IP : ::1 - USER ROLE : 1 - BROWSER : Mozilla/5.0 (Windows NT 10.0; Win64; x64) AppleWebKit/537.36 (KHTML, like Gecko) Chrome/65.0.3325.181 Safari/537.36 - USERNAME : safari
SYSTEM LOG -- DATE :2018-04-14 18:37:49 - CLASS : data - FUNCTION : kecamatan - URL : localhost:8080/kaderisasi/index.php/ajax/data/kecamatan - USER ID : 340 - USER IP : ::1 - USER ROLE : 1 - BROWSER : Mozilla/5.0 (Windows NT 10.0; Win64; x64) AppleWebKit/537.36 (KHTML, like Gecko) Chrome/65.0.3325.181 Safari/537.36 - USERNAME : safari
SYSTEM LOG -- DATE :2018-04-14 18:37:49 - CLASS : data - FUNCTION : kelurahan - URL : localhost:8080/kaderisasi/index.php/ajax/data/kelurahan - USER ID : 340 - USER IP : ::1 - USER ROLE : 1 - BROWSER : Mozilla/5.0 (Windows NT 10.0; Win64; x64) AppleWebKit/537.36 (KHTML, like Gecko) Chrome/65.0.3325.181 Safari/537.36 - USERNAME : safari
SYSTEM LOG -- DATE :2018-04-14 18:37:50 - CLASS : master_anggota - FUNCTION : edit - URL : localhost:8080/kaderisasi/index.php/master/master_anggota/edit/favicon.ico - USER ID : 340 - USER IP : ::1 - USER ROLE : 1 - BROWSER : Mozilla/5.0 (Windows NT 10.0; Win64; x64) AppleWebKit/537.36 (KHTML, like Gecko) Chrome/65.0.3325.181 Safari/537.36 - USERNAME : safari
SYSTEM LOG -- DATE :2018-04-14 18:37:50 - CLASS : master_anggota - FUNCTION : index - URL : localhost:8080/kaderisasi/index.php/master/master_anggota - USER ID : 340 - USER IP : ::1 - USER ROLE : 1 - BROWSER : Mozilla/5.0 (Windows NT 10.0; Win64; x64) AppleWebKit/537.36 (KHTML, like Gecko) Chrome/65.0.3325.181 Safari/537.36 - USERNAME : safari
SYSTEM LOG -- DATE :2018-04-14 18:39:53 - CLASS : master_anggota - FUNCTION : detail - URL : localhost:8080/kaderisasi/index.php/master/master_anggota/detail/?_id=nemQwOdYNtsTCxTK7NOeArmWJuacK7reWwvXKWtmk7sk23Iua3z1%2BR6t%2FSqh%2FMXLpMtPT%2BUBO9QPxdCCyoZm8g%3D%3D - USER ID : 340 - USER IP : ::1 - USER ROLE : 1 - BROWSER : Mozilla/5.0 (Windows NT 10.0; Win64; x64) AppleWebKit/537.36 (KHTML, like Gecko) Chrome/65.0.3325.181 Safari/537.36 - USERNAME : safari
SYSTEM LOG -- DATE :2018-04-14 18:39:53 - CLASS : data - FUNCTION : kabupaten - URL : localhost:8080/kaderisasi/index.php/ajax/data/kabupaten - USER ID : 340 - USER IP : ::1 - USER ROLE : 1 - BROWSER : Mozilla/5.0 (Windows NT 10.0; Win64; x64) AppleWebKit/537.36 (KHTML, like Gecko) Chrome/65.0.3325.181 Safari/537.36 - USERNAME : safari
SYSTEM LOG -- DATE :2018-04-14 18:39:53 - CLASS : data - FUNCTION : kecamatan - URL : localhost:8080/kaderisasi/index.php/ajax/data/kecamatan - USER ID : 340 - USER IP : ::1 - USER ROLE : 1 - BROWSER : Mozilla/5.0 (Windows NT 10.0; Win64; x64) AppleWebKit/537.36 (KHTML, like Gecko) Chrome/65.0.3325.181 Safari/537.36 - USERNAME : safari
SYSTEM LOG -- DATE :2018-04-14 18:39:53 - CLASS : data - FUNCTION : kelurahan - URL : localhost:8080/kaderisasi/index.php/ajax/data/kelurahan - USER ID : 340 - USER IP : ::1 - USER ROLE : 1 - BROWSER : Mozilla/5.0 (Windows NT 10.0; Win64; x64) AppleWebKit/537.36 (KHTML, like Gecko) Chrome/65.0.3325.181 Safari/537.36 - USERNAME : safari
SYSTEM LOG -- DATE :2018-04-14 18:39:53 - CLASS : data - FUNCTION : kecamatan - URL : localhost:8080/kaderisasi/index.php/ajax/data/kecamatan - USER ID : 340 - USER IP : ::1 - USER ROLE : 1 - BROWSER : Mozilla/5.0 (Windows NT 10.0; Win64; x64) AppleWebKit/537.36 (KHTML, like Gecko) Chrome/65.0.3325.181 Safari/537.36 - USERNAME : safari
SYSTEM LOG -- DATE :2018-04-14 18:39:53 - CLASS : data - FUNCTION : kelurahan - URL : localhost:8080/kaderisasi/index.php/ajax/data/kelurahan - USER ID : 340 - USER IP : ::1 - USER ROLE : 1 - BROWSER : Mozilla/5.0 (Windows NT 10.0; Win64; x64) AppleWebKit/537.36 (KHTML, like Gecko) Chrome/65.0.3325.181 Safari/537.36 - USERNAME : safari
SYSTEM LOG -- DATE :2018-04-14 18:39:53 - CLASS : master_anggota - FUNCTION : detail - URL : localhost:8080/kaderisasi/index.php/master/master_anggota/detail/favicon.ico - USER ID : 340 - USER IP : ::1 - USER ROLE : 1 - BROWSER : Mozilla/5.0 (Windows NT 10.0; Win64; x64) AppleWebKit/537.36 (KHTML, like Gecko) Chrome/65.0.3325.181 Safari/537.36 - USERNAME : safari
SYSTEM LOG -- DATE :2018-04-14 18:39:53 - CLASS : master_anggota - FUNCTION : index - URL : localhost:8080/kaderisasi/index.php/master/master_anggota?msg=Error%20Parse&type_msg=error - USER ID : 340 - USER IP : ::1 - USER ROLE : 1 - BROWSER : Mozilla/5.0 (Windows NT 10.0; Win64; x64) AppleWebKit/537.36 (KHTML, like Gecko) Chrome/65.0.3325.181 Safari/537.36 - USERNAME : safari
SYSTEM LOG -- DATE :2018-04-14 18:41:45 - CLASS : master_anggota - FUNCTION : see_detail - URL : localhost:8080/kaderisasi/index.php/master/master_anggota/see_detail/?_id=iFTWNGrqwLd%2BHWVXch8V62w2BzRtmif8HCLT4dBg%2FjVJ7o%2FUDwg5d4NSTK3GoRPFbFLbqg%2BxM1jdemu5eNvwew%3D%3D - USER ID : 340 - USER IP : ::1 - USER ROLE : 1 - BROWSER : Mozilla/5.0 (Windows NT 10.0; Win64; x64) AppleWebKit/537.36 (KHTML, like Gecko) Chrome/65.0.3325.181 Safari/537.36 - USERNAME : safari
SYSTEM LOG -- DATE :2018-04-14 18:43:08 - CLASS : master_anggota - FUNCTION : index - URL : localhost:8080/kaderisasi/index.php/master/master_anggota/index - USER ID : 340 - USER IP : ::1 - USER ROLE : 1 - BROWSER : Mozilla/5.0 (Windows NT 10.0; Win64; x64) AppleWebKit/537.36 (KHTML, like Gecko) Chrome/65.0.3325.181 Safari/537.36 - USERNAME : safari
SYSTEM LOG -- DATE :2018-04-14 18:43:12 - CLASS : master_anggota - FUNCTION : see_detail - URL : localhost:8080/kaderisasi/index.php/master/master_anggota/see_detail/?_id=IOfThcx1KITF4kKUF0DSaUq1bqW9WWHxeuJqzTPD3GqxQYBJRFA6Lxm6IBt17MT07TWkzSyPlfP3yK44VRriyA%3D%3D - USER ID : 340 - USER IP : ::1 - USER ROLE : 1 - BROWSER : Mozilla/5.0 (Windows NT 10.0; Win64; x64) AppleWebKit/537.36 (KHTML, like Gecko) Chrome/65.0.3325.181 Safari/537.36 - USERNAME : safari
SYSTEM LOG -- DATE :2018-04-14 18:43:27 - CLASS : master_anggota - FUNCTION : index - URL : localhost:8080/kaderisasi/index.php/master/master_anggota/index - USER ID : 340 - USER IP : ::1 - USER ROLE : 1 - BROWSER : Mozilla/5.0 (Windows NT 10.0; Win64; x64) AppleWebKit/537.36 (KHTML, like Gecko) Chrome/65.0.3325.181 Safari/537.36 - USERNAME : safari
SYSTEM LOG -- DATE :2018-04-14 18:43:35 - CLASS : master_anggota - FUNCTION : see_detail - URL : localhost:8080/kaderisasi/index.php/master/master_anggota/see_detail/?_id=t%2FMEci%2FWvPSxxZTUhw9%2BA3oeUGcpR5bm3YJNQoyACepkgspOmFtZjSYtwEPMb%2FueI3NS6ciVWDM%2Fmm4%2Fy4Or9Q%3D%3D - USER ID : 340 - USER IP : ::1 - USER ROLE : 1 - BROWSER : Mozilla/5.0 (Windows NT 10.0; Win64; x64) AppleWebKit/537.36 (KHTML, like Gecko) Chrome/65.0.3325.181 Safari/537.36 - USERNAME : safari
SYSTEM LOG -- DATE :2018-04-14 18:43:51 - CLASS : master_anggota - FUNCTION : index - URL : localhost:8080/kaderisasi/index.php/master/master_anggota/index - USER ID : 340 - USER IP : ::1 - USER ROLE : 1 - BROWSER : Mozilla/5.0 (Windows NT 10.0; Win64; x64) AppleWebKit/537.36 (KHTML, like Gecko) Chrome/65.0.3325.181 Safari/537.36 - USERNAME : safari
SYSTEM LOG -- DATE :2018-04-14 18:43:59 - CLASS : master_anggota - FUNCTION : see_detail - URL : localhost:8080/kaderisasi/index.php/master/master_anggota/see_detail/?_id=XKSXu23j%2FxL3X3l3R2f02yJjRyMqqP04qDAV2I%2BrI3ZCvaY6yB1IKQgkoezhYtQ18fScGmdYzTAwVi68ejQM%2Bw%3D%3D - USER ID : 340 - USER IP : ::1 - USER ROLE : 1 - BROWSER : Mozilla/5.0 (Windows NT 10.0; Win64; x64) AppleWebKit/537.36 (KHTML, like Gecko) Chrome/65.0.3325.181 Safari/537.36 - USERNAME : safari
SYSTEM LOG -- DATE :2018-04-14 18:46:24 - CLASS : master_anggota - FUNCTION : index - URL : localhost:8080/kaderisasi/index.php/master/master_anggota?msg=Error%20Parse&type_msg=error - USER ID : 340 - USER IP : ::1 - USER ROLE : 1 - BROWSER : Mozilla/5.0 (Windows NT 10.0; Win64; x64) AppleWebKit/537.36 (KHTML, like Gecko) Chrome/65.0.3325.181 Safari/537.36 - USERNAME : safari
SYSTEM LOG -- DATE :2018-04-14 18:46:59 - CLASS : master_anggota - FUNCTION : see_detail - URL : localhost:8080/kaderisasi/index.php/master/master_anggota/see_detail/?_id=XKSXu23j%2FxL3X3l3R2f02yJjRyMqqP04qDAV2I%2BrI3ZCvaY6yB1IKQgkoezhYtQ18fScGmdYzTAwVi68ejQM%2Bw%3D%3D - USER ID : 340 - USER IP : ::1 - USER ROLE : 1 - BROWSER : Mozilla/5.0 (Windows NT 10.0; Win64; x64) AppleWebKit/537.36 (KHTML, like Gecko) Chrome/65.0.3325.181 Safari/537.36 - USERNAME : safari
SYSTEM LOG -- DATE :2018-04-14 18:47:17 - CLASS : master_anggota - FUNCTION : index - URL : localhost:8080/kaderisasi/index.php/master/master_anggota?msg=Error%20Parse&type_msg=error - USER ID : 340 - USER IP : ::1 - USER ROLE : 1 - BROWSER : Mozilla/5.0 (Windows NT 10.0; Win64; x64) AppleWebKit/537.36 (KHTML, like Gecko) Chrome/65.0.3325.181 Safari/537.36 - USERNAME : safari
SYSTEM LOG -- DATE :2018-04-14 18:47:37 - CLASS : master_anggota - FUNCTION : see_detail - URL : localhost:8080/kaderisasi/index.php/master/master_anggota/see_detail/?_id=XKSXu23j%2FxL3X3l3R2f02yJjRyMqqP04qDAV2I%2BrI3ZCvaY6yB1IKQgkoezhYtQ18fScGmdYzTAwVi68ejQM%2Bw%3D%3D - USER ID : 340 - USER IP : ::1 - USER ROLE : 1 - BROWSER : Mozilla/5.0 (Windows NT 10.0; Win64; x64) AppleWebKit/537.36 (KHTML, like Gecko) Chrome/65.0.3325.181 Safari/537.36 - USERNAME : safari
SYSTEM LOG -- DATE :2018-04-14 18:47:51 - CLASS : master_anggota - FUNCTION : index - URL : localhost:8080/kaderisasi/index.php/master/master_anggota?msg=Error%20Parse&type_msg=error - USER ID : 340 - USER IP : ::1 - USER ROLE : 1 - BROWSER : Mozilla/5.0 (Windows NT 10.0; Win64; x64) AppleWebKit/537.36 (KHTML, like Gecko) Chrome/65.0.3325.181 Safari/537.36 - USERNAME : safari
SYSTEM LOG -- DATE :2018-04-14 19:19:55 - CLASS : master_anggota - FUNCTION : see_detail - URL : localhost:8080/kaderisasi/index.php/master/master_anggota/see_detail/?_id=XKSXu23j%2FxL3X3l3R2f02yJjRyMqqP04qDAV2I%2BrI3ZCvaY6yB1IKQgkoezhYtQ18fScGmdYzTAwVi68ejQM%2Bw%3D%3D - USER ID : 340 - USER IP : ::1 - USER ROLE : 1 - BROWSER : Mozilla/5.0 (Windows NT 10.0; Win64; x64) AppleWebKit/537.36 (KHTML, like Gecko) Chrome/65.0.3325.181 Safari/537.36 - USERNAME : safari
SYSTEM LOG -- DATE :2018-04-14 19:19:56 - CLASS : master_anggota - FUNCTION : index - URL : localhost:8080/kaderisasi/index.php/master/master_anggota?msg=Error%20Parse&type_msg=error - USER ID : 340 - USER IP : ::1 - USER ROLE : 1 - BROWSER : Mozilla/5.0 (Windows NT 10.0; Win64; x64) AppleWebKit/537.36 (KHTML, like Gecko) Chrome/65.0.3325.181 Safari/537.36 - USERNAME : safari
SYSTEM LOG -- DATE :2018-04-14 19:20:04 - CLASS : master_anggota - FUNCTION : edit - URL : localhost:8080/kaderisasi/index.php/master/master_anggota/edit/?_id=cThQRutSdjaNTijpwRp88nDCZtVaOpAa5hkaISqyuPthWqzwUxTwm%2BLLGLRcbchvUyOO99XxrBZAwN62K2TgBA%3D%3D - USER ID : 340 - USER IP : ::1 - USER ROLE : 1 - BROWSER : Mozilla/5.0 (Windows NT 10.0; Win64; x64) AppleWebKit/537.36 (KHTML, like Gecko) Chrome/65.0.3325.181 Safari/537.36 - USERNAME : safari
SYSTEM LOG -- DATE :2018-04-14 19:20:04 - CLASS : data - FUNCTION : kabupaten - URL : localhost:8080/kaderisasi/index.php/ajax/data/kabupaten - USER ID : 340 - USER IP : ::1 - USER ROLE : 1 - BROWSER : Mozilla/5.0 (Windows NT 10.0; Win64; x64) AppleWebKit/537.36 (KHTML, like Gecko) Chrome/65.0.3325.181 Safari/537.36 - USERNAME : safari
SYSTEM LOG -- DATE :2018-04-14 19:20:04 - CLASS : data - FUNCTION : kecamatan - URL : localhost:8080/kaderisasi/index.php/ajax/data/kecamatan - USER ID : 340 - USER IP : ::1 - USER ROLE : 1 - BROWSER : Mozilla/5.0 (Windows NT 10.0; Win64; x64) AppleWebKit/537.36 (KHTML, like Gecko) Chrome/65.0.3325.181 Safari/537.36 - USERNAME : safari
SYSTEM LOG -- DATE :2018-04-14 19:20:04 - CLASS : data - FUNCTION : kelurahan - URL : localhost:8080/kaderisasi/index.php/ajax/data/kelurahan - USER ID : 340 - USER IP : ::1 - USER ROLE : 1 - BROWSER : Mozilla/5.0 (Windows NT 10.0; Win64; x64) AppleWebKit/537.36 (KHTML, like Gecko) Chrome/65.0.3325.181 Safari/537.36 - USERNAME : safari
SYSTEM LOG -- DATE :2018-04-14 19:20:04 - CLASS : master_anggota - FUNCTION : edit - URL : localhost:8080/kaderisasi/index.php/master/master_anggota/edit/favicon.ico - USER ID : 340 - USER IP : ::1 - USER ROLE : 1 - BROWSER : Mozilla/5.0 (Windows NT 10.0; Win64; x64) AppleWebKit/537.36 (KHTML, like Gecko) Chrome/65.0.3325.181 Safari/537.36 - USERNAME : safari
SYSTEM LOG -- DATE :2018-04-14 19:20:04 - CLASS : master_anggota - FUNCTION : index - URL : localhost:8080/kaderisasi/index.php/master/master_anggota?msg=Error%20Parse&type_msg=error - USER ID : 340 - USER IP : ::1 - USER ROLE : 1 - BROWSER : Mozilla/5.0 (Windows NT 10.0; Win64; x64) AppleWebKit/537.36 (KHTML, like Gecko) Chrome/65.0.3325.181 Safari/537.36 - USERNAME : safari
SYSTEM LOG -- DATE :2018-04-14 19:20:06 - CLASS : master_anggota - FUNCTION : save_upload - URL : localhost:8080/kaderisasi/index.php/master/master_anggota/save_upload - USER ID : 340 - USER IP : ::1 - USER ROLE : 1 - BROWSER : Mozilla/5.0 (Windows NT 10.0; Win64; x64) AppleWebKit/537.36 (KHTML, like Gecko) Chrome/65.0.3325.181 Safari/537.36 - USERNAME : safari
SYSTEM LOG -- DATE :2018-04-14 19:20:07 - CLASS : master_anggota - FUNCTION : crop - URL : localhost:8080/kaderisasi/index.php/master/master_anggota/crop/?_id=EapzmPV3yokptkr9fDtkajHqbTNtnXLA9crwUT6h%2FNdS7nsApDOcKMsnMAysKi6Of771cOwPyVUMNbdBUjlbaA%3D%3D - USER ID : 340 - USER IP : ::1 - USER ROLE : 1 - BROWSER : Mozilla/5.0 (Windows NT 10.0; Win64; x64) AppleWebKit/537.36 (KHTML, like Gecko) Chrome/65.0.3325.181 Safari/537.36 - USERNAME : safari
SYSTEM LOG -- DATE :2018-04-14 19:20:07 - CLASS : data - FUNCTION : kabupaten - URL : localhost:8080/kaderisasi/index.php/ajax/data/kabupaten - USER ID : 340 - USER IP : ::1 - USER ROLE : 1 - BROWSER : Mozilla/5.0 (Windows NT 10.0; Win64; x64) AppleWebKit/537.36 (KHTML, like Gecko) Chrome/65.0.3325.181 Safari/537.36 - USERNAME : safari
SYSTEM LOG -- DATE :2018-04-14 19:20:07 - CLASS : data - FUNCTION : kecamatan - URL : localhost:8080/kaderisasi/index.php/ajax/data/kecamatan - USER ID : 340 - USER IP : ::1 - USER ROLE : 1 - BROWSER : Mozilla/5.0 (Windows NT 10.0; Win64; x64) AppleWebKit/537.36 (KHTML, like Gecko) Chrome/65.0.3325.181 Safari/537.36 - USERNAME : safari
SYSTEM LOG -- DATE :2018-04-14 19:20:07 - CLASS : data - FUNCTION : kelurahan - URL : localhost:8080/kaderisasi/index.php/ajax/data/kelurahan - USER ID : 340 - USER IP : ::1 - USER ROLE : 1 - BROWSER : Mozilla/5.0 (Windows NT 10.0; Win64; x64) AppleWebKit/537.36 (KHTML, like Gecko) Chrome/65.0.3325.181 Safari/537.36 - USERNAME : safari
SYSTEM LOG -- DATE :2018-04-14 19:20:07 - CLASS : master_anggota - FUNCTION : crop - URL : localhost:8080/kaderisasi/index.php/master/master_anggota/crop/favicon.ico - USER ID : 340 - USER IP : ::1 - USER ROLE : 1 - BROWSER : Mozilla/5.0 (Windows NT 10.0; Win64; x64) AppleWebKit/537.36 (KHTML, like Gecko) Chrome/65.0.3325.181 Safari/537.36 - USERNAME : safari
SYSTEM LOG -- DATE :2018-04-14 19:20:07 - CLASS : master_anggota - FUNCTION : index - URL : localhost:8080/kaderisasi/index.php/master/master_anggota?msg=Error%20Parse&type_msg=error - USER ID : 340 - USER IP : ::1 - USER ROLE : 1 - BROWSER : Mozilla/5.0 (Windows NT 10.0; Win64; x64) AppleWebKit/537.36 (KHTML, like Gecko) Chrome/65.0.3325.181 Safari/537.36 - USERNAME : safari
SYSTEM LOG -- DATE :2018-04-14 19:20:08 - CLASS : master_anggota - FUNCTION : save_crop - URL : localhost:8080/kaderisasi/index.php/master/master_anggota/save_crop - USER ID : 340 - USER IP : ::1 - USER ROLE : 1 - BROWSER : Mozilla/5.0 (Windows NT 10.0; Win64; x64) AppleWebKit/537.36 (KHTML, like Gecko) Chrome/65.0.3325.181 Safari/537.36 - USERNAME : safari
SYSTEM LOG -- DATE :2018-04-14 19:20:09 - CLASS : data - FUNCTION : kabupaten - URL : localhost:8080/kaderisasi/index.php/ajax/data/kabupaten - USER ID : 340 - USER IP : ::1 - USER ROLE : 1 - BROWSER : Mozilla/5.0 (Windows NT 10.0; Win64; x64) AppleWebKit/537.36 (KHTML, like Gecko) Chrome/65.0.3325.181 Safari/537.36 - USERNAME : safari
SYSTEM LOG -- DATE :2018-04-14 19:20:09 - CLASS : data - FUNCTION : kecamatan - URL : localhost:8080/kaderisasi/index.php/ajax/data/kecamatan - USER ID : 340 - USER IP : ::1 - USER ROLE : 1 - BROWSER : Mozilla/5.0 (Windows NT 10.0; Win64; x64) AppleWebKit/537.36 (KHTML, like Gecko) Chrome/65.0.3325.181 Safari/537.36 - USERNAME : safari
SYSTEM LOG -- DATE :2018-04-14 19:20:09 - CLASS : data - FUNCTION : kelurahan - URL : localhost:8080/kaderisasi/index.php/ajax/data/kelurahan - USER ID : 340 - USER IP : ::1 - USER ROLE : 1 - BROWSER : Mozilla/5.0 (Windows NT 10.0; Win64; x64) AppleWebKit/537.36 (KHTML, like Gecko) Chrome/65.0.3325.181 Safari/537.36 - USERNAME : safari
SYSTEM LOG -- DATE :2018-04-14 19:20:09 - CLASS : data - FUNCTION : kabupaten - URL : localhost:8080/kaderisasi/index.php/ajax/data/kabupaten - USER ID : 340 - USER IP : ::1 - USER ROLE : 1 - BROWSER : Mozilla/5.0 (Windows NT 10.0; Win64; x64) AppleWebKit/537.36 (KHTML, like Gecko) Chrome/65.0.3325.181 Safari/537.36 - USERNAME : safari
SYSTEM LOG -- DATE :2018-04-14 19:20:09 - CLASS : data - FUNCTION : kecamatan - URL : localhost:8080/kaderisasi/index.php/ajax/data/kecamatan - USER ID : 340 - USER IP : ::1 - USER ROLE : 1 - BROWSER : Mozilla/5.0 (Windows NT 10.0; Win64; x64) AppleWebKit/537.36 (KHTML, like Gecko) Chrome/65.0.3325.181 Safari/537.36 - USERNAME : safari
SYSTEM LOG -- DATE :2018-04-14 19:20:09 - CLASS : data - FUNCTION : kabupaten - URL : localhost:8080/kaderisasi/index.php/ajax/data/kabupaten - USER ID : 340 - USER IP : ::1 - USER ROLE : 1 - BROWSER : Mozilla/5.0 (Windows NT 10.0; Win64; x64) AppleWebKit/537.36 (KHTML, like Gecko) Chrome/65.0.3325.181 Safari/537.36 - USERNAME : safari
SYSTEM LOG -- DATE :2018-04-14 19:20:09 - CLASS : data - FUNCTION : kecamatan - URL : localhost:8080/kaderisasi/index.php/ajax/data/kecamatan - USER ID : 340 - USER IP : ::1 - USER ROLE : 1 - BROWSER : Mozilla/5.0 (Windows NT 10.0; Win64; x64) AppleWebKit/537.36 (KHTML, like Gecko) Chrome/65.0.3325.181 Safari/537.36 - USERNAME : safari
SYSTEM LOG -- DATE :2018-04-14 19:21:30 - CLASS : master_anggota - FUNCTION : save_crop - URL : localhost:8080/kaderisasi/index.php/master/master_anggota/save_crop - USER ID : 340 - USER IP : ::1 - USER ROLE : 1 - BROWSER : Mozilla/5.0 (Windows NT 10.0; Win64; x64) AppleWebKit/537.36 (KHTML, like Gecko) Chrome/65.0.3325.181 Safari/537.36 - USERNAME : safari
SYSTEM LOG -- DATE :2018-04-14 19:21:30 - CLASS : data - FUNCTION : kabupaten - URL : localhost:8080/kaderisasi/index.php/ajax/data/kabupaten - USER ID : 340 - USER IP : ::1 - USER ROLE : 1 - BROWSER : Mozilla/5.0 (Windows NT 10.0; Win64; x64) AppleWebKit/537.36 (KHTML, like Gecko) Chrome/65.0.3325.181 Safari/537.36 - USERNAME : safari
SYSTEM LOG -- DATE :2018-04-14 19:21:31 - CLASS : data - FUNCTION : kecamatan - URL : localhost:8080/kaderisasi/index.php/ajax/data/kecamatan - USER ID : 340 - USER IP : ::1 - USER ROLE : 1 - BROWSER : Mozilla/5.0 (Windows NT 10.0; Win64; x64) AppleWebKit/537.36 (KHTML, like Gecko) Chrome/65.0.3325.181 Safari/537.36 - USERNAME : safari
SYSTEM LOG -- DATE :2018-04-14 19:21:31 - CLASS : data - FUNCTION : kelurahan - URL : localhost:8080/kaderisasi/index.php/ajax/data/kelurahan - USER ID : 340 - USER IP : ::1 - USER ROLE : 1 - BROWSER : Mozilla/5.0 (Windows NT 10.0; Win64; x64) AppleWebKit/537.36 (KHTML, like Gecko) Chrome/65.0.3325.181 Safari/537.36 - USERNAME : safari
SYSTEM LOG -- DATE :2018-04-14 19:21:31 - CLASS : data - FUNCTION : kabupaten - URL : localhost:8080/kaderisasi/index.php/ajax/data/kabupaten - USER ID : 340 - USER IP : ::1 - USER ROLE : 1 - BROWSER : Mozilla/5.0 (Windows NT 10.0; Win64; x64) AppleWebKit/537.36 (KHTML, like Gecko) Chrome/65.0.3325.181 Safari/537.36 - USERNAME : safari
SYSTEM LOG -- DATE :2018-04-14 19:21:31 - CLASS : data - FUNCTION : kecamatan - URL : localhost:8080/kaderisasi/index.php/ajax/data/kecamatan - USER ID : 340 - USER IP : ::1 - USER ROLE : 1 - BROWSER : Mozilla/5.0 (Windows NT 10.0; Win64; x64) AppleWebKit/537.36 (KHTML, like Gecko) Chrome/65.0.3325.181 Safari/537.36 - USERNAME : safari
SYSTEM LOG -- DATE :2018-04-14 19:21:31 - CLASS : data - FUNCTION : kabupaten - URL : localhost:8080/kaderisasi/index.php/ajax/data/kabupaten - USER ID : 340 - USER IP : ::1 - USER ROLE : 1 - BROWSER : Mozilla/5.0 (Windows NT 10.0; Win64; x64) AppleWebKit/537.36 (KHTML, like Gecko) Chrome/65.0.3325.181 Safari/537.36 - USERNAME : safari
SYSTEM LOG -- DATE :2018-04-14 19:21:31 - CLASS : data - FUNCTION : kecamatan - URL : localhost:8080/kaderisasi/index.php/ajax/data/kecamatan - USER ID : 340 - USER IP : ::1 - USER ROLE : 1 - BROWSER : Mozilla/5.0 (Windows NT 10.0; Win64; x64) AppleWebKit/537.36 (KHTML, like Gecko) Chrome/65.0.3325.181 Safari/537.36 - USERNAME : safari
SYSTEM LOG -- DATE :2018-04-14 19:21:39 - CLASS : master_anggota - FUNCTION : save - URL : localhost:8080/kaderisasi/index.php/master/master_anggota/save - USER ID : 340 - USER IP : ::1 - USER ROLE : 1 - BROWSER : Mozilla/5.0 (Windows NT 10.0; Win64; x64) AppleWebKit/537.36 (KHTML, like Gecko) Chrome/65.0.3325.181 Safari/537.36 - USERNAME : safari
SYSTEM LOG -- DATE :2018-04-14 19:22:22 - CLASS : master_anggota - FUNCTION : index - URL : localhost:8080/kaderisasi/index.php/master/master_anggota?msg=Input%20Anggota%20Berhasil&type_msg=success - USER ID : 340 - USER IP : ::1 - USER ROLE : 1 - BROWSER : Mozilla/5.0 (Windows NT 10.0; Win64; x64) AppleWebKit/537.36 (KHTML, like Gecko) Chrome/65.0.3325.181 Safari/537.36 - USERNAME : safari
SYSTEM LOG -- DATE :2018-04-14 19:22:49 - CLASS : master_anggota - FUNCTION : edit - URL : localhost:8080/kaderisasi/index.php/master/master_anggota/edit/?_id=jnN3VlTOOH47rXO6EOCYfhlP%2FC140awy8t0lyf%2BjfebX0a65JmRtQpaxozviI1gW3Yb8144sfX5NfhYtCqn%2B3Q%3D%3D - USER ID : 340 - USER IP : ::1 - USER ROLE : 1 - BROWSER : Mozilla/5.0 (Windows NT 10.0; Win64; x64) AppleWebKit/537.36 (KHTML, like Gecko) Chrome/65.0.3325.181 Safari/537.36 - USERNAME : safari
SYSTEM LOG -- DATE :2018-04-14 19:22:49 - CLASS : data - FUNCTION : kabupaten - URL : localhost:8080/kaderisasi/index.php/ajax/data/kabupaten - USER ID : 340 - USER IP : ::1 - USER ROLE : 1 - BROWSER : Mozilla/5.0 (Windows NT 10.0; Win64; x64) AppleWebKit/537.36 (KHTML, like Gecko) Chrome/65.0.3325.181 Safari/537.36 - USERNAME : safari
SYSTEM LOG -- DATE :2018-04-14 19:22:49 - CLASS : data - FUNCTION : kecamatan - URL : localhost:8080/kaderisasi/index.php/ajax/data/kecamatan - USER ID : 340 - USER IP : ::1 - USER ROLE : 1 - BROWSER : Mozilla/5.0 (Windows NT 10.0; Win64; x64) AppleWebKit/537.36 (KHTML, like Gecko) Chrome/65.0.3325.181 Safari/537.36 - USERNAME : safari
SYSTEM LOG -- DATE :2018-04-14 19:22:49 - CLASS : data - FUNCTION : kelurahan - URL : localhost:8080/kaderisasi/index.php/ajax/data/kelurahan - USER ID : 340 - USER IP : ::1 - USER ROLE : 1 - BROWSER : Mozilla/5.0 (Windows NT 10.0; Win64; x64) AppleWebKit/537.36 (KHTML, like Gecko) Chrome/65.0.3325.181 Safari/537.36 - USERNAME : safari
SYSTEM LOG -- DATE :2018-04-14 19:22:49 - CLASS : master_anggota - FUNCTION : edit - URL : localhost:8080/kaderisasi/index.php/master/master_anggota/edit/favicon.ico - USER ID : 340 - USER IP : ::1 - USER ROLE : 1 - BROWSER : Mozilla/5.0 (Windows NT 10.0; Win64; x64) AppleWebKit/537.36 (KHTML, like Gecko) Chrome/65.0.3325.181 Safari/537.36 - USERNAME : safari
SYSTEM LOG -- DATE :2018-04-14 19:22:49 - CLASS : master_anggota - FUNCTION : index - URL : localhost:8080/kaderisasi/index.php/master/master_anggota?msg=Error%20Parse&type_msg=error - USER ID : 340 - USER IP : ::1 - USER ROLE : 1 - BROWSER : Mozilla/5.0 (Windows NT 10.0; Win64; x64) AppleWebKit/537.36 (KHTML, like Gecko) Chrome/65.0.3325.181 Safari/537.36 - USERNAME : safari
SYSTEM LOG -- DATE :2018-04-14 19:22:51 - CLASS : master_anggota - FUNCTION : save_upload - URL : localhost:8080/kaderisasi/index.php/master/master_anggota/save_upload - USER ID : 340 - USER IP : ::1 - USER ROLE : 1 - BROWSER : Mozilla/5.0 (Windows NT 10.0; Win64; x64) AppleWebKit/537.36 (KHTML, like Gecko) Chrome/65.0.3325.181 Safari/537.36 - USERNAME : safari
SYSTEM LOG -- DATE :2018-04-14 19:22:51 - CLASS : master_anggota - FUNCTION : crop - URL : localhost:8080/kaderisasi/index.php/master/master_anggota/crop/?_id=kxjkJwK0LL%2FFjU8Wh9WdAG%2FSTj9%2BvEydXGr1uFxtPuLo0DQJgGUrhJkmU713fRuxcIAo8Kx0br9nuVwxTsNq2w%3D%3D - USER ID : 340 - USER IP : ::1 - USER ROLE : 1 - BROWSER : Mozilla/5.0 (Windows NT 10.0; Win64; x64) AppleWebKit/537.36 (KHTML, like Gecko) Chrome/65.0.3325.181 Safari/537.36 - USERNAME : safari
SYSTEM LOG -- DATE :2018-04-14 19:22:51 - CLASS : data - FUNCTION : kabupaten - URL : localhost:8080/kaderisasi/index.php/ajax/data/kabupaten - USER ID : 340 - USER IP : ::1 - USER ROLE : 1 - BROWSER : Mozilla/5.0 (Windows NT 10.0; Win64; x64) AppleWebKit/537.36 (KHTML, like Gecko) Chrome/65.0.3325.181 Safari/537.36 - USERNAME : safari
SYSTEM LOG -- DATE :2018-04-14 19:22:51 - CLASS : data - FUNCTION : kecamatan - URL : localhost:8080/kaderisasi/index.php/ajax/data/kecamatan - USER ID : 340 - USER IP : ::1 - USER ROLE : 1 - BROWSER : Mozilla/5.0 (Windows NT 10.0; Win64; x64) AppleWebKit/537.36 (KHTML, like Gecko) Chrome/65.0.3325.181 Safari/537.36 - USERNAME : safari
SYSTEM LOG -- DATE :2018-04-14 19:22:51 - CLASS : data - FUNCTION : kelurahan - URL : localhost:8080/kaderisasi/index.php/ajax/data/kelurahan - USER ID : 340 - USER IP : ::1 - USER ROLE : 1 - BROWSER : Mozilla/5.0 (Windows NT 10.0; Win64; x64) AppleWebKit/537.36 (KHTML, like Gecko) Chrome/65.0.3325.181 Safari/537.36 - USERNAME : safari
SYSTEM LOG -- DATE :2018-04-14 19:22:52 - CLASS : master_anggota - FUNCTION : crop - URL : localhost:8080/kaderisasi/index.php/master/master_anggota/crop/favicon.ico - USER ID : 340 - USER IP : ::1 - USER ROLE : 1 - BROWSER : Mozilla/5.0 (Windows NT 10.0; Win64; x64) AppleWebKit/537.36 (KHTML, like Gecko) Chrome/65.0.3325.181 Safari/537.36 - USERNAME : safari
SYSTEM LOG -- DATE :2018-04-14 19:22:52 - CLASS : master_anggota - FUNCTION : index - URL : localhost:8080/kaderisasi/index.php/master/master_anggota?msg=Error%20Parse&type_msg=error - USER ID : 340 - USER IP : ::1 - USER ROLE : 1 - BROWSER : Mozilla/5.0 (Windows NT 10.0; Win64; x64) AppleWebKit/537.36 (KHTML, like Gecko) Chrome/65.0.3325.181 Safari/537.36 - USERNAME : safari
SYSTEM LOG -- DATE :2018-04-14 19:22:53 - CLASS : master_anggota - FUNCTION : save_crop - URL : localhost:8080/kaderisasi/index.php/master/master_anggota/save_crop - USER ID : 340 - USER IP : ::1 - USER ROLE : 1 - BROWSER : Mozilla/5.0 (Windows NT 10.0; Win64; x64) AppleWebKit/537.36 (KHTML, like Gecko) Chrome/65.0.3325.181 Safari/537.36 - USERNAME : safari
SYSTEM LOG -- DATE :2018-04-14 19:22:53 - CLASS : data - FUNCTION : kabupaten - URL : localhost:8080/kaderisasi/index.php/ajax/data/kabupaten - USER ID : 340 - USER IP : ::1 - USER ROLE : 1 - BROWSER : Mozilla/5.0 (Windows NT 10.0; Win64; x64) AppleWebKit/537.36 (KHTML, like Gecko) Chrome/65.0.3325.181 Safari/537.36 - USERNAME : safari
SYSTEM LOG -- DATE :2018-04-14 19:22:53 - CLASS : data - FUNCTION : kecamatan - URL : localhost:8080/kaderisasi/index.php/ajax/data/kecamatan - USER ID : 340 - USER IP : ::1 - USER ROLE : 1 - BROWSER : Mozilla/5.0 (Windows NT 10.0; Win64; x64) AppleWebKit/537.36 (KHTML, like Gecko) Chrome/65.0.3325.181 Safari/537.36 - USERNAME : safari
SYSTEM LOG -- DATE :2018-04-14 19:22:53 - CLASS : data - FUNCTION : kelurahan - URL : localhost:8080/kaderisasi/index.php/ajax/data/kelurahan - USER ID : 340 - USER IP : ::1 - USER ROLE : 1 - BROWSER : Mozilla/5.0 (Windows NT 10.0; Win64; x64) AppleWebKit/537.36 (KHTML, like Gecko) Chrome/65.0.3325.181 Safari/537.36 - USERNAME : safari
SYSTEM LOG -- DATE :2018-04-14 19:22:53 - CLASS : data - FUNCTION : kabupaten - URL : localhost:8080/kaderisasi/index.php/ajax/data/kabupaten - USER ID : 340 - USER IP : ::1 - USER ROLE : 1 - BROWSER : Mozilla/5.0 (Windows NT 10.0; Win64; x64) AppleWebKit/537.36 (KHTML, like Gecko) Chrome/65.0.3325.181 Safari/537.36 - USERNAME : safari
SYSTEM LOG -- DATE :2018-04-14 19:22:53 - CLASS : data - FUNCTION : kecamatan - URL : localhost:8080/kaderisasi/index.php/ajax/data/kecamatan - USER ID : 340 - USER IP : ::1 - USER ROLE : 1 - BROWSER : Mozilla/5.0 (Windows NT 10.0; Win64; x64) AppleWebKit/537.36 (KHTML, like Gecko) Chrome/65.0.3325.181 Safari/537.36 - USERNAME : safari
SYSTEM LOG -- DATE :2018-04-14 19:22:53 - CLASS : data - FUNCTION : kabupaten - URL : localhost:8080/kaderisasi/index.php/ajax/data/kabupaten - USER ID : 340 - USER IP : ::1 - USER ROLE : 1 - BROWSER : Mozilla/5.0 (Windows NT 10.0; Win64; x64) AppleWebKit/537.36 (KHTML, like Gecko) Chrome/65.0.3325.181 Safari/537.36 - USERNAME : safari
SYSTEM LOG -- DATE :2018-04-14 19:22:53 - CLASS : data - FUNCTION : kecamatan - URL : localhost:8080/kaderisasi/index.php/ajax/data/kecamatan - USER ID : 340 - USER IP : ::1 - USER ROLE : 1 - BROWSER : Mozilla/5.0 (Windows NT 10.0; Win64; x64) AppleWebKit/537.36 (KHTML, like Gecko) Chrome/65.0.3325.181 Safari/537.36 - USERNAME : safari
SYSTEM LOG -- DATE :2018-04-14 19:26:11 - CLASS : master_anggota - FUNCTION : save_crop - URL : localhost:8080/kaderisasi/index.php/master/master_anggota/save_crop - USER ID : 340 - USER IP : ::1 - USER ROLE : 1 - BROWSER : Mozilla/5.0 (Windows NT 10.0; Win64; x64) AppleWebKit/537.36 (KHTML, like Gecko) Chrome/65.0.3325.181 Safari/537.36 - USERNAME : safari
SYSTEM LOG -- DATE :2018-04-14 19:26:11 - CLASS : data - FUNCTION : kabupaten - URL : localhost:8080/kaderisasi/index.php/ajax/data/kabupaten - USER ID : 340 - USER IP : ::1 - USER ROLE : 1 - BROWSER : Mozilla/5.0 (Windows NT 10.0; Win64; x64) AppleWebKit/537.36 (KHTML, like Gecko) Chrome/65.0.3325.181 Safari/537.36 - USERNAME : safari
SYSTEM LOG -- DATE :2018-04-14 19:26:12 - CLASS : data - FUNCTION : kelurahan - URL : localhost:8080/kaderisasi/index.php/ajax/data/kelurahan - USER ID : 340 - USER IP : ::1 - USER ROLE : 1 - BROWSER : Mozilla/5.0 (Windows NT 10.0; Win64; x64) AppleWebKit/537.36 (KHTML, like Gecko) Chrome/65.0.3325.181 Safari/537.36 - USERNAME : safari
SYSTEM LOG -- DATE :2018-04-14 19:26:12 - CLASS : data - FUNCTION : kecamatan - URL : localhost:8080/kaderisasi/index.php/ajax/data/kecamatan - USER ID : 340 - USER IP : ::1 - USER ROLE : 1 - BROWSER : Mozilla/5.0 (Windows NT 10.0; Win64; x64) AppleWebKit/537.36 (KHTML, like Gecko) Chrome/65.0.3325.181 Safari/537.36 - USERNAME : safari
SYSTEM LOG -- DATE :2018-04-14 19:26:12 - CLASS : data - FUNCTION : kabupaten - URL : localhost:8080/kaderisasi/index.php/ajax/data/kabupaten - USER ID : 340 - USER IP : ::1 - USER ROLE : 1 - BROWSER : Mozilla/5.0 (Windows NT 10.0; Win64; x64) AppleWebKit/537.36 (KHTML, like Gecko) Chrome/65.0.3325.181 Safari/537.36 - USERNAME : safari
SYSTEM LOG -- DATE :2018-04-14 19:26:12 - CLASS : data - FUNCTION : kecamatan - URL : localhost:8080/kaderisasi/index.php/ajax/data/kecamatan - USER ID : 340 - USER IP : ::1 - USER ROLE : 1 - BROWSER : Mozilla/5.0 (Windows NT 10.0; Win64; x64) AppleWebKit/537.36 (KHTML, like Gecko) Chrome/65.0.3325.181 Safari/537.36 - USERNAME : safari
SYSTEM LOG -- DATE :2018-04-14 19:26:12 - CLASS : data - FUNCTION : kabupaten - URL : localhost:8080/kaderisasi/index.php/ajax/data/kabupaten - USER ID : 340 - USER IP : ::1 - USER ROLE : 1 - BROWSER : Mozilla/5.0 (Windows NT 10.0; Win64; x64) AppleWebKit/537.36 (KHTML, like Gecko) Chrome/65.0.3325.181 Safari/537.36 - USERNAME : safari
SYSTEM LOG -- DATE :2018-04-14 19:26:12 - CLASS : data - FUNCTION : kecamatan - URL : localhost:8080/kaderisasi/index.php/ajax/data/kecamatan - USER ID : 340 - USER IP : ::1 - USER ROLE : 1 - BROWSER : Mozilla/5.0 (Windows NT 10.0; Win64; x64) AppleWebKit/537.36 (KHTML, like Gecko) Chrome/65.0.3325.181 Safari/537.36 - USERNAME : safari
SYSTEM LOG -- DATE :2018-04-14 19:27:07 - CLASS : master_anggota - FUNCTION : save_crop - URL : localhost:8080/kaderisasi/index.php/master/master_anggota/save_crop - USER ID : 340 - USER IP : ::1 - USER ROLE : 1 - BROWSER : Mozilla/5.0 (Windows NT 10.0; Win64; x64) AppleWebKit/537.36 (KHTML, like Gecko) Chrome/65.0.3325.181 Safari/537.36 - USERNAME : safari
SYSTEM LOG -- DATE :2018-04-14 19:27:07 - CLASS : data - FUNCTION : kabupaten - URL : localhost:8080/kaderisasi/index.php/ajax/data/kabupaten - USER ID : 340 - USER IP : ::1 - USER ROLE : 1 - BROWSER : Mozilla/5.0 (Windows NT 10.0; Win64; x64) AppleWebKit/537.36 (KHTML, like Gecko) Chrome/65.0.3325.181 Safari/537.36 - USERNAME : safari
SYSTEM LOG -- DATE :2018-04-14 19:27:07 - CLASS : data - FUNCTION : kecamatan - URL : localhost:8080/kaderisasi/index.php/ajax/data/kecamatan - USER ID : 340 - USER IP : ::1 - USER ROLE : 1 - BROWSER : Mozilla/5.0 (Windows NT 10.0; Win64; x64) AppleWebKit/537.36 (KHTML, like Gecko) Chrome/65.0.3325.181 Safari/537.36 - USERNAME : safari
SYSTEM LOG -- DATE :2018-04-14 19:27:07 - CLASS : data - FUNCTION : kelurahan - URL : localhost:8080/kaderisasi/index.php/ajax/data/kelurahan - USER ID : 340 - USER IP : ::1 - USER ROLE : 1 - BROWSER : Mozilla/5.0 (Windows NT 10.0; Win64; x64) AppleWebKit/537.36 (KHTML, like Gecko) Chrome/65.0.3325.181 Safari/537.36 - USERNAME : safari
SYSTEM LOG -- DATE :2018-04-14 19:27:08 - CLASS : data - FUNCTION : kabupaten - URL : localhost:8080/kaderisasi/index.php/ajax/data/kabupaten - USER ID : 340 - USER IP : ::1 - USER ROLE : 1 - BROWSER : Mozilla/5.0 (Windows NT 10.0; Win64; x64) AppleWebKit/537.36 (KHTML, like Gecko) Chrome/65.0.3325.181 Safari/537.36 - USERNAME : safari
SYSTEM LOG -- DATE :2018-04-14 19:27:08 - CLASS : data - FUNCTION : kecamatan - URL : localhost:8080/kaderisasi/index.php/ajax/data/kecamatan - USER ID : 340 - USER IP : ::1 - USER ROLE : 1 - BROWSER : Mozilla/5.0 (Windows NT 10.0; Win64; x64) AppleWebKit/537.36 (KHTML, like Gecko) Chrome/65.0.3325.181 Safari/537.36 - USERNAME : safari
SYSTEM LOG -- DATE :2018-04-14 19:27:22 - CLASS : master_anggota - FUNCTION : save - URL : localhost:8080/kaderisasi/index.php/master/master_anggota/save - USER ID : 340 - USER IP : ::1 - USER ROLE : 1 - BROWSER : Mozilla/5.0 (Windows NT 10.0; Win64; x64) AppleWebKit/537.36 (KHTML, like Gecko) Chrome/65.0.3325.181 Safari/537.36 - USERNAME : safari
SYSTEM LOG -- DATE :2018-04-14 19:27:22 - CLASS : master_anggota - FUNCTION : index - URL : localhost:8080/kaderisasi/index.php/master/master_anggota?msg=Input%20Anggota%20Berhasil&type_msg=success - USER ID : 340 - USER IP : ::1 - USER ROLE : 1 - BROWSER : Mozilla/5.0 (Windows NT 10.0; Win64; x64) AppleWebKit/537.36 (KHTML, like Gecko) Chrome/65.0.3325.181 Safari/537.36 - USERNAME : safari
SYSTEM LOG -- DATE :2018-04-14 19:27:46 - CLASS : master_anggota - FUNCTION : edit - URL : localhost:8080/kaderisasi/index.php/master/master_anggota/edit/?_id=eYHnuPcnjoUQqGX%2FDVdeGbeYT7iuxMTDOtK6%2BU5zxcyWxQEcO1n4Rx4%2BlqDD7E%2Fj3j%2BC5MkQxOSi9UnB7RT3qg%3D%3D - USER ID : 340 - USER IP : ::1 - USER ROLE : 1 - BROWSER : Mozilla/5.0 (Windows NT 10.0; Win64; x64) AppleWebKit/537.36 (KHTML, like Gecko) Chrome/65.0.3325.181 Safari/537.36 - USERNAME : safari
SYSTEM LOG -- DATE :2018-04-14 19:27:46 - CLASS : data - FUNCTION : kabupaten - URL : localhost:8080/kaderisasi/index.php/ajax/data/kabupaten - USER ID : 340 - USER IP : ::1 - USER ROLE : 1 - BROWSER : Mozilla/5.0 (Windows NT 10.0; Win64; x64) AppleWebKit/537.36 (KHTML, like Gecko) Chrome/65.0.3325.181 Safari/537.36 - USERNAME : safari
SYSTEM LOG -- DATE :2018-04-14 19:27:46 - CLASS : data - FUNCTION : kecamatan - URL : localhost:8080/kaderisasi/index.php/ajax/data/kecamatan - USER ID : 340 - USER IP : ::1 - USER ROLE : 1 - BROWSER : Mozilla/5.0 (Windows NT 10.0; Win64; x64) AppleWebKit/537.36 (KHTML, like Gecko) Chrome/65.0.3325.181 Safari/537.36 - USERNAME : safari
SYSTEM LOG -- DATE :2018-04-14 19:27:47 - CLASS : data - FUNCTION : kelurahan - URL : localhost:8080/kaderisasi/index.php/ajax/data/kelurahan - USER ID : 340 - USER IP : ::1 - USER ROLE : 1 - BROWSER : Mozilla/5.0 (Windows NT 10.0; Win64; x64) AppleWebKit/537.36 (KHTML, like Gecko) Chrome/65.0.3325.181 Safari/537.36 - USERNAME : safari
SYSTEM LOG -- DATE :2018-04-14 19:27:47 - CLASS : master_anggota - FUNCTION : edit - URL : localhost:8080/kaderisasi/index.php/master/master_anggota/edit/favicon.ico - USER ID : 340 - USER IP : ::1 - USER ROLE : 1 - BROWSER : Mozilla/5.0 (Windows NT 10.0; Win64; x64) AppleWebKit/537.36 (KHTML, like Gecko) Chrome/65.0.3325.181 Safari/537.36 - USERNAME : safari
SYSTEM LOG -- DATE :2018-04-14 19:27:47 - CLASS : master_anggota - FUNCTION : index - URL : localhost:8080/kaderisasi/index.php/master/master_anggota?msg=Error%20Parse&type_msg=error - USER ID : 340 - USER IP : ::1 - USER ROLE : 1 - BROWSER : Mozilla/5.0 (Windows NT 10.0; Win64; x64) AppleWebKit/537.36 (KHTML, like Gecko) Chrome/65.0.3325.181 Safari/537.36 - USERNAME : safari
SYSTEM LOG -- DATE :2018-04-14 19:27:48 - CLASS : master_anggota - FUNCTION : save_upload - URL : localhost:8080/kaderisasi/index.php/master/master_anggota/save_upload - USER ID : 340 - USER IP : ::1 - USER ROLE : 1 - BROWSER : Mozilla/5.0 (Windows NT 10.0; Win64; x64) AppleWebKit/537.36 (KHTML, like Gecko) Chrome/65.0.3325.181 Safari/537.36 - USERNAME : safari
SYSTEM LOG -- DATE :2018-04-14 19:27:48 - CLASS : master_anggota - FUNCTION : crop - URL : localhost:8080/kaderisasi/index.php/master/master_anggota/crop/?_id=SqxJwk5WEFYPEIurm%2BtsdHYNSVUCjm32SCSX1%2FpDGintIGHKaOk2oHRBHt4UTq9zdwDflPH6gcLE0NmpeNBPIg%3D%3D - USER ID : 340 - USER IP : ::1 - USER ROLE : 1 - BROWSER : Mozilla/5.0 (Windows NT 10.0; Win64; x64) AppleWebKit/537.36 (KHTML, like Gecko) Chrome/65.0.3325.181 Safari/537.36 - USERNAME : safari
SYSTEM LOG -- DATE :2018-04-14 19:27:49 - CLASS : data - FUNCTION : kabupaten - URL : localhost:8080/kaderisasi/index.php/ajax/data/kabupaten - USER ID : 340 - USER IP : ::1 - USER ROLE : 1 - BROWSER : Mozilla/5.0 (Windows NT 10.0; Win64; x64) AppleWebKit/537.36 (KHTML, like Gecko) Chrome/65.0.3325.181 Safari/537.36 - USERNAME : safari
SYSTEM LOG -- DATE :2018-04-14 19:27:49 - CLASS : data - FUNCTION : kecamatan - URL : localhost:8080/kaderisasi/index.php/ajax/data/kecamatan - USER ID : 340 - USER IP : ::1 - USER ROLE : 1 - BROWSER : Mozilla/5.0 (Windows NT 10.0; Win64; x64) AppleWebKit/537.36 (KHTML, like Gecko) Chrome/65.0.3325.181 Safari/537.36 - USERNAME : safari
SYSTEM LOG -- DATE :2018-04-14 19:27:49 - CLASS : data - FUNCTION : kelurahan - URL : localhost:8080/kaderisasi/index.php/ajax/data/kelurahan - USER ID : 340 - USER IP : ::1 - USER ROLE : 1 - BROWSER : Mozilla/5.0 (Windows NT 10.0; Win64; x64) AppleWebKit/537.36 (KHTML, like Gecko) Chrome/65.0.3325.181 Safari/537.36 - USERNAME : safari
SYSTEM LOG -- DATE :2018-04-14 19:27:49 - CLASS : master_anggota - FUNCTION : crop - URL : localhost:8080/kaderisasi/index.php/master/master_anggota/crop/favicon.ico - USER ID : 340 - USER IP : ::1 - USER ROLE : 1 - BROWSER : Mozilla/5.0 (Windows NT 10.0; Win64; x64) AppleWebKit/537.36 (KHTML, like Gecko) Chrome/65.0.3325.181 Safari/537.36 - USERNAME : safari
SYSTEM LOG -- DATE :2018-04-14 19:27:49 - CLASS : master_anggota - FUNCTION : index - URL : localhost:8080/kaderisasi/index.php/master/master_anggota?msg=Error%20Parse&type_msg=error - USER ID : 340 - USER IP : ::1 - USER ROLE : 1 - BROWSER : Mozilla/5.0 (Windows NT 10.0; Win64; x64) AppleWebKit/537.36 (KHTML, like Gecko) Chrome/65.0.3325.181 Safari/537.36 - USERNAME : safari
SYSTEM LOG -- DATE :2018-04-14 19:27:56 - CLASS : master_anggota - FUNCTION : save_crop - URL : localhost:8080/kaderisasi/index.php/master/master_anggota/save_crop - USER ID : 340 - USER IP : ::1 - USER ROLE : 1 - BROWSER : Mozilla/5.0 (Windows NT 10.0; Win64; x64) AppleWebKit/537.36 (KHTML, like Gecko) Chrome/65.0.3325.181 Safari/537.36 - USERNAME : safari
SYSTEM LOG -- DATE :2018-04-14 19:27:57 - CLASS : data - FUNCTION : kabupaten - URL : localhost:8080/kaderisasi/index.php/ajax/data/kabupaten - USER ID : 340 - USER IP : ::1 - USER ROLE : 1 - BROWSER : Mozilla/5.0 (Windows NT 10.0; Win64; x64) AppleWebKit/537.36 (KHTML, like Gecko) Chrome/65.0.3325.181 Safari/537.36 - USERNAME : safari
SYSTEM LOG -- DATE :2018-04-14 19:27:57 - CLASS : data - FUNCTION : kecamatan - URL : localhost:8080/kaderisasi/index.php/ajax/data/kecamatan - USER ID : 340 - USER IP : ::1 - USER ROLE : 1 - BROWSER : Mozilla/5.0 (Windows NT 10.0; Win64; x64) AppleWebKit/537.36 (KHTML, like Gecko) Chrome/65.0.3325.181 Safari/537.36 - USERNAME : safari
SYSTEM LOG -- DATE :2018-04-14 19:27:57 - CLASS : data - FUNCTION : kelurahan - URL : localhost:8080/kaderisasi/index.php/ajax/data/kelurahan - USER ID : 340 - USER IP : ::1 - USER ROLE : 1 - BROWSER : Mozilla/5.0 (Windows NT 10.0; Win64; x64) AppleWebKit/537.36 (KHTML, like Gecko) Chrome/65.0.3325.181 Safari/537.36 - USERNAME : safari
SYSTEM LOG -- DATE :2018-04-14 19:27:57 - CLASS : data - FUNCTION : kabupaten - URL : localhost:8080/kaderisasi/index.php/ajax/data/kabupaten - USER ID : 340 - USER IP : ::1 - USER ROLE : 1 - BROWSER : Mozilla/5.0 (Windows NT 10.0; Win64; x64) AppleWebKit/537.36 (KHTML, like Gecko) Chrome/65.0.3325.181 Safari/537.36 - USERNAME : safari
SYSTEM LOG -- DATE :2018-04-14 19:27:57 - CLASS : data - FUNCTION : kecamatan - URL : localhost:8080/kaderisasi/index.php/ajax/data/kecamatan - USER ID : 340 - USER IP : ::1 - USER ROLE : 1 - BROWSER : Mozilla/5.0 (Windows NT 10.0; Win64; x64) AppleWebKit/537.36 (KHTML, like Gecko) Chrome/65.0.3325.181 Safari/537.36 - USERNAME : safari
SYSTEM LOG -- DATE :2018-04-14 19:27:57 - CLASS : data - FUNCTION : kabupaten - URL : localhost:8080/kaderisasi/index.php/ajax/data/kabupaten - USER ID : 340 - USER IP : ::1 - USER ROLE : 1 - BROWSER : Mozilla/5.0 (Windows NT 10.0; Win64; x64) AppleWebKit/537.36 (KHTML, like Gecko) Chrome/65.0.3325.181 Safari/537.36 - USERNAME : safari
SYSTEM LOG -- DATE :2018-04-14 19:27:57 - CLASS : data - FUNCTION : kecamatan - URL : localhost:8080/kaderisasi/index.php/ajax/data/kecamatan - USER ID : 340 - USER IP : ::1 - USER ROLE : 1 - BROWSER : Mozilla/5.0 (Windows NT 10.0; Win64; x64) AppleWebKit/537.36 (KHTML, like Gecko) Chrome/65.0.3325.181 Safari/537.36 - USERNAME : safari
SYSTEM LOG -- DATE :2018-04-14 19:28:24 - CLASS : data - FUNCTION : kabupaten - URL : localhost:8080/kaderisasi/index.php/ajax/data/kabupaten - USER ID : 340 - USER IP : ::1 - USER ROLE : 1 - BROWSER : Mozilla/5.0 (Windows NT 10.0; Win64; x64) AppleWebKit/537.36 (KHTML, like Gecko) Chrome/65.0.3325.181 Safari/537.36 - USERNAME : safari
SYSTEM LOG -- DATE :2018-04-14 19:28:25 - CLASS : data - FUNCTION : kecamatan - URL : localhost:8080/kaderisasi/index.php/ajax/data/kecamatan - USER ID : 340 - USER IP : ::1 - USER ROLE : 1 - BROWSER : Mozilla/5.0 (Windows NT 10.0; Win64; x64) AppleWebKit/537.36 (KHTML, like Gecko) Chrome/65.0.3325.181 Safari/537.36 - USERNAME : safari
SYSTEM LOG -- DATE :2018-04-14 19:28:28 - CLASS : master_anggota - FUNCTION : save - URL : localhost:8080/kaderisasi/index.php/master/master_anggota/save - USER ID : 340 - USER IP : ::1 - USER ROLE : 1 - BROWSER : Mozilla/5.0 (Windows NT 10.0; Win64; x64) AppleWebKit/537.36 (KHTML, like Gecko) Chrome/65.0.3325.181 Safari/537.36 - USERNAME : safari
SYSTEM LOG -- DATE :2018-04-14 19:28:28 - CLASS : master_anggota - FUNCTION : index - URL : localhost:8080/kaderisasi/index.php/master/master_anggota?msg=Input%20Anggota%20Berhasil&type_msg=success - USER ID : 340 - USER IP : ::1 - USER ROLE : 1 - BROWSER : Mozilla/5.0 (Windows NT 10.0; Win64; x64) AppleWebKit/537.36 (KHTML, like Gecko) Chrome/65.0.3325.181 Safari/537.36 - USERNAME : safari
