SYSTEM LOG -- DATE :2018-12-20 17:21:49 - CLASS : me - FUNCTION : index - URL : localhost:8080/cv-atp/index.php/meme/me - USER ID : 340 - USER IP : ::1 - USER ROLE : 1 - BROWSER : Mozilla/5.0 (Windows NT 10.0; Win64; x64) AppleWebKit/537.36 (KHTML, like Gecko) Chrome/71.0.3578.98 Safari/537.36 - USERNAME : safari
SYSTEM LOG -- DATE :2018-12-20 17:21:54 - CLASS : armada - FUNCTION : index - URL : localhost:8080/cv-atp/index.php/master/armada - USER ID : 340 - USER IP : ::1 - USER ROLE : 1 - BROWSER : Mozilla/5.0 (Windows NT 10.0; Win64; x64) AppleWebKit/537.36 (KHTML, like Gecko) Chrome/71.0.3578.98 Safari/537.36 - USERNAME : safari
SYSTEM LOG -- DATE :2018-12-20 17:21:55 - CLASS : armada - FUNCTION : ajax_list - URL : localhost:8080/cv-atp/index.php/master/armada/ajax_list - USER ID : 340 - USER IP : ::1 - USER ROLE : 1 - BROWSER : Mozilla/5.0 (Windows NT 10.0; Win64; x64) AppleWebKit/537.36 (KHTML, like Gecko) Chrome/71.0.3578.98 Safari/537.36 - USERNAME : safari
SYSTEM LOG -- DATE :2018-12-20 17:22:34 - CLASS : armada - FUNCTION : index - URL : localhost:8080/cv-atp/index.php/master/armada - USER ID : 340 - USER IP : ::1 - USER ROLE : 1 - BROWSER : Mozilla/5.0 (Windows NT 10.0; Win64; x64) AppleWebKit/537.36 (KHTML, like Gecko) Chrome/71.0.3578.98 Safari/537.36 - USERNAME : safari
SYSTEM LOG -- DATE :2018-12-20 17:22:34 - CLASS : armada - FUNCTION : ajax_list - URL : localhost:8080/cv-atp/index.php/master/armada/ajax_list - USER ID : 340 - USER IP : ::1 - USER ROLE : 1 - BROWSER : Mozilla/5.0 (Windows NT 10.0; Win64; x64) AppleWebKit/537.36 (KHTML, like Gecko) Chrome/71.0.3578.98 Safari/537.36 - USERNAME : safari
SYSTEM LOG -- DATE :2018-12-20 17:22:36 - CLASS : armada - FUNCTION : index - URL : localhost:8080/cv-atp/index.php/master/armada - USER ID : 340 - USER IP : ::1 - USER ROLE : 1 - BROWSER : Mozilla/5.0 (Windows NT 10.0; Win64; x64) AppleWebKit/537.36 (KHTML, like Gecko) Chrome/71.0.3578.98 Safari/537.36 - USERNAME : safari
SYSTEM LOG -- DATE :2018-12-20 17:22:37 - CLASS : armada - FUNCTION : ajax_list - URL : localhost:8080/cv-atp/index.php/master/armada/ajax_list - USER ID : 340 - USER IP : ::1 - USER ROLE : 1 - BROWSER : Mozilla/5.0 (Windows NT 10.0; Win64; x64) AppleWebKit/537.36 (KHTML, like Gecko) Chrome/71.0.3578.98 Safari/537.36 - USERNAME : safari
SYSTEM LOG -- DATE :2018-12-20 17:22:38 - CLASS : armada - FUNCTION : add - URL : localhost:8080/cv-atp/index.php/master/armada/add - USER ID : 340 - USER IP : ::1 - USER ROLE : 1 - BROWSER : Mozilla/5.0 (Windows NT 10.0; Win64; x64) AppleWebKit/537.36 (KHTML, like Gecko) Chrome/71.0.3578.98 Safari/537.36 - USERNAME : safari
SYSTEM LOG -- DATE :2018-12-20 18:02:06 - CLASS : armada - FUNCTION : index - URL : localhost:8080/cv-atp/index.php/master/armada/index - USER ID : 340 - USER IP : ::1 - USER ROLE : 1 - BROWSER : Mozilla/5.0 (Windows NT 10.0; Win64; x64) AppleWebKit/537.36 (KHTML, like Gecko) Chrome/71.0.3578.98 Safari/537.36 - USERNAME : safari
SYSTEM LOG -- DATE :2018-12-20 18:02:06 - CLASS : armada - FUNCTION : ajax_list - URL : localhost:8080/cv-atp/index.php/master/armada/ajax_list - USER ID : 340 - USER IP : ::1 - USER ROLE : 1 - BROWSER : Mozilla/5.0 (Windows NT 10.0; Win64; x64) AppleWebKit/537.36 (KHTML, like Gecko) Chrome/71.0.3578.98 Safari/537.36 - USERNAME : safari
SYSTEM LOG -- DATE :2018-12-20 18:02:10 - CLASS : armada - FUNCTION : edit - URL : localhost:8080/cv-atp/index.php/master/armada/edit/?_id=TytUgcfB%2BNFAOvSXiGe8RuIvoj5za7Tt%2F5Fwj%2F7R6RXte2nTt4s7E9TvZqnIVQm77Yfz16Ooh6xFXn08ntx%2BKQ%3D%3D - USER ID : 340 - USER IP : ::1 - USER ROLE : 1 - BROWSER : Mozilla/5.0 (Windows NT 10.0; Win64; x64) AppleWebKit/537.36 (KHTML, like Gecko) Chrome/71.0.3578.98 Safari/537.36 - USERNAME : safari
SYSTEM LOG -- DATE :2018-12-20 18:11:36 - CLASS : armada - FUNCTION : add - URL : localhost:8080/cv-atp/index.php/master/armada/add - USER ID : 340 - USER IP : ::1 - USER ROLE : 1 - BROWSER : Mozilla/5.0 (Windows NT 10.0; Win64; x64) AppleWebKit/537.36 (KHTML, like Gecko) Chrome/71.0.3578.98 Safari/537.36 - USERNAME : safari
SYSTEM LOG -- DATE :2018-12-20 18:12:05 - CLASS : armada - FUNCTION : index - URL : localhost:8080/cv-atp/index.php/master/armada/index - USER ID : 340 - USER IP : ::1 - USER ROLE : 1 - BROWSER : Mozilla/5.0 (Windows NT 10.0; Win64; x64) AppleWebKit/537.36 (KHTML, like Gecko) Chrome/71.0.3578.98 Safari/537.36 - USERNAME : safari
SYSTEM LOG -- DATE :2018-12-20 18:12:06 - CLASS : armada - FUNCTION : ajax_list - URL : localhost:8080/cv-atp/index.php/master/armada/ajax_list - USER ID : 340 - USER IP : ::1 - USER ROLE : 1 - BROWSER : Mozilla/5.0 (Windows NT 10.0; Win64; x64) AppleWebKit/537.36 (KHTML, like Gecko) Chrome/71.0.3578.98 Safari/537.36 - USERNAME : safari
SYSTEM LOG -- DATE :2018-12-20 18:13:22 - CLASS : armada - FUNCTION : index - URL : localhost:8080/cv-atp/index.php/master/armada/index - USER ID : 340 - USER IP : ::1 - USER ROLE : 1 - BROWSER : Mozilla/5.0 (Windows NT 10.0; Win64; x64) AppleWebKit/537.36 (KHTML, like Gecko) Chrome/71.0.3578.98 Safari/537.36 - USERNAME : safari
SYSTEM LOG -- DATE :2018-12-20 18:13:23 - CLASS : armada - FUNCTION : ajax_list - URL : localhost:8080/cv-atp/index.php/master/armada/ajax_list - USER ID : 340 - USER IP : ::1 - USER ROLE : 1 - BROWSER : Mozilla/5.0 (Windows NT 10.0; Win64; x64) AppleWebKit/537.36 (KHTML, like Gecko) Chrome/71.0.3578.98 Safari/537.36 - USERNAME : safari
SYSTEM LOG -- DATE :2018-12-20 18:13:25 - CLASS : armada - FUNCTION : add - URL : localhost:8080/cv-atp/index.php/master/armada/add - USER ID : 340 - USER IP : ::1 - USER ROLE : 1 - BROWSER : Mozilla/5.0 (Windows NT 10.0; Win64; x64) AppleWebKit/537.36 (KHTML, like Gecko) Chrome/71.0.3578.98 Safari/537.36 - USERNAME : safari
SYSTEM LOG -- DATE :2018-12-20 18:13:48 - CLASS : armada - FUNCTION : save - URL : localhost:8080/cv-atp/index.php/master/armada/save - USER ID : 340 - USER IP : ::1 - USER ROLE : 1 - BROWSER : Mozilla/5.0 (Windows NT 10.0; Win64; x64) AppleWebKit/537.36 (KHTML, like Gecko) Chrome/71.0.3578.98 Safari/537.36 - USERNAME : safari
SYSTEM LOG -- DATE :2018-12-20 18:13:48 - CLASS : armada - FUNCTION : index - URL : localhost:8080/cv-atp/index.php/master/armada?msg=Success&type_msg=success - USER ID : 340 - USER IP : ::1 - USER ROLE : 1 - BROWSER : Mozilla/5.0 (Windows NT 10.0; Win64; x64) AppleWebKit/537.36 (KHTML, like Gecko) Chrome/71.0.3578.98 Safari/537.36 - USERNAME : safari
SYSTEM LOG -- DATE :2018-12-20 18:13:48 - CLASS : armada - FUNCTION : ajax_list - URL : localhost:8080/cv-atp/index.php/master/armada/ajax_list - USER ID : 340 - USER IP : ::1 - USER ROLE : 1 - BROWSER : Mozilla/5.0 (Windows NT 10.0; Win64; x64) AppleWebKit/537.36 (KHTML, like Gecko) Chrome/71.0.3578.98 Safari/537.36 - USERNAME : safari
SYSTEM LOG -- DATE :2018-12-20 18:14:32 - CLASS : armada - FUNCTION : edit - URL : localhost:8080/cv-atp/index.php/master/armada/edit/?_id=ctx8MQ0aQGH2N8qhOUXLpltq1hG%2BvTqOa%2FezmhSIlWdbDxAIJu5et4AijpOBu5orhEzTqMbRLondU7Fe0lG3bg%3D%3D - USER ID : 340 - USER IP : ::1 - USER ROLE : 1 - BROWSER : Mozilla/5.0 (Windows NT 10.0; Win64; x64) AppleWebKit/537.36 (KHTML, like Gecko) Chrome/71.0.3578.98 Safari/537.36 - USERNAME : safari
SYSTEM LOG -- DATE :2018-12-20 18:14:50 - CLASS : armada - FUNCTION : save - URL : localhost:8080/cv-atp/index.php/master/armada/save - USER ID : 340 - USER IP : ::1 - USER ROLE : 1 - BROWSER : Mozilla/5.0 (Windows NT 10.0; Win64; x64) AppleWebKit/537.36 (KHTML, like Gecko) Chrome/71.0.3578.98 Safari/537.36 - USERNAME : safari
SYSTEM LOG -- DATE :2018-12-20 18:14:50 - CLASS : armada - FUNCTION : index - URL : localhost:8080/cv-atp/index.php/master/armada?msg=Success&type_msg=success - USER ID : 340 - USER IP : ::1 - USER ROLE : 1 - BROWSER : Mozilla/5.0 (Windows NT 10.0; Win64; x64) AppleWebKit/537.36 (KHTML, like Gecko) Chrome/71.0.3578.98 Safari/537.36 - USERNAME : safari
SYSTEM LOG -- DATE :2018-12-20 18:14:51 - CLASS : armada - FUNCTION : ajax_list - URL : localhost:8080/cv-atp/index.php/master/armada/ajax_list - USER ID : 340 - USER IP : ::1 - USER ROLE : 1 - BROWSER : Mozilla/5.0 (Windows NT 10.0; Win64; x64) AppleWebKit/537.36 (KHTML, like Gecko) Chrome/71.0.3578.98 Safari/537.36 - USERNAME : safari
SYSTEM LOG -- DATE :2018-12-20 18:16:12 - CLASS : armada - FUNCTION : detail - URL : localhost:8080/cv-atp/index.php/master/armada/detail/?_id=xvHu00s73OnE4kTf3Bh5hrkjr6NfO9P%2BczhDOEmo8aBkvx28yM4oKLT7l9N%2FTy5weUpjfAGrTN9jfNN%2Bt%2FXVbg%3D%3D - USER ID : 340 - USER IP : ::1 - USER ROLE : 1 - BROWSER : Mozilla/5.0 (Windows NT 10.0; Win64; x64) AppleWebKit/537.36 (KHTML, like Gecko) Chrome/71.0.3578.98 Safari/537.36 - USERNAME : safari
SYSTEM LOG -- DATE :2018-12-20 18:28:33 - CLASS : me - FUNCTION : index - URL : localhost:8080/cv-atp/index.php/meme/me - USER ID : 340 - USER IP : ::1 - USER ROLE : 1 - BROWSER : Mozilla/5.0 (Windows NT 10.0; Win64; x64; rv:64.0) Gecko/20100101 Firefox/64.0 - USERNAME : safari
SYSTEM LOG -- DATE :2018-12-20 18:28:38 - CLASS : armada - FUNCTION : index - URL : localhost:8080/cv-atp/index.php/master/armada - USER ID : 340 - USER IP : ::1 - USER ROLE : 1 - BROWSER : Mozilla/5.0 (Windows NT 10.0; Win64; x64; rv:64.0) Gecko/20100101 Firefox/64.0 - USERNAME : safari
SYSTEM LOG -- DATE :2018-12-20 18:28:39 - CLASS : armada - FUNCTION : ajax_list - URL : localhost:8080/cv-atp/index.php/master/armada/ajax_list - USER ID : 340 - USER IP : ::1 - USER ROLE : 1 - BROWSER : Mozilla/5.0 (Windows NT 10.0; Win64; x64; rv:64.0) Gecko/20100101 Firefox/64.0 - USERNAME : safari
SYSTEM LOG -- DATE :2018-12-20 18:28:50 - CLASS : armada - FUNCTION : index - URL : localhost:8080/cv-atp/index.php/master/armada - USER ID : 340 - USER IP : ::1 - USER ROLE : 1 - BROWSER : Mozilla/5.0 (Windows NT 10.0; Win64; x64; rv:64.0) Gecko/20100101 Firefox/64.0 - USERNAME : safari
SYSTEM LOG -- DATE :2018-12-20 18:28:51 - CLASS : armada - FUNCTION : ajax_list - URL : localhost:8080/cv-atp/index.php/master/armada/ajax_list - USER ID : 340 - USER IP : ::1 - USER ROLE : 1 - BROWSER : Mozilla/5.0 (Windows NT 10.0; Win64; x64; rv:64.0) Gecko/20100101 Firefox/64.0 - USERNAME : safari
SYSTEM LOG -- DATE :2018-12-20 18:28:57 - CLASS : armada - FUNCTION : detail - URL : localhost:8080/cv-atp/index.php/master/armada/detail/?_id=eR99G2qhHdGdDgh1wJyR2%2FiO6sdJHAEBWB80KXondpFDJeY0ztChjPidvIdBpNPUuBvWQtZMmZWjAATTFdcqtQ%3D%3D - USER ID : 340 - USER IP : ::1 - USER ROLE : 1 - BROWSER : Mozilla/5.0 (Windows NT 10.0; Win64; x64; rv:64.0) Gecko/20100101 Firefox/64.0 - USERNAME : safari
SYSTEM LOG -- DATE :2018-12-20 18:37:36 - CLASS : armada - FUNCTION : index - URL : localhost:8080/cv-atp/index.php/master/armada/index - USER ID : 340 - USER IP : ::1 - USER ROLE : 1 - BROWSER : Mozilla/5.0 (Windows NT 10.0; Win64; x64; rv:64.0) Gecko/20100101 Firefox/64.0 - USERNAME : safari
SYSTEM LOG -- DATE :2018-12-20 18:37:37 - CLASS : armada - FUNCTION : ajax_list - URL : localhost:8080/cv-atp/index.php/master/armada/ajax_list - USER ID : 340 - USER IP : ::1 - USER ROLE : 1 - BROWSER : Mozilla/5.0 (Windows NT 10.0; Win64; x64; rv:64.0) Gecko/20100101 Firefox/64.0 - USERNAME : safari
SYSTEM LOG -- DATE :2018-12-20 18:37:41 - CLASS : armada - FUNCTION : detail - URL : localhost:8080/cv-atp/index.php/master/armada/detail/?_id=9uYyyyt5xznRVvGR0exF6JPFNkBZV%2B%2BjCLgR7ze6zrf1uWLSnSc3ZyvpslW264xdOVjbC%2BJ9tWM09TIZpKO8Yw%3D%3D - USER ID : 340 - USER IP : ::1 - USER ROLE : 1 - BROWSER : Mozilla/5.0 (Windows NT 10.0; Win64; x64; rv:64.0) Gecko/20100101 Firefox/64.0 - USERNAME : safari
SYSTEM LOG -- DATE :2018-12-20 18:37:46 - CLASS : armada - FUNCTION : index - URL : localhost:8080/cv-atp/index.php/master/armada/index - USER ID : 340 - USER IP : ::1 - USER ROLE : 1 - BROWSER : Mozilla/5.0 (Windows NT 10.0; Win64; x64; rv:64.0) Gecko/20100101 Firefox/64.0 - USERNAME : safari
SYSTEM LOG -- DATE :2018-12-20 18:37:46 - CLASS : armada - FUNCTION : ajax_list - URL : localhost:8080/cv-atp/index.php/master/armada/ajax_list - USER ID : 340 - USER IP : ::1 - USER ROLE : 1 - BROWSER : Mozilla/5.0 (Windows NT 10.0; Win64; x64; rv:64.0) Gecko/20100101 Firefox/64.0 - USERNAME : safari
SYSTEM LOG -- DATE :2018-12-20 18:37:51 - CLASS : armada - FUNCTION : edit - URL : localhost:8080/cv-atp/index.php/master/armada/edit/?_id=hLKw3s%2FTQsfzEEaePrurVHM4Sc424Kn1zKrLhy1IQ%2FaHxoKAhSUs%2B7YyYNlVXXkmYUi6vQ2jP4FPGXi1J2dtCw%3D%3D - USER ID : 340 - USER IP : ::1 - USER ROLE : 1 - BROWSER : Mozilla/5.0 (Windows NT 10.0; Win64; x64; rv:64.0) Gecko/20100101 Firefox/64.0 - USERNAME : safari
SYSTEM LOG -- DATE :2018-12-20 18:38:41 - CLASS : armada - FUNCTION : save - URL : localhost:8080/cv-atp/index.php/master/armada/save - USER ID : 340 - USER IP : ::1 - USER ROLE : 1 - BROWSER : Mozilla/5.0 (Windows NT 10.0; Win64; x64; rv:64.0) Gecko/20100101 Firefox/64.0 - USERNAME : safari
SYSTEM LOG -- DATE :2018-12-20 18:38:41 - CLASS : armada - FUNCTION : index - URL : localhost:8080/cv-atp/index.php/master/armada?msg=Success&type_msg=success - USER ID : 340 - USER IP : ::1 - USER ROLE : 1 - BROWSER : Mozilla/5.0 (Windows NT 10.0; Win64; x64; rv:64.0) Gecko/20100101 Firefox/64.0 - USERNAME : safari
SYSTEM LOG -- DATE :2018-12-20 18:38:42 - CLASS : armada - FUNCTION : ajax_list - URL : localhost:8080/cv-atp/index.php/master/armada/ajax_list - USER ID : 340 - USER IP : ::1 - USER ROLE : 1 - BROWSER : Mozilla/5.0 (Windows NT 10.0; Win64; x64; rv:64.0) Gecko/20100101 Firefox/64.0 - USERNAME : safari
SYSTEM LOG -- DATE :2018-12-20 18:38:47 - CLASS : armada - FUNCTION : detail - URL : localhost:8080/cv-atp/index.php/master/armada/detail/?_id=y9f4tgN7cPhEKAeY2zSyiI4CRKv960rqcubABd%2BkPm4mxWctRSaC6gT%2BMymH%2F6ADiJQ0gRw%2BQAVF%2B3NfdMejPg%3D%3D - USER ID : 340 - USER IP : ::1 - USER ROLE : 1 - BROWSER : Mozilla/5.0 (Windows NT 10.0; Win64; x64; rv:64.0) Gecko/20100101 Firefox/64.0 - USERNAME : safari
