SYSTEM LOG -- DATE :2018-04-04 11:21:06 - CLASS : me - FUNCTION : index - URL : localhost:8080/kaderisasi/index.php/meme/me - USER ID : 340 - USER IP : ::1 - USER ROLE : 1 - BROWSER : Mozilla/5.0 (Windows NT 10.0; Win64; x64) AppleWebKit/537.36 (KHTML, like Gecko) Chrome/65.0.3325.181 Safari/537.36 - USERNAME : safari
SYSTEM LOG -- DATE :2018-04-04 11:21:21 - CLASS : master_anggota - FUNCTION : index - URL : localhost:8080/kaderisasi/index.php/master/master_anggota - USER ID : 340 - USER IP : ::1 - USER ROLE : 1 - BROWSER : Mozilla/5.0 (Windows NT 10.0; Win64; x64) AppleWebKit/537.36 (KHTML, like Gecko) Chrome/65.0.3325.181 Safari/537.36 - USERNAME : safari
SYSTEM LOG -- DATE :2018-04-04 11:22:39 - CLASS : group - FUNCTION : index - URL : localhost:8080/kaderisasi/index.php/meme/group - USER ID : 340 - USER IP : ::1 - USER ROLE : 1 - BROWSER : Mozilla/5.0 (Windows NT 10.0; Win64; x64) AppleWebKit/537.36 (KHTML, like Gecko) Chrome/65.0.3325.181 Safari/537.36 - USERNAME : safari
SYSTEM LOG -- DATE :2018-04-04 11:22:41 - CLASS : group - FUNCTION : access - URL : localhost:8080/kaderisasi/index.php/meme/group/access/?_id=am1bJ30Ku4arzX1KIGd0yYSdVEVXKIkIv2DxMZRVApHpC4a0TbwrrOor9kxaI6wqIJiAm7e0DAlc%2Fx2iUbCOLw%3D%3D - USER ID : 340 - USER IP : ::1 - USER ROLE : 1 - BROWSER : Mozilla/5.0 (Windows NT 10.0; Win64; x64) AppleWebKit/537.36 (KHTML, like Gecko) Chrome/65.0.3325.181 Safari/537.36 - USERNAME : safari
SYSTEM LOG -- DATE :2018-04-04 11:22:42 - CLASS : group - FUNCTION : index - URL : localhost:8080/kaderisasi/index.php/meme/group?msg=Error%20Parse&type_msg=error - USER ID : 340 - USER IP : ::1 - USER ROLE : 1 - BROWSER : Mozilla/5.0 (Windows NT 10.0; Win64; x64) AppleWebKit/537.36 (KHTML, like Gecko) Chrome/65.0.3325.181 Safari/537.36 - USERNAME : safari
SYSTEM LOG -- DATE :2018-04-04 11:23:03 - CLASS : group - FUNCTION : access - URL : localhost:8080/kaderisasi/index.php/meme/group/access/?_id=am1bJ30Ku4arzX1KIGd0yYSdVEVXKIkIv2DxMZRVApHpC4a0TbwrrOor9kxaI6wqIJiAm7e0DAlc%2Fx2iUbCOLw%3D%3D - USER ID : 340 - USER IP : ::1 - USER ROLE : 1 - BROWSER : Mozilla/5.0 (Windows NT 10.0; Win64; x64) AppleWebKit/537.36 (KHTML, like Gecko) Chrome/65.0.3325.181 Safari/537.36 - USERNAME : safari
SYSTEM LOG -- DATE :2018-04-04 11:23:04 - CLASS : group - FUNCTION : index - URL : localhost:8080/kaderisasi/index.php/meme/group?msg=Error%20Parse&type_msg=error - USER ID : 340 - USER IP : ::1 - USER ROLE : 1 - BROWSER : Mozilla/5.0 (Windows NT 10.0; Win64; x64) AppleWebKit/537.36 (KHTML, like Gecko) Chrome/65.0.3325.181 Safari/537.36 - USERNAME : safari
SYSTEM LOG -- DATE :2018-04-04 11:23:09 - CLASS : group - FUNCTION : access - URL : localhost:8080/kaderisasi/index.php/meme/group/access/?_id=am1bJ30Ku4arzX1KIGd0yYSdVEVXKIkIv2DxMZRVApHpC4a0TbwrrOor9kxaI6wqIJiAm7e0DAlc%2Fx2iUbCOLw%3D%3D - USER ID : 340 - USER IP : ::1 - USER ROLE : 1 - BROWSER : Mozilla/5.0 (Windows NT 10.0; Win64; x64) AppleWebKit/537.36 (KHTML, like Gecko) Chrome/65.0.3325.181 Safari/537.36 - USERNAME : safari
SYSTEM LOG -- DATE :2018-04-04 11:23:09 - CLASS : group - FUNCTION : index - URL : localhost:8080/kaderisasi/index.php/meme/group?msg=Update+for+Access+Control+List+Success&type_msg=success - USER ID : 340 - USER IP : ::1 - USER ROLE : 1 - BROWSER : Mozilla/5.0 (Windows NT 10.0; Win64; x64) AppleWebKit/537.36 (KHTML, like Gecko) Chrome/65.0.3325.181 Safari/537.36 - USERNAME : safari
SYSTEM LOG -- DATE :2018-04-04 11:24:38 - CLASS : group - FUNCTION : access - URL : localhost:8080/kaderisasi/index.php/meme/group/access/?_id=QDwsAoEeMZg0FH9SJO%2BHppiVnvSx3dGoN0Ge%2Fp%2FtF%2Bq18a5JdzSoK2A4%2F7CjlrRuipKy0ypkHzst2f9D6pARUw%3D%3D - USER ID : 340 - USER IP : ::1 - USER ROLE : 1 - BROWSER : Mozilla/5.0 (Windows NT 10.0; Win64; x64) AppleWebKit/537.36 (KHTML, like Gecko) Chrome/65.0.3325.181 Safari/537.36 - USERNAME : safari
SYSTEM LOG -- DATE :2018-04-04 11:24:39 - CLASS : group - FUNCTION : index - URL : localhost:8080/kaderisasi/index.php/meme/group?msg=Error%20Parse&type_msg=error - USER ID : 340 - USER IP : ::1 - USER ROLE : 1 - BROWSER : Mozilla/5.0 (Windows NT 10.0; Win64; x64) AppleWebKit/537.36 (KHTML, like Gecko) Chrome/65.0.3325.181 Safari/537.36 - USERNAME : safari
SYSTEM LOG -- DATE :2018-04-04 11:24:45 - CLASS : group - FUNCTION : access - URL : localhost:8080/kaderisasi/index.php/meme/group/access/?_id=QDwsAoEeMZg0FH9SJO%2BHppiVnvSx3dGoN0Ge%2Fp%2FtF%2Bq18a5JdzSoK2A4%2F7CjlrRuipKy0ypkHzst2f9D6pARUw%3D%3D - USER ID : 340 - USER IP : ::1 - USER ROLE : 1 - BROWSER : Mozilla/5.0 (Windows NT 10.0; Win64; x64) AppleWebKit/537.36 (KHTML, like Gecko) Chrome/65.0.3325.181 Safari/537.36 - USERNAME : safari
SYSTEM LOG -- DATE :2018-04-04 11:24:45 - CLASS : group - FUNCTION : index - URL : localhost:8080/kaderisasi/index.php/meme/group?msg=Update+for+Access+Control+List+Success&type_msg=success - USER ID : 340 - USER IP : ::1 - USER ROLE : 1 - BROWSER : Mozilla/5.0 (Windows NT 10.0; Win64; x64) AppleWebKit/537.36 (KHTML, like Gecko) Chrome/65.0.3325.181 Safari/537.36 - USERNAME : safari
SYSTEM LOG -- DATE :2018-04-04 11:26:29 - CLASS : tanda_terima - FUNCTION : index - URL : localhost:8080/kaderisasi/index.php/report/tanda_terima - USER ID : 340 - USER IP : ::1 - USER ROLE : 1 - BROWSER : Mozilla/5.0 (Windows NT 10.0; Win64; x64) AppleWebKit/537.36 (KHTML, like Gecko) Chrome/65.0.3325.181 Safari/537.36 - USERNAME : safari
SYSTEM LOG -- DATE :2018-04-04 11:26:33 - CLASS : cetak_idcard - FUNCTION : index - URL : localhost:8080/kaderisasi/index.php/report/cetak_idcard - USER ID : 340 - USER IP : ::1 - USER ROLE : 1 - BROWSER : Mozilla/5.0 (Windows NT 10.0; Win64; x64) AppleWebKit/537.36 (KHTML, like Gecko) Chrome/65.0.3325.181 Safari/537.36 - USERNAME : safari
SYSTEM LOG -- DATE :2018-04-04 11:45:01 - CLASS : master_anggota - FUNCTION : index - URL : localhost:8080/kaderisasi/index.php/master/master_anggota - USER ID : 340 - USER IP : ::1 - USER ROLE : 1 - BROWSER : Mozilla/5.0 (Windows NT 10.0; Win64; x64) AppleWebKit/537.36 (KHTML, like Gecko) Chrome/65.0.3325.181 Safari/537.36 - USERNAME : safari
SYSTEM LOG -- DATE :2018-04-04 11:45:08 - CLASS : master_anggota - FUNCTION : add - URL : localhost:8080/kaderisasi/index.php/master/master_anggota/add - USER ID : 340 - USER IP : ::1 - USER ROLE : 1 - BROWSER : Mozilla/5.0 (Windows NT 10.0; Win64; x64) AppleWebKit/537.36 (KHTML, like Gecko) Chrome/65.0.3325.181 Safari/537.36 - USERNAME : safari
SYSTEM LOG -- DATE :2018-04-04 11:45:08 - CLASS : master_anggota - FUNCTION : favicon.ico - URL : localhost:8080/kaderisasi/index.php/master/master_anggota/favicon.ico - USER ID : 340 - USER IP : ::1 - USER ROLE : 1 - BROWSER : Mozilla/5.0 (Windows NT 10.0; Win64; x64) AppleWebKit/537.36 (KHTML, like Gecko) Chrome/65.0.3325.181 Safari/537.36 - USERNAME : safari
SYSTEM LOG -- DATE :2018-04-04 11:45:10 - CLASS : master_anggota - FUNCTION : index - URL : localhost:8080/kaderisasi/index.php/master/master_anggota - USER ID : 340 - USER IP : ::1 - USER ROLE : 1 - BROWSER : Mozilla/5.0 (Windows NT 10.0; Win64; x64) AppleWebKit/537.36 (KHTML, like Gecko) Chrome/65.0.3325.181 Safari/537.36 - USERNAME : safari
SYSTEM LOG -- DATE :2018-04-04 11:45:16 - CLASS : master_anggota - FUNCTION : edit - URL : localhost:8080/kaderisasi/index.php/master/master_anggota/edit/?_id=oNZaRyZWtsvACvmUNcOXFc9o5bKvze7Tm28wtwh6wFK4q9i%2BvmHqNZv09cohc9BV4hi1gwx43vHigHj2Sb4gIQ%3D%3D - USER ID : 340 - USER IP : ::1 - USER ROLE : 1 - BROWSER : Mozilla/5.0 (Windows NT 10.0; Win64; x64) AppleWebKit/537.36 (KHTML, like Gecko) Chrome/65.0.3325.181 Safari/537.36 - USERNAME : safari
SYSTEM LOG -- DATE :2018-04-04 11:45:16 - CLASS : data - FUNCTION : kabupaten - URL : localhost:8080/kaderisasi/index.php/ajax/data/kabupaten - USER ID : 340 - USER IP : ::1 - USER ROLE : 1 - BROWSER : Mozilla/5.0 (Windows NT 10.0; Win64; x64) AppleWebKit/537.36 (KHTML, like Gecko) Chrome/65.0.3325.181 Safari/537.36 - USERNAME : safari
SYSTEM LOG -- DATE :2018-04-04 11:45:16 - CLASS : data - FUNCTION : kecamatan - URL : localhost:8080/kaderisasi/index.php/ajax/data/kecamatan - USER ID : 340 - USER IP : ::1 - USER ROLE : 1 - BROWSER : Mozilla/5.0 (Windows NT 10.0; Win64; x64) AppleWebKit/537.36 (KHTML, like Gecko) Chrome/65.0.3325.181 Safari/537.36 - USERNAME : safari
SYSTEM LOG -- DATE :2018-04-04 11:45:16 - CLASS : data - FUNCTION : kelurahan - URL : localhost:8080/kaderisasi/index.php/ajax/data/kelurahan - USER ID : 340 - USER IP : ::1 - USER ROLE : 1 - BROWSER : Mozilla/5.0 (Windows NT 10.0; Win64; x64) AppleWebKit/537.36 (KHTML, like Gecko) Chrome/65.0.3325.181 Safari/537.36 - USERNAME : safari
SYSTEM LOG -- DATE :2018-04-04 11:45:16 - CLASS : master_anggota - FUNCTION : edit - URL : localhost:8080/kaderisasi/index.php/master/master_anggota/edit/favicon.ico - USER ID : 340 - USER IP : ::1 - USER ROLE : 1 - BROWSER : Mozilla/5.0 (Windows NT 10.0; Win64; x64) AppleWebKit/537.36 (KHTML, like Gecko) Chrome/65.0.3325.181 Safari/537.36 - USERNAME : safari
SYSTEM LOG -- DATE :2018-04-04 11:45:16 - CLASS : master_anggota - FUNCTION : index - URL : localhost:8080/kaderisasi/index.php/master/master_anggota?msg=Error%20Parse&type_msg=error - USER ID : 340 - USER IP : ::1 - USER ROLE : 1 - BROWSER : Mozilla/5.0 (Windows NT 10.0; Win64; x64) AppleWebKit/537.36 (KHTML, like Gecko) Chrome/65.0.3325.181 Safari/537.36 - USERNAME : safari
SYSTEM LOG -- DATE :2018-04-04 11:45:18 - CLASS : master_anggota - FUNCTION : save_upload - URL : localhost:8080/kaderisasi/index.php/master/master_anggota/save_upload - USER ID : 340 - USER IP : ::1 - USER ROLE : 1 - BROWSER : Mozilla/5.0 (Windows NT 10.0; Win64; x64) AppleWebKit/537.36 (KHTML, like Gecko) Chrome/65.0.3325.181 Safari/537.36 - USERNAME : safari
SYSTEM LOG -- DATE :2018-04-04 11:45:18 - CLASS : master_anggota - FUNCTION : crop - URL : localhost:8080/kaderisasi/index.php/master/master_anggota/crop/?_id=Lh55rWk%2Bj%2FeFod0XThjWgAqLz5Pc0NO7jGFhN4xrjPheowjSgFJSJ2mhcOwIJzsU8f7jyi9XnabfKlxLJn%2FUKQ%3D%3D - USER ID : 340 - USER IP : ::1 - USER ROLE : 1 - BROWSER : Mozilla/5.0 (Windows NT 10.0; Win64; x64) AppleWebKit/537.36 (KHTML, like Gecko) Chrome/65.0.3325.181 Safari/537.36 - USERNAME : safari
SYSTEM LOG -- DATE :2018-04-04 11:45:18 - CLASS : data - FUNCTION : kabupaten - URL : localhost:8080/kaderisasi/index.php/ajax/data/kabupaten - USER ID : 340 - USER IP : ::1 - USER ROLE : 1 - BROWSER : Mozilla/5.0 (Windows NT 10.0; Win64; x64) AppleWebKit/537.36 (KHTML, like Gecko) Chrome/65.0.3325.181 Safari/537.36 - USERNAME : safari
SYSTEM LOG -- DATE :2018-04-04 11:45:18 - CLASS : data - FUNCTION : kecamatan - URL : localhost:8080/kaderisasi/index.php/ajax/data/kecamatan - USER ID : 340 - USER IP : ::1 - USER ROLE : 1 - BROWSER : Mozilla/5.0 (Windows NT 10.0; Win64; x64) AppleWebKit/537.36 (KHTML, like Gecko) Chrome/65.0.3325.181 Safari/537.36 - USERNAME : safari
SYSTEM LOG -- DATE :2018-04-04 11:45:19 - CLASS : data - FUNCTION : kelurahan - URL : localhost:8080/kaderisasi/index.php/ajax/data/kelurahan - USER ID : 340 - USER IP : ::1 - USER ROLE : 1 - BROWSER : Mozilla/5.0 (Windows NT 10.0; Win64; x64) AppleWebKit/537.36 (KHTML, like Gecko) Chrome/65.0.3325.181 Safari/537.36 - USERNAME : safari
SYSTEM LOG -- DATE :2018-04-04 11:45:19 - CLASS : master_anggota - FUNCTION : crop - URL : localhost:8080/kaderisasi/index.php/master/master_anggota/crop/favicon.ico - USER ID : 340 - USER IP : ::1 - USER ROLE : 1 - BROWSER : Mozilla/5.0 (Windows NT 10.0; Win64; x64) AppleWebKit/537.36 (KHTML, like Gecko) Chrome/65.0.3325.181 Safari/537.36 - USERNAME : safari
SYSTEM LOG -- DATE :2018-04-04 11:45:19 - CLASS : master_anggota - FUNCTION : index - URL : localhost:8080/kaderisasi/index.php/master/master_anggota?msg=Error%20Parse&type_msg=error - USER ID : 340 - USER IP : ::1 - USER ROLE : 1 - BROWSER : Mozilla/5.0 (Windows NT 10.0; Win64; x64) AppleWebKit/537.36 (KHTML, like Gecko) Chrome/65.0.3325.181 Safari/537.36 - USERNAME : safari
SYSTEM LOG -- DATE :2018-04-04 11:45:20 - CLASS : master_anggota - FUNCTION : save_crop - URL : localhost:8080/kaderisasi/index.php/master/master_anggota/save_crop - USER ID : 340 - USER IP : ::1 - USER ROLE : 1 - BROWSER : Mozilla/5.0 (Windows NT 10.0; Win64; x64) AppleWebKit/537.36 (KHTML, like Gecko) Chrome/65.0.3325.181 Safari/537.36 - USERNAME : safari
SYSTEM LOG -- DATE :2018-04-04 11:45:21 - CLASS : data - FUNCTION : kabupaten - URL : localhost:8080/kaderisasi/index.php/ajax/data/kabupaten - USER ID : 340 - USER IP : ::1 - USER ROLE : 1 - BROWSER : Mozilla/5.0 (Windows NT 10.0; Win64; x64) AppleWebKit/537.36 (KHTML, like Gecko) Chrome/65.0.3325.181 Safari/537.36 - USERNAME : safari
SYSTEM LOG -- DATE :2018-04-04 11:45:21 - CLASS : data - FUNCTION : kecamatan - URL : localhost:8080/kaderisasi/index.php/ajax/data/kecamatan - USER ID : 340 - USER IP : ::1 - USER ROLE : 1 - BROWSER : Mozilla/5.0 (Windows NT 10.0; Win64; x64) AppleWebKit/537.36 (KHTML, like Gecko) Chrome/65.0.3325.181 Safari/537.36 - USERNAME : safari
SYSTEM LOG -- DATE :2018-04-04 11:45:21 - CLASS : data - FUNCTION : kelurahan - URL : localhost:8080/kaderisasi/index.php/ajax/data/kelurahan - USER ID : 340 - USER IP : ::1 - USER ROLE : 1 - BROWSER : Mozilla/5.0 (Windows NT 10.0; Win64; x64) AppleWebKit/537.36 (KHTML, like Gecko) Chrome/65.0.3325.181 Safari/537.36 - USERNAME : safari
SYSTEM LOG -- DATE :2018-04-04 11:45:21 - CLASS : data - FUNCTION : kabupaten - URL : localhost:8080/kaderisasi/index.php/ajax/data/kabupaten - USER ID : 340 - USER IP : ::1 - USER ROLE : 1 - BROWSER : Mozilla/5.0 (Windows NT 10.0; Win64; x64) AppleWebKit/537.36 (KHTML, like Gecko) Chrome/65.0.3325.181 Safari/537.36 - USERNAME : safari
SYSTEM LOG -- DATE :2018-04-04 11:45:21 - CLASS : data - FUNCTION : kecamatan - URL : localhost:8080/kaderisasi/index.php/ajax/data/kecamatan - USER ID : 340 - USER IP : ::1 - USER ROLE : 1 - BROWSER : Mozilla/5.0 (Windows NT 10.0; Win64; x64) AppleWebKit/537.36 (KHTML, like Gecko) Chrome/65.0.3325.181 Safari/537.36 - USERNAME : safari
SYSTEM LOG -- DATE :2018-04-04 11:45:21 - CLASS : data - FUNCTION : kabupaten - URL : localhost:8080/kaderisasi/index.php/ajax/data/kabupaten - USER ID : 340 - USER IP : ::1 - USER ROLE : 1 - BROWSER : Mozilla/5.0 (Windows NT 10.0; Win64; x64) AppleWebKit/537.36 (KHTML, like Gecko) Chrome/65.0.3325.181 Safari/537.36 - USERNAME : safari
SYSTEM LOG -- DATE :2018-04-04 11:45:21 - CLASS : data - FUNCTION : kecamatan - URL : localhost:8080/kaderisasi/index.php/ajax/data/kecamatan - USER ID : 340 - USER IP : ::1 - USER ROLE : 1 - BROWSER : Mozilla/5.0 (Windows NT 10.0; Win64; x64) AppleWebKit/537.36 (KHTML, like Gecko) Chrome/65.0.3325.181 Safari/537.36 - USERNAME : safari
SYSTEM LOG -- DATE :2018-04-04 11:48:03 - CLASS : cetak_idcard - FUNCTION : index - URL : localhost:8080/kaderisasi/index.php/report/cetak_idcard - USER ID : 340 - USER IP : ::1 - USER ROLE : 1 - BROWSER : Mozilla/5.0 (Windows NT 10.0; Win64; x64) AppleWebKit/537.36 (KHTML, like Gecko) Chrome/65.0.3325.181 Safari/537.36 - USERNAME : safari
SYSTEM LOG -- DATE :2018-04-04 11:53:04 - CLASS : me - FUNCTION : index - URL : localhost:8080/kaderisasi/index.php/meme/me - USER ID : 340 - USER IP : ::1 - USER ROLE : 1 - BROWSER : Mozilla/5.0 (Windows NT 10.0; Win64; x64; rv:59.0) Gecko/20100101 Firefox/59.0 - USERNAME : safari
SYSTEM LOG -- DATE :2018-04-04 11:53:36 - CLASS : cetak_idcard - FUNCTION : index - URL : localhost:8080/kaderisasi/index.php/report/cetak_idcard - USER ID : 340 - USER IP : ::1 - USER ROLE : 1 - BROWSER : Mozilla/5.0 (Windows NT 10.0; Win64; x64; rv:59.0) Gecko/20100101 Firefox/59.0 - USERNAME : safari
SYSTEM LOG -- DATE :2018-04-04 11:57:28 - CLASS : cetak_idcard - FUNCTION : print_preview - URL : localhost:8080/kaderisasi/index.php/report/cetak_idcard/print_preview/?type=data&id=37&nama=IR.%20MUHAMAD%20FUAD&dapil=&foto=5ab0a9f73a43c3173042606730009_wajah.png&no_urut=&u=aHR0cDovL2xvY2FsaG9zdDo4MDgwL2thZGVyaXNhc2kvaW5kZXgucGhwL3JlcG9ydC9jZXRha19pZGNhcmQvdXBkYXRl - USER ID : 340 - USER IP : ::1 - USER ROLE : 1 - BROWSER : Mozilla/5.0 (Windows NT 10.0; Win64; x64; rv:59.0) Gecko/20100101 Firefox/59.0 - USERNAME : safari
SYSTEM LOG -- DATE :2018-04-04 12:04:21 - CLASS : cetak_idcard - FUNCTION : index - URL : localhost:8080/kaderisasi/index.php/report/cetak_idcard - USER ID : 340 - USER IP : ::1 - USER ROLE : 1 - BROWSER : Mozilla/5.0 (Windows NT 10.0; Win64; x64; rv:59.0) Gecko/20100101 Firefox/59.0 - USERNAME : safari
SYSTEM LOG -- DATE :2018-04-04 12:05:31 - CLASS : cetak_idcard - FUNCTION : print_preview - URL : localhost:8080/kaderisasi/index.php/report/cetak_idcard/print_preview/?type=data&id=37&nama=IR.%20MUHAMAD%20FUAD&dapil=&foto=5ab0a9f73a43c3173042606730009_wajah.png&no_urut=&u=aHR0cDovL2xvY2FsaG9zdDo4MDgwL2thZGVyaXNhc2kvaW5kZXgucGhwL3JlcG9ydC9jZXRha19pZGNhcmQvdXBkYXRl - USER ID : 340 - USER IP : ::1 - USER ROLE : 1 - BROWSER : Mozilla/5.0 (Windows NT 10.0; Win64; x64; rv:59.0) Gecko/20100101 Firefox/59.0 - USERNAME : safari
SYSTEM LOG -- DATE :2018-04-04 12:30:13 - CLASS : cetak_idcard - FUNCTION : index - URL : localhost:8080/kaderisasi/index.php/report/cetak_idcard - USER ID : 340 - USER IP : ::1 - USER ROLE : 1 - BROWSER : Mozilla/5.0 (Windows NT 10.0; Win64; x64; rv:59.0) Gecko/20100101 Firefox/59.0 - USERNAME : safari
SYSTEM LOG -- DATE :2018-04-04 12:32:40 - CLASS : cetak_idcard - FUNCTION : print_preview - URL : localhost:8080/kaderisasi/index.php/report/cetak_idcard/print_preview/?type=data&id=413&nama=CAMELLIA%20PANDUWINATA%20LUBIS&dapil=S001&foto=5ab52eaf425663174086710850009_wajah.png&no_urut=PP%20INDONESIA%20I&u=aHR0cDovL2xvY2FsaG9zdDo4MDgwL2thZGVyaXNhc2kvaW5kZXgucGhwL3JlcG9ydC9jZXRha19pZGNhcmQvdXBkYXRl - USER ID : 340 - USER IP : ::1 - USER ROLE : 1 - BROWSER : Mozilla/5.0 (Windows NT 10.0; Win64; x64; rv:59.0) Gecko/20100101 Firefox/59.0 - USERNAME : safari
SYSTEM LOG -- DATE :2018-04-04 12:33:17 - CLASS : cetak_idcard - FUNCTION : index - URL : localhost:8080/kaderisasi/index.php/report/cetak_idcard - USER ID : 340 - USER IP : ::1 - USER ROLE : 1 - BROWSER : Mozilla/5.0 (Windows NT 10.0; Win64; x64; rv:59.0) Gecko/20100101 Firefox/59.0 - USERNAME : safari
SYSTEM LOG -- DATE :2018-04-04 12:33:23 - CLASS : cetak_idcard - FUNCTION : print_preview - URL : localhost:8080/kaderisasi/index.php/report/cetak_idcard/print_preview/?type=data&id=413&nama=CAMELLIA%20PANDUWINATA%20LUBIS&dapil=PP%20INDONESIA%20I&foto=5ab52eaf425663174086710850009_wajah.png&no_urut=S001&u=aHR0cDovL2xvY2FsaG9zdDo4MDgwL2thZGVyaXNhc2kvaW5kZXgucGhwL3JlcG9ydC9jZXRha19pZGNhcmQvdXBkYXRl - USER ID : 340 - USER IP : ::1 - USER ROLE : 1 - BROWSER : Mozilla/5.0 (Windows NT 10.0; Win64; x64; rv:59.0) Gecko/20100101 Firefox/59.0 - USERNAME : safari
SYSTEM LOG -- DATE :2018-04-04 12:36:36 - CLASS : cetak_idcard - FUNCTION : index - URL : localhost:8080/kaderisasi/index.php/report/cetak_idcard - USER ID : 340 - USER IP : ::1 - USER ROLE : 1 - BROWSER : Mozilla/5.0 (Windows NT 10.0; Win64; x64; rv:59.0) Gecko/20100101 Firefox/59.0 - USERNAME : safari
SYSTEM LOG -- DATE :2018-04-04 12:36:41 - CLASS : cetak_idcard - FUNCTION : print_preview - URL : localhost:8080/kaderisasi/index.php/report/cetak_idcard/print_preview/?type=data&id=413&nama=CAMELLIA%20PANDUWINATA%20LUBIS&dapil=PP%20INDONESIA%20I&foto=5ab52eaf425663174086710850009_wajah.png&no_urut=S001&u=aHR0cDovL2xvY2FsaG9zdDo4MDgwL2thZGVyaXNhc2kvaW5kZXgucGhwL3JlcG9ydC9jZXRha19pZGNhcmQvdXBkYXRl - USER ID : 340 - USER IP : ::1 - USER ROLE : 1 - BROWSER : Mozilla/5.0 (Windows NT 10.0; Win64; x64; rv:59.0) Gecko/20100101 Firefox/59.0 - USERNAME : safari
SYSTEM LOG -- DATE :2018-04-04 12:36:43 - CLASS : cetak_idcard - FUNCTION : update - URL : localhost:8080/kaderisasi/index.php/report/cetak_idcard/update - USER ID : 340 - USER IP : ::1 - USER ROLE : 1 - BROWSER : Mozilla/5.0 (Windows NT 10.0; Win64; x64; rv:59.0) Gecko/20100101 Firefox/59.0 - USERNAME : safari
SYSTEM LOG -- DATE :2018-04-04 12:39:56 - CLASS : cetak_idcard - FUNCTION : print_preview - URL : localhost:8080/kaderisasi/index.php/report/cetak_idcard/print_preview/?type=data&id=413&nama=CAMELLIA%20PANDUWINATA%20LUBIS&dapil=PP%20INDONESIA%20I&foto=5ab52eaf425663174086710850009_wajah.png&no_urut=S001&u=aHR0cDovL2xvY2FsaG9zdDo4MDgwL2thZGVyaXNhc2kvaW5kZXgucGhwL3JlcG9ydC9jZXRha19pZGNhcmQvdXBkYXRl - USER ID : 340 - USER IP : ::1 - USER ROLE : 1 - BROWSER : Mozilla/5.0 (Windows NT 10.0; Win64; x64; rv:59.0) Gecko/20100101 Firefox/59.0 - USERNAME : safari
SYSTEM LOG -- DATE :2018-04-04 12:41:41 - CLASS : cetak_idcard - FUNCTION : index - URL : localhost:8080/kaderisasi/index.php/report/cetak_idcard - USER ID : 340 - USER IP : ::1 - USER ROLE : 1 - BROWSER : Mozilla/5.0 (Windows NT 10.0; Win64; x64; rv:59.0) Gecko/20100101 Firefox/59.0 - USERNAME : safari
SYSTEM LOG -- DATE :2018-04-04 12:53:05 - CLASS : cetak_idcard - FUNCTION : print_preview - URL : localhost:8080/kaderisasi/index.php/report/cetak_idcard/print_preview/?type=data&id=408&nama=RINI%20RAHMADHANI&dapil=&foto=5ab5295a204221471076206820062_wajah.png&no_urut=&u=aHR0cDovL2xvY2FsaG9zdDo4MDgwL2thZGVyaXNhc2kvaW5kZXgucGhwL3JlcG9ydC9jZXRha19pZGNhcmQvdXBkYXRl - USER ID : 340 - USER IP : ::1 - USER ROLE : 1 - BROWSER : Mozilla/5.0 (Windows NT 10.0; Win64; x64; rv:59.0) Gecko/20100101 Firefox/59.0 - USERNAME : safari
SYSTEM LOG -- DATE :2018-04-04 12:55:18 - CLASS : cetak_idcard - FUNCTION : index - URL : localhost:8080/kaderisasi/index.php/report/cetak_idcard - USER ID : 340 - USER IP : ::1 - USER ROLE : 1 - BROWSER : Mozilla/5.0 (Windows NT 10.0; Win64; x64; rv:59.0) Gecko/20100101 Firefox/59.0 - USERNAME : safari
SYSTEM LOG -- DATE :2018-04-04 12:57:02 - CLASS : cetak_idcard - FUNCTION : print_prisma - URL : localhost:8080/kaderisasi/index.php/report/cetak_idcard/print_prisma/?_id=P4Nf5%2F%2BftGN4babwE91JJLn3kYMqsiqTzaU0tLkgYPlM1Xw6xLBMmlfIjzTyPzsYNV7FTm44aVvT7NuJYqtIrw%3D%3D - USER ID : 340 - USER IP : ::1 - USER ROLE : 1 - BROWSER : Mozilla/5.0 (Windows NT 10.0; Win64; x64; rv:59.0) Gecko/20100101 Firefox/59.0 - USERNAME : safari
SYSTEM LOG -- DATE :2018-04-04 16:24:23 - CLASS : group - FUNCTION : index - URL : localhost:8080/kaderisasi/index.php/meme/group - USER ID : 340 - USER IP : ::1 - USER ROLE : 1 - BROWSER : Mozilla/5.0 (Windows NT 10.0; Win64; x64) AppleWebKit/537.36 (KHTML, like Gecko) Chrome/65.0.3325.181 Safari/537.36 - USERNAME : safari
SYSTEM LOG -- DATE :2018-04-04 16:53:43 - CLASS : cetak_idcard - FUNCTION : index - URL : localhost:8080/kaderisasi/index.php/report/cetak_idcard - USER ID : 340 - USER IP : ::1 - USER ROLE : 1 - BROWSER : Mozilla/5.0 (Windows NT 10.0; Win64; x64) AppleWebKit/537.36 (KHTML, like Gecko) Chrome/65.0.3325.181 Safari/537.36 - USERNAME : safari
SYSTEM LOG -- DATE :2018-04-04 18:43:47 - CLASS : cetak_idcard - FUNCTION : print_ - URL : localhost:8080/kaderisasi/index.php/report/cetak_idcard/print_/?_id=48URdbEKTICztvPjd1w50wKhM3M4G6vqnQXhOmlOqROSPDViEWOz%2BZZ5aW4AQtf80PB5mFjoImZf1WK8K0HKAg%3D%3D - USER ID : 340 - USER IP : ::1 - USER ROLE : 1 - BROWSER : Mozilla/5.0 (Windows NT 10.0; Win64; x64) AppleWebKit/537.36 (KHTML, like Gecko) Chrome/65.0.3325.181 Safari/537.36 - USERNAME : safari
SYSTEM LOG -- DATE :2018-04-04 18:44:43 - CLASS : cetak_idcard - FUNCTION : index - URL : localhost:8080/kaderisasi/index.php/report/cetak_idcard - USER ID : 340 - USER IP : ::1 - USER ROLE : 1 - BROWSER : Mozilla/5.0 (Windows NT 10.0; Win64; x64) AppleWebKit/537.36 (KHTML, like Gecko) Chrome/65.0.3325.181 Safari/537.36 - USERNAME : safari
SYSTEM LOG -- DATE :2018-04-04 18:44:50 - CLASS : cetak_idcard - FUNCTION : print_ - URL : localhost:8080/kaderisasi/index.php/report/cetak_idcard/print_/?_id=SdwAtfcFnL8BlNlwkzqMGlK8aAPA09lyBde%2Bh%2FbXihJtUp6f%2F3YLeM%2FzqN32vXII4XfmWX1vL9WHTsdoi3D4yw%3D%3D - USER ID : 340 - USER IP : ::1 - USER ROLE : 1 - BROWSER : Mozilla/5.0 (Windows NT 10.0; Win64; x64) AppleWebKit/537.36 (KHTML, like Gecko) Chrome/65.0.3325.181 Safari/537.36 - USERNAME : safari
SYSTEM LOG -- DATE :2018-04-04 18:45:48 - CLASS : cetak_idcard - FUNCTION : index - URL : localhost:8080/kaderisasi/index.php/report/cetak_idcard - USER ID : 340 - USER IP : ::1 - USER ROLE : 1 - BROWSER : Mozilla/5.0 (Windows NT 10.0; Win64; x64) AppleWebKit/537.36 (KHTML, like Gecko) Chrome/65.0.3325.181 Safari/537.36 - USERNAME : safari
SYSTEM LOG -- DATE :2018-04-04 18:45:54 - CLASS : cetak_idcard - FUNCTION : print_ - URL : localhost:8080/kaderisasi/index.php/report/cetak_idcard/print_/?_id=rfTv9T4B6%2F5Pcr%2F7rhfeYqHYnZRKjAb5bqqa04VibBKqsU2Sdh2BqZ1IDuaPb4A7LZoKSnmGjRvof166FVhfpA%3D%3D - USER ID : 340 - USER IP : ::1 - USER ROLE : 1 - BROWSER : Mozilla/5.0 (Windows NT 10.0; Win64; x64) AppleWebKit/537.36 (KHTML, like Gecko) Chrome/65.0.3325.181 Safari/537.36 - USERNAME : safari
SYSTEM LOG -- DATE :2018-04-04 18:46:08 - CLASS : cetak_idcard - FUNCTION : index - URL : localhost:8080/kaderisasi/index.php/report/cetak_idcard - USER ID : 340 - USER IP : ::1 - USER ROLE : 1 - BROWSER : Mozilla/5.0 (Windows NT 10.0; Win64; x64) AppleWebKit/537.36 (KHTML, like Gecko) Chrome/65.0.3325.181 Safari/537.36 - USERNAME : safari
SYSTEM LOG -- DATE :2018-04-04 18:46:11 - CLASS : cetak_idcard - FUNCTION : print_ - URL : localhost:8080/kaderisasi/index.php/report/cetak_idcard/print_/?_id=7tYymVJJlKKKRAEjI1etUiUprE5xU8tFjApHMq1B9ck8ynm3iTX3EcfHxS%2FXwLraSjtKrejOzVtE%2BUXNMeBU6Q%3D%3D - USER ID : 340 - USER IP : ::1 - USER ROLE : 1 - BROWSER : Mozilla/5.0 (Windows NT 10.0; Win64; x64) AppleWebKit/537.36 (KHTML, like Gecko) Chrome/65.0.3325.181 Safari/537.36 - USERNAME : safari
SYSTEM LOG -- DATE :2018-04-04 18:46:44 - CLASS : cetak_idcard - FUNCTION : index - URL : localhost:8080/kaderisasi/index.php/report/cetak_idcard - USER ID : 340 - USER IP : ::1 - USER ROLE : 1 - BROWSER : Mozilla/5.0 (Windows NT 10.0; Win64; x64) AppleWebKit/537.36 (KHTML, like Gecko) Chrome/65.0.3325.181 Safari/537.36 - USERNAME : safari
SYSTEM LOG -- DATE :2018-04-04 18:46:47 - CLASS : cetak_idcard - FUNCTION : print_ - URL : localhost:8080/kaderisasi/index.php/report/cetak_idcard/print_/?_id=cZq74nrZ5er%2F54R0D9VKMC7Mysa%2B4FPbx8ug8P79BzcHNMavrELq6MxVIhvTh17JgieUUVg7iGKjJ0rl4UQ3Jg%3D%3D - USER ID : 340 - USER IP : ::1 - USER ROLE : 1 - BROWSER : Mozilla/5.0 (Windows NT 10.0; Win64; x64) AppleWebKit/537.36 (KHTML, like Gecko) Chrome/65.0.3325.181 Safari/537.36 - USERNAME : safari
SYSTEM LOG -- DATE :2018-04-04 18:48:01 - CLASS : cetak_idcard - FUNCTION : index - URL : localhost:8080/kaderisasi/index.php/report/cetak_idcard - USER ID : 340 - USER IP : ::1 - USER ROLE : 1 - BROWSER : Mozilla/5.0 (Windows NT 10.0; Win64; x64) AppleWebKit/537.36 (KHTML, like Gecko) Chrome/65.0.3325.181 Safari/537.36 - USERNAME : safari
SYSTEM LOG -- DATE :2018-04-04 18:48:06 - CLASS : cetak_idcard - FUNCTION : print_ - URL : localhost:8080/kaderisasi/index.php/report/cetak_idcard/print_/?_id=z%2FDfFLMo8TclTLrmFMjLMuQmmiHX3lK61QWS3HNujRmtSqjyy%2F64HDn0aZiVdLsHX4Yvt4PiNn0rKGCA8Elzsg%3D%3D - USER ID : 340 - USER IP : ::1 - USER ROLE : 1 - BROWSER : Mozilla/5.0 (Windows NT 10.0; Win64; x64) AppleWebKit/537.36 (KHTML, like Gecko) Chrome/65.0.3325.181 Safari/537.36 - USERNAME : safari
SYSTEM LOG -- DATE :2018-04-04 18:48:45 - CLASS : cetak_idcard - FUNCTION : index - URL : localhost:8080/kaderisasi/index.php/report/cetak_idcard - USER ID : 340 - USER IP : ::1 - USER ROLE : 1 - BROWSER : Mozilla/5.0 (Windows NT 10.0; Win64; x64) AppleWebKit/537.36 (KHTML, like Gecko) Chrome/65.0.3325.181 Safari/537.36 - USERNAME : safari
SYSTEM LOG -- DATE :2018-04-04 18:48:48 - CLASS : cetak_idcard - FUNCTION : print_ - URL : localhost:8080/kaderisasi/index.php/report/cetak_idcard/print_/?_id=4fyGwhygHK1ghSG6F5ynfSftonpUb785ArkbGUcbay3JHAm%2BCr6hn3GOlkAdE%2BPq95Ukfj8UP74ieA2Wq6DwXQ%3D%3D - USER ID : 340 - USER IP : ::1 - USER ROLE : 1 - BROWSER : Mozilla/5.0 (Windows NT 10.0; Win64; x64) AppleWebKit/537.36 (KHTML, like Gecko) Chrome/65.0.3325.181 Safari/537.36 - USERNAME : safari
SYSTEM LOG -- DATE :2018-04-04 18:49:23 - CLASS : cetak_idcard - FUNCTION : index - URL : localhost:8080/kaderisasi/index.php/report/cetak_idcard - USER ID : 340 - USER IP : ::1 - USER ROLE : 1 - BROWSER : Mozilla/5.0 (Windows NT 10.0; Win64; x64) AppleWebKit/537.36 (KHTML, like Gecko) Chrome/65.0.3325.181 Safari/537.36 - USERNAME : safari
SYSTEM LOG -- DATE :2018-04-04 18:49:29 - CLASS : cetak_idcard - FUNCTION : print_ - URL : localhost:8080/kaderisasi/index.php/report/cetak_idcard/print_/?_id=q2UdvmYjWow4c5dLjkbjkk6iNuE5fjrDtnMMl9vQZG9G%2B5qt5orhxYl9lxg01MCBaAs043ox7bOwfbPMOgqg7g%3D%3D - USER ID : 340 - USER IP : ::1 - USER ROLE : 1 - BROWSER : Mozilla/5.0 (Windows NT 10.0; Win64; x64) AppleWebKit/537.36 (KHTML, like Gecko) Chrome/65.0.3325.181 Safari/537.36 - USERNAME : safari
SYSTEM LOG -- DATE :2018-04-04 18:51:55 - CLASS : cetak_idcard - FUNCTION : index - URL : localhost:8080/kaderisasi/index.php/report/cetak_idcard - USER ID : 340 - USER IP : ::1 - USER ROLE : 1 - BROWSER : Mozilla/5.0 (Windows NT 10.0; Win64; x64) AppleWebKit/537.36 (KHTML, like Gecko) Chrome/65.0.3325.181 Safari/537.36 - USERNAME : safari
SYSTEM LOG -- DATE :2018-04-04 18:51:59 - CLASS : cetak_idcard - FUNCTION : print_ - URL : localhost:8080/kaderisasi/index.php/report/cetak_idcard/print_/?_id=IGxVb7jPho8i8BDuDABHYJxFYKfT90aMWe1Xr4O4iGKuzLi8CeqRI46vmM%2B0P1z4VnwpxcbTi0wDDAe212reZA%3D%3D - USER ID : 340 - USER IP : ::1 - USER ROLE : 1 - BROWSER : Mozilla/5.0 (Windows NT 10.0; Win64; x64) AppleWebKit/537.36 (KHTML, like Gecko) Chrome/65.0.3325.181 Safari/537.36 - USERNAME : safari
SYSTEM LOG -- DATE :2018-04-04 18:52:22 - CLASS : cetak_idcard - FUNCTION : index - URL : localhost:8080/kaderisasi/index.php/report/cetak_idcard - USER ID : 340 - USER IP : ::1 - USER ROLE : 1 - BROWSER : Mozilla/5.0 (Windows NT 10.0; Win64; x64) AppleWebKit/537.36 (KHTML, like Gecko) Chrome/65.0.3325.181 Safari/537.36 - USERNAME : safari
SYSTEM LOG -- DATE :2018-04-04 18:52:27 - CLASS : cetak_idcard - FUNCTION : print_ - URL : localhost:8080/kaderisasi/index.php/report/cetak_idcard/print_/?_id=JhHEPme1etCs0OtKg%2FRN4vHIsbjZ4uT3wnslnuCCSV4OingNuOl39VMbOeeC2%2F2KPrvDtMdbEPwWZepYAY14bQ%3D%3D - USER ID : 340 - USER IP : ::1 - USER ROLE : 1 - BROWSER : Mozilla/5.0 (Windows NT 10.0; Win64; x64) AppleWebKit/537.36 (KHTML, like Gecko) Chrome/65.0.3325.181 Safari/537.36 - USERNAME : safari
SYSTEM LOG -- DATE :2018-04-04 18:52:53 - CLASS : cetak_idcard - FUNCTION : index - URL : localhost:8080/kaderisasi/index.php/report/cetak_idcard - USER ID : 340 - USER IP : ::1 - USER ROLE : 1 - BROWSER : Mozilla/5.0 (Windows NT 10.0; Win64; x64) AppleWebKit/537.36 (KHTML, like Gecko) Chrome/65.0.3325.181 Safari/537.36 - USERNAME : safari
SYSTEM LOG -- DATE :2018-04-04 18:52:58 - CLASS : cetak_idcard - FUNCTION : print_ - URL : localhost:8080/kaderisasi/index.php/report/cetak_idcard/print_/?_id=UAg56KYUY17nVkHJQH6if1ZUPcKrjn3caIVB7F5J%2FMM%2BGLoPCTRD1hx5SkIKps7HzpK8NMQtd10UtzDH%2Bz2RLg%3D%3D - USER ID : 340 - USER IP : ::1 - USER ROLE : 1 - BROWSER : Mozilla/5.0 (Windows NT 10.0; Win64; x64) AppleWebKit/537.36 (KHTML, like Gecko) Chrome/65.0.3325.181 Safari/537.36 - USERNAME : safari
SYSTEM LOG -- DATE :2018-04-04 18:53:34 - CLASS : cetak_idcard - FUNCTION : index - URL : localhost:8080/kaderisasi/index.php/report/cetak_idcard - USER ID : 340 - USER IP : ::1 - USER ROLE : 1 - BROWSER : Mozilla/5.0 (Windows NT 10.0; Win64; x64) AppleWebKit/537.36 (KHTML, like Gecko) Chrome/65.0.3325.181 Safari/537.36 - USERNAME : safari
SYSTEM LOG -- DATE :2018-04-04 18:53:40 - CLASS : cetak_idcard - FUNCTION : print_ - URL : localhost:8080/kaderisasi/index.php/report/cetak_idcard/print_/?_id=PsLYvX8RmYdw6i58%2FL0urooRCiJcX%2FHhWLx%2FyRP6527AlJqj75ybAEwaTQt2fDL5DrKzphSrltOzo3xFdJQ48Q%3D%3D - USER ID : 340 - USER IP : ::1 - USER ROLE : 1 - BROWSER : Mozilla/5.0 (Windows NT 10.0; Win64; x64) AppleWebKit/537.36 (KHTML, like Gecko) Chrome/65.0.3325.181 Safari/537.36 - USERNAME : safari
SYSTEM LOG -- DATE :2018-04-04 18:54:06 - CLASS : cetak_idcard - FUNCTION : index - URL : localhost:8080/kaderisasi/index.php/report/cetak_idcard - USER ID : 340 - USER IP : ::1 - USER ROLE : 1 - BROWSER : Mozilla/5.0 (Windows NT 10.0; Win64; x64) AppleWebKit/537.36 (KHTML, like Gecko) Chrome/65.0.3325.181 Safari/537.36 - USERNAME : safari
SYSTEM LOG -- DATE :2018-04-04 18:54:13 - CLASS : cetak_idcard - FUNCTION : print_ - URL : localhost:8080/kaderisasi/index.php/report/cetak_idcard/print_/?_id=iwtVQE%2FqeV9bFPwa%2FtzTZvym0SX4y4NBOUPmeLO8jj2uAYCFfEGCvWlMHo9SXhN0ptDwqgGHJ250b4u%2F4Cu%2F4A%3D%3D - USER ID : 340 - USER IP : ::1 - USER ROLE : 1 - BROWSER : Mozilla/5.0 (Windows NT 10.0; Win64; x64) AppleWebKit/537.36 (KHTML, like Gecko) Chrome/65.0.3325.181 Safari/537.36 - USERNAME : safari
SYSTEM LOG -- DATE :2018-04-04 18:54:46 - CLASS : cetak_idcard - FUNCTION : index - URL : localhost:8080/kaderisasi/index.php/report/cetak_idcard - USER ID : 340 - USER IP : ::1 - USER ROLE : 1 - BROWSER : Mozilla/5.0 (Windows NT 10.0; Win64; x64) AppleWebKit/537.36 (KHTML, like Gecko) Chrome/65.0.3325.181 Safari/537.36 - USERNAME : safari
SYSTEM LOG -- DATE :2018-04-04 18:54:49 - CLASS : cetak_idcard - FUNCTION : print_ - URL : localhost:8080/kaderisasi/index.php/report/cetak_idcard/print_/?_id=DdDeind7y6jRuIBr6VtwRgVI75xHWQrXdQNANgR5oaq7bOxtti4I5Xdi7%2BvNNjhXRNbWa%2Fibj9AtRWBB6TLZvA%3D%3D - USER ID : 340 - USER IP : ::1 - USER ROLE : 1 - BROWSER : Mozilla/5.0 (Windows NT 10.0; Win64; x64) AppleWebKit/537.36 (KHTML, like Gecko) Chrome/65.0.3325.181 Safari/537.36 - USERNAME : safari
SYSTEM LOG -- DATE :2018-04-04 18:55:08 - CLASS : cetak_idcard - FUNCTION : index - URL : localhost:8080/kaderisasi/index.php/report/cetak_idcard - USER ID : 340 - USER IP : ::1 - USER ROLE : 1 - BROWSER : Mozilla/5.0 (Windows NT 10.0; Win64; x64) AppleWebKit/537.36 (KHTML, like Gecko) Chrome/65.0.3325.181 Safari/537.36 - USERNAME : safari
SYSTEM LOG -- DATE :2018-04-04 18:55:14 - CLASS : cetak_idcard - FUNCTION : print_ - URL : localhost:8080/kaderisasi/index.php/report/cetak_idcard/print_/?_id=y9E8pwRt0lP4TWqG1CTWkj65zL22wrdOZZh2ZR9LfdJPxbfC7i558Hs5n8STlM1Srok8boVwyc%2BBpPqibFBxbA%3D%3D - USER ID : 340 - USER IP : ::1 - USER ROLE : 1 - BROWSER : Mozilla/5.0 (Windows NT 10.0; Win64; x64) AppleWebKit/537.36 (KHTML, like Gecko) Chrome/65.0.3325.181 Safari/537.36 - USERNAME : safari
SYSTEM LOG -- DATE :2018-04-04 18:55:48 - CLASS : cetak_idcard - FUNCTION : index - URL : localhost:8080/kaderisasi/index.php/report/cetak_idcard - USER ID : 340 - USER IP : ::1 - USER ROLE : 1 - BROWSER : Mozilla/5.0 (Windows NT 10.0; Win64; x64) AppleWebKit/537.36 (KHTML, like Gecko) Chrome/65.0.3325.181 Safari/537.36 - USERNAME : safari
SYSTEM LOG -- DATE :2018-04-04 18:55:55 - CLASS : cetak_idcard - FUNCTION : print_ - URL : localhost:8080/kaderisasi/index.php/report/cetak_idcard/print_/?_id=ljnUo07wEDHRPN8XTM4Sp2RuYCSb0jHZGVNo4rP%2FdRNkQlb4xjRbzAYkimoguA8EJhmm91do5fekph13nu2vyQ%3D%3D - USER ID : 340 - USER IP : ::1 - USER ROLE : 1 - BROWSER : Mozilla/5.0 (Windows NT 10.0; Win64; x64) AppleWebKit/537.36 (KHTML, like Gecko) Chrome/65.0.3325.181 Safari/537.36 - USERNAME : safari
SYSTEM LOG -- DATE :2018-04-04 18:56:30 - CLASS : cetak_idcard - FUNCTION : index - URL : localhost:8080/kaderisasi/index.php/report/cetak_idcard - USER ID : 340 - USER IP : ::1 - USER ROLE : 1 - BROWSER : Mozilla/5.0 (Windows NT 10.0; Win64; x64) AppleWebKit/537.36 (KHTML, like Gecko) Chrome/65.0.3325.181 Safari/537.36 - USERNAME : safari
SYSTEM LOG -- DATE :2018-04-04 18:56:36 - CLASS : cetak_idcard - FUNCTION : print_ - URL : localhost:8080/kaderisasi/index.php/report/cetak_idcard/print_/?_id=hPRzeCbtRVxZz87KCAyf1pgqLYVMoqbdCYmlwGexYb6Q9oOIg8OdR1cZ0A5Jic2t1XPlXz3OMeeNCrAvGDRLiw%3D%3D - USER ID : 340 - USER IP : ::1 - USER ROLE : 1 - BROWSER : Mozilla/5.0 (Windows NT 10.0; Win64; x64) AppleWebKit/537.36 (KHTML, like Gecko) Chrome/65.0.3325.181 Safari/537.36 - USERNAME : safari
SYSTEM LOG -- DATE :2018-04-04 18:56:56 - CLASS : cetak_idcard - FUNCTION : index - URL : localhost:8080/kaderisasi/index.php/report/cetak_idcard - USER ID : 340 - USER IP : ::1 - USER ROLE : 1 - BROWSER : Mozilla/5.0 (Windows NT 10.0; Win64; x64) AppleWebKit/537.36 (KHTML, like Gecko) Chrome/65.0.3325.181 Safari/537.36 - USERNAME : safari
SYSTEM LOG -- DATE :2018-04-04 18:57:03 - CLASS : cetak_idcard - FUNCTION : print_ - URL : localhost:8080/kaderisasi/index.php/report/cetak_idcard/print_/?_id=VB7Vgn0bxyxZN%2FR2lqGtMFigJyKgbE8RGNyDnxOBtRtx7yYeqR%2BrQI2eAh3kUAa3ve1OwZ9iBQlwcDfrCasLVQ%3D%3D - USER ID : 340 - USER IP : ::1 - USER ROLE : 1 - BROWSER : Mozilla/5.0 (Windows NT 10.0; Win64; x64) AppleWebKit/537.36 (KHTML, like Gecko) Chrome/65.0.3325.181 Safari/537.36 - USERNAME : safari
SYSTEM LOG -- DATE :2018-04-04 19:01:18 - CLASS : cetak_idcard - FUNCTION : index - URL : localhost:8080/kaderisasi/index.php/report/cetak_idcard - USER ID : 340 - USER IP : ::1 - USER ROLE : 1 - BROWSER : Mozilla/5.0 (Windows NT 10.0; Win64; x64) AppleWebKit/537.36 (KHTML, like Gecko) Chrome/65.0.3325.181 Safari/537.36 - USERNAME : safari
SYSTEM LOG -- DATE :2018-04-04 19:01:27 - CLASS : cetak_idcard - FUNCTION : print_ - URL : localhost:8080/kaderisasi/index.php/report/cetak_idcard/print_/?_id=3vJd%2FYDcTAsW7GgzLbXip83ez4vW%2FfwG0EumGe%2B3onejCcpUs2nh5F2K0PEddxYdDxE7vXNGW5dO5YPrr%2F40Fw%3D%3D - USER ID : 340 - USER IP : ::1 - USER ROLE : 1 - BROWSER : Mozilla/5.0 (Windows NT 10.0; Win64; x64) AppleWebKit/537.36 (KHTML, like Gecko) Chrome/65.0.3325.181 Safari/537.36 - USERNAME : safari
SYSTEM LOG -- DATE :2018-04-04 19:26:24 - CLASS : cetak_idcard - FUNCTION : index - URL : localhost:8080/kaderisasi/index.php/report/cetak_idcard - USER ID : 340 - USER IP : ::1 - USER ROLE : 1 - BROWSER : Mozilla/5.0 (Windows NT 10.0; Win64; x64; rv:59.0) Gecko/20100101 Firefox/59.0 - USERNAME : safari
SYSTEM LOG -- DATE :2018-04-04 19:26:34 - CLASS : cetak_idcard - FUNCTION : print_ - URL : localhost:8080/kaderisasi/index.php/report/cetak_idcard/print_/?_id=aNn1afTe8DO3S1hXPLBdB4e0Fmd870%2BfoZlGriyhzUdxVqX2bmvgF1vS0iut7UvKvP%2BHRDdPLWEvFskMCMOVYw%3D%3D - USER ID : 340 - USER IP : ::1 - USER ROLE : 1 - BROWSER : Mozilla/5.0 (Windows NT 10.0; Win64; x64; rv:59.0) Gecko/20100101 Firefox/59.0 - USERNAME : safari
SYSTEM LOG -- DATE :2018-04-04 22:01:31 - CLASS : cetak_idcard - FUNCTION : index - URL : localhost:8080/kaderisasi/index.php/report/cetak_idcard - USER ID : 340 - USER IP : ::1 - USER ROLE : 1 - BROWSER : Mozilla/5.0 (Windows NT 10.0; Win64; x64) AppleWebKit/537.36 (KHTML, like Gecko) Chrome/65.0.3325.181 Safari/537.36 - USERNAME : safari
SYSTEM LOG -- DATE :2018-04-04 22:01:35 - CLASS : cetak_idcard - FUNCTION : print_preview - URL : localhost:8080/kaderisasi/index.php/report/cetak_idcard/print_preview/?type=data&id=37&nama=IR.%20MUHAMAD%20FUAD&dapil=&foto=5ab0a9f73a43c3173042606730009_wajah.png&no_urut=&u=aHR0cDovL2xvY2FsaG9zdDo4MDgwL2thZGVyaXNhc2kvaW5kZXgucGhwL3JlcG9ydC9jZXRha19pZGNhcmQvdXBkYXRl - USER ID : 340 - USER IP : ::1 - USER ROLE : 1 - BROWSER : Mozilla/5.0 (Windows NT 10.0; Win64; x64) AppleWebKit/537.36 (KHTML, like Gecko) Chrome/65.0.3325.181 Safari/537.36 - USERNAME : safari
SYSTEM LOG -- DATE :2018-04-04 22:02:03 - CLASS : cetak_idcard - FUNCTION : update - URL : localhost:8080/kaderisasi/index.php/report/cetak_idcard/update - USER ID : 340 - USER IP : ::1 - USER ROLE : 1 - BROWSER : Mozilla/5.0 (Windows NT 10.0; Win64; x64) AppleWebKit/537.36 (KHTML, like Gecko) Chrome/65.0.3325.181 Safari/537.36 - USERNAME : safari
SYSTEM LOG -- DATE :2018-04-04 22:02:06 - CLASS : cetak_idcard - FUNCTION : print_preview - URL : localhost:8080/kaderisasi/index.php/report/cetak_idcard/print_preview/?type=data&id=284&nama=ROEM%20KONO&dapil=&foto=5ab48fa77ce333173052804530004_wajah.png&no_urut=&u=aHR0cDovL2xvY2FsaG9zdDo4MDgwL2thZGVyaXNhc2kvaW5kZXgucGhwL3JlcG9ydC9jZXRha19pZGNhcmQvdXBkYXRl - USER ID : 340 - USER IP : ::1 - USER ROLE : 1 - BROWSER : Mozilla/5.0 (Windows NT 10.0; Win64; x64) AppleWebKit/537.36 (KHTML, like Gecko) Chrome/65.0.3325.181 Safari/537.36 - USERNAME : safari
SYSTEM LOG -- DATE :2018-04-04 22:02:15 - CLASS : cetak_idcard - FUNCTION : index - URL : localhost:8080/kaderisasi/index.php/report/cetak_idcard - USER ID : 340 - USER IP : ::1 - USER ROLE : 1 - BROWSER : Mozilla/5.0 (Windows NT 10.0; Win64; x64) AppleWebKit/537.36 (KHTML, like Gecko) Chrome/65.0.3325.181 Safari/537.36 - USERNAME : safari
SYSTEM LOG -- DATE :2018-04-04 22:02:18 - CLASS : cetak_idcard - FUNCTION : print_preview - URL : localhost:8080/kaderisasi/index.php/report/cetak_idcard/print_preview/?type=data&id=280&nama=IMRAN&dapil=&foto=5ab48812037853173012212760013_wajah.png&no_urut=&u=aHR0cDovL2xvY2FsaG9zdDo4MDgwL2thZGVyaXNhc2kvaW5kZXgucGhwL3JlcG9ydC9jZXRha19pZGNhcmQvdXBkYXRl - USER ID : 340 - USER IP : ::1 - USER ROLE : 1 - BROWSER : Mozilla/5.0 (Windows NT 10.0; Win64; x64) AppleWebKit/537.36 (KHTML, like Gecko) Chrome/65.0.3325.181 Safari/537.36 - USERNAME : safari
SYSTEM LOG -- DATE :2018-04-04 22:02:22 - CLASS : cetak_idcard - FUNCTION : update - URL : localhost:8080/kaderisasi/index.php/report/cetak_idcard/update - USER ID : 340 - USER IP : ::1 - USER ROLE : 1 - BROWSER : Mozilla/5.0 (Windows NT 10.0; Win64; x64) AppleWebKit/537.36 (KHTML, like Gecko) Chrome/65.0.3325.181 Safari/537.36 - USERNAME : safari
