SYSTEM LOG -- DATE :2017-11-06 13:38:52 - CLASS : me - FUNCTION : index - URL : localhost:8080/golkar/index.php/meme/me - USER ID : 340 - USER IP : ::1 - USER ROLE : 1 - BROWSER : Mozilla/5.0 (Windows NT 10.0; Win64; x64; rv:56.0) Gecko/20100101 Firefox/56.0 - USERNAME : safari
SYSTEM LOG -- DATE :2017-11-06 13:38:54 - CLASS : data - FUNCTION : check_login - URL : localhost:8080/golkar/index.php/ajax/data/check_login - USER ID : 340 - USER IP : ::1 - USER ROLE : 1 - BROWSER : Mozilla/5.0 (Windows NT 10.0; Win64; x64; rv:56.0) Gecko/20100101 Firefox/56.0 - USERNAME : safari
SYSTEM LOG -- DATE :2017-11-06 13:39:10 - CLASS : report_perbandingan_kta - FUNCTION : index - URL : localhost:8080/golkar/index.php/report/report_perbandingan_kta - USER ID : 340 - USER IP : ::1 - USER ROLE : 1 - BROWSER : Mozilla/5.0 (Windows NT 10.0; Win64; x64; rv:56.0) Gecko/20100101 Firefox/56.0 - USERNAME : safari
SYSTEM LOG -- DATE :2017-11-06 13:39:11 - CLASS : data - FUNCTION : check_login - URL : localhost:8080/golkar/index.php/ajax/data/check_login - USER ID : 340 - USER IP : ::1 - USER ROLE : 1 - BROWSER : Mozilla/5.0 (Windows NT 10.0; Win64; x64; rv:56.0) Gecko/20100101 Firefox/56.0 - USERNAME : safari
SYSTEM LOG -- DATE :2017-11-06 13:39:13 - CLASS : data - FUNCTION : kabupaten - URL : localhost:8080/golkar/index.php/ajax/data/kabupaten - USER ID : 340 - USER IP : ::1 - USER ROLE : 1 - BROWSER : Mozilla/5.0 (Windows NT 10.0; Win64; x64; rv:56.0) Gecko/20100101 Firefox/56.0 - USERNAME : safari
SYSTEM LOG -- DATE :2017-11-06 13:39:15 - CLASS : data - FUNCTION : kecamatan - URL : localhost:8080/golkar/index.php/ajax/data/kecamatan - USER ID : 340 - USER IP : ::1 - USER ROLE : 1 - BROWSER : Mozilla/5.0 (Windows NT 10.0; Win64; x64; rv:56.0) Gecko/20100101 Firefox/56.0 - USERNAME : safari
SYSTEM LOG -- DATE :2017-11-06 13:39:15 - CLASS : report_perbandingan_kta - FUNCTION : search - URL : localhost:8080/golkar/index.php/report/report_perbandingan_kta/search - USER ID : 340 - USER IP : ::1 - USER ROLE : 1 - BROWSER : Mozilla/5.0 (Windows NT 10.0; Win64; x64; rv:56.0) Gecko/20100101 Firefox/56.0 - USERNAME : safari
SYSTEM LOG -- DATE :2017-11-06 13:39:20 - CLASS : data - FUNCTION : check_login - URL : localhost:8080/golkar/index.php/ajax/data/check_login - USER ID : 340 - USER IP : ::1 - USER ROLE : 1 - BROWSER : Mozilla/5.0 (Windows NT 10.0; Win64; x64; rv:56.0) Gecko/20100101 Firefox/56.0 - USERNAME : safari
SYSTEM LOG -- DATE :2017-11-06 13:39:20 - CLASS : data - FUNCTION : kabupaten - URL : localhost:8080/golkar/index.php/ajax/data/kabupaten - USER ID : 340 - USER IP : ::1 - USER ROLE : 1 - BROWSER : Mozilla/5.0 (Windows NT 10.0; Win64; x64; rv:56.0) Gecko/20100101 Firefox/56.0 - USERNAME : safari
SYSTEM LOG -- DATE :2017-11-06 13:39:20 - CLASS : data - FUNCTION : kecamatan - URL : localhost:8080/golkar/index.php/ajax/data/kecamatan - USER ID : 340 - USER IP : ::1 - USER ROLE : 1 - BROWSER : Mozilla/5.0 (Windows NT 10.0; Win64; x64; rv:56.0) Gecko/20100101 Firefox/56.0 - USERNAME : safari
SYSTEM LOG -- DATE :2017-11-06 13:39:21 - CLASS : data - FUNCTION : check_login - URL : localhost:8080/golkar/index.php/ajax/data/check_login - USER ID : 340 - USER IP : ::1 - USER ROLE : 1 - BROWSER : Mozilla/5.0 (Windows NT 10.0; Win64; x64; rv:56.0) Gecko/20100101 Firefox/56.0 - USERNAME : safari
SYSTEM LOG -- DATE :2017-11-06 13:39:35 - CLASS : report_perbandingan_kta - FUNCTION : search - URL : localhost:8080/golkar/index.php/report/report_perbandingan_kta/search - USER ID : 340 - USER IP : ::1 - USER ROLE : 1 - BROWSER : Mozilla/5.0 (Windows NT 10.0; Win64; x64; rv:56.0) Gecko/20100101 Firefox/56.0 - USERNAME : safari
SYSTEM LOG -- DATE :2017-11-06 13:39:47 - CLASS : data - FUNCTION : check_login - URL : localhost:8080/golkar/index.php/ajax/data/check_login - USER ID : 340 - USER IP : ::1 - USER ROLE : 1 - BROWSER : Mozilla/5.0 (Windows NT 10.0; Win64; x64; rv:56.0) Gecko/20100101 Firefox/56.0 - USERNAME : safari
SYSTEM LOG -- DATE :2017-11-06 13:40:53 - CLASS : report_perbandingan_kta - FUNCTION : search - URL : localhost:8080/golkar/index.php/report/report_perbandingan_kta/search - USER ID : 340 - USER IP : ::1 - USER ROLE : 1 - BROWSER : Mozilla/5.0 (Windows NT 10.0; Win64; x64; rv:56.0) Gecko/20100101 Firefox/56.0 - USERNAME : safari
SYSTEM LOG -- DATE :2017-11-06 13:40:58 - CLASS : data - FUNCTION : check_login - URL : localhost:8080/golkar/index.php/ajax/data/check_login - USER ID : 340 - USER IP : ::1 - USER ROLE : 1 - BROWSER : Mozilla/5.0 (Windows NT 10.0; Win64; x64; rv:56.0) Gecko/20100101 Firefox/56.0 - USERNAME : safari
SYSTEM LOG -- DATE :2017-11-06 13:40:58 - CLASS : data - FUNCTION : kabupaten - URL : localhost:8080/golkar/index.php/ajax/data/kabupaten - USER ID : 340 - USER IP : ::1 - USER ROLE : 1 - BROWSER : Mozilla/5.0 (Windows NT 10.0; Win64; x64; rv:56.0) Gecko/20100101 Firefox/56.0 - USERNAME : safari
SYSTEM LOG -- DATE :2017-11-06 13:40:58 - CLASS : data - FUNCTION : kecamatan - URL : localhost:8080/golkar/index.php/ajax/data/kecamatan - USER ID : 340 - USER IP : ::1 - USER ROLE : 1 - BROWSER : Mozilla/5.0 (Windows NT 10.0; Win64; x64; rv:56.0) Gecko/20100101 Firefox/56.0 - USERNAME : safari
SYSTEM LOG -- DATE :2017-11-06 13:40:59 - CLASS : data - FUNCTION : check_login - URL : localhost:8080/golkar/index.php/ajax/data/check_login - USER ID : 340 - USER IP : ::1 - USER ROLE : 1 - BROWSER : Mozilla/5.0 (Windows NT 10.0; Win64; x64; rv:56.0) Gecko/20100101 Firefox/56.0 - USERNAME : safari
SYSTEM LOG -- DATE :2017-11-06 13:41:11 - CLASS : report_perbandingan_kta - FUNCTION : search - URL : localhost:8080/golkar/index.php/report/report_perbandingan_kta/search - USER ID : 340 - USER IP : ::1 - USER ROLE : 1 - BROWSER : Mozilla/5.0 (Windows NT 10.0; Win64; x64; rv:56.0) Gecko/20100101 Firefox/56.0 - USERNAME : safari
SYSTEM LOG -- DATE :2017-11-06 13:41:21 - CLASS : data - FUNCTION : check_login - URL : localhost:8080/golkar/index.php/ajax/data/check_login - USER ID : 340 - USER IP : ::1 - USER ROLE : 1 - BROWSER : Mozilla/5.0 (Windows NT 10.0; Win64; x64; rv:56.0) Gecko/20100101 Firefox/56.0 - USERNAME : safari
SYSTEM LOG -- DATE :2017-11-06 13:43:03 - CLASS : report_perbandingan_kta - FUNCTION : search - URL : localhost:8080/golkar/index.php/report/report_perbandingan_kta/search - USER ID : 340 - USER IP : ::1 - USER ROLE : 1 - BROWSER : Mozilla/5.0 (Windows NT 10.0; Win64; x64; rv:56.0) Gecko/20100101 Firefox/56.0 - USERNAME : safari
SYSTEM LOG -- DATE :2017-11-06 13:43:07 - CLASS : data - FUNCTION : check_login - URL : localhost:8080/golkar/index.php/ajax/data/check_login - USER ID : 340 - USER IP : ::1 - USER ROLE : 1 - BROWSER : Mozilla/5.0 (Windows NT 10.0; Win64; x64; rv:56.0) Gecko/20100101 Firefox/56.0 - USERNAME : safari
SYSTEM LOG -- DATE :2017-11-06 13:43:08 - CLASS : data - FUNCTION : kabupaten - URL : localhost:8080/golkar/index.php/ajax/data/kabupaten - USER ID : 340 - USER IP : ::1 - USER ROLE : 1 - BROWSER : Mozilla/5.0 (Windows NT 10.0; Win64; x64; rv:56.0) Gecko/20100101 Firefox/56.0 - USERNAME : safari
SYSTEM LOG -- DATE :2017-11-06 13:43:08 - CLASS : data - FUNCTION : kecamatan - URL : localhost:8080/golkar/index.php/ajax/data/kecamatan - USER ID : 340 - USER IP : ::1 - USER ROLE : 1 - BROWSER : Mozilla/5.0 (Windows NT 10.0; Win64; x64; rv:56.0) Gecko/20100101 Firefox/56.0 - USERNAME : safari
SYSTEM LOG -- DATE :2017-11-06 13:43:08 - CLASS : data - FUNCTION : check_login - URL : localhost:8080/golkar/index.php/ajax/data/check_login - USER ID : 340 - USER IP : ::1 - USER ROLE : 1 - BROWSER : Mozilla/5.0 (Windows NT 10.0; Win64; x64; rv:56.0) Gecko/20100101 Firefox/56.0 - USERNAME : safari
SYSTEM LOG -- DATE :2017-11-06 13:43:13 - CLASS : report_perbandingan_kta - FUNCTION : search - URL : localhost:8080/golkar/index.php/report/report_perbandingan_kta/search - USER ID : 340 - USER IP : ::1 - USER ROLE : 1 - BROWSER : Mozilla/5.0 (Windows NT 10.0; Win64; x64; rv:56.0) Gecko/20100101 Firefox/56.0 - USERNAME : safari
SYSTEM LOG -- DATE :2017-11-06 13:43:24 - CLASS : data - FUNCTION : check_login - URL : localhost:8080/golkar/index.php/ajax/data/check_login - USER ID : 340 - USER IP : ::1 - USER ROLE : 1 - BROWSER : Mozilla/5.0 (Windows NT 10.0; Win64; x64; rv:56.0) Gecko/20100101 Firefox/56.0 - USERNAME : safari
SYSTEM LOG -- DATE :2017-11-06 13:43:54 - CLASS : report_perbandingan_kta - FUNCTION : search - URL : localhost:8080/golkar/index.php/report/report_perbandingan_kta/search - USER ID : 340 - USER IP : ::1 - USER ROLE : 1 - BROWSER : Mozilla/5.0 (Windows NT 10.0; Win64; x64; rv:56.0) Gecko/20100101 Firefox/56.0 - USERNAME : safari
SYSTEM LOG -- DATE :2017-11-06 13:43:59 - CLASS : data - FUNCTION : check_login - URL : localhost:8080/golkar/index.php/ajax/data/check_login - USER ID : 340 - USER IP : ::1 - USER ROLE : 1 - BROWSER : Mozilla/5.0 (Windows NT 10.0; Win64; x64; rv:56.0) Gecko/20100101 Firefox/56.0 - USERNAME : safari
SYSTEM LOG -- DATE :2017-11-06 13:43:59 - CLASS : data - FUNCTION : kabupaten - URL : localhost:8080/golkar/index.php/ajax/data/kabupaten - USER ID : 340 - USER IP : ::1 - USER ROLE : 1 - BROWSER : Mozilla/5.0 (Windows NT 10.0; Win64; x64; rv:56.0) Gecko/20100101 Firefox/56.0 - USERNAME : safari
SYSTEM LOG -- DATE :2017-11-06 13:43:59 - CLASS : data - FUNCTION : kecamatan - URL : localhost:8080/golkar/index.php/ajax/data/kecamatan - USER ID : 340 - USER IP : ::1 - USER ROLE : 1 - BROWSER : Mozilla/5.0 (Windows NT 10.0; Win64; x64; rv:56.0) Gecko/20100101 Firefox/56.0 - USERNAME : safari
SYSTEM LOG -- DATE :2017-11-06 13:44:00 - CLASS : data - FUNCTION : check_login - URL : localhost:8080/golkar/index.php/ajax/data/check_login - USER ID : 340 - USER IP : ::1 - USER ROLE : 1 - BROWSER : Mozilla/5.0 (Windows NT 10.0; Win64; x64; rv:56.0) Gecko/20100101 Firefox/56.0 - USERNAME : safari
SYSTEM LOG -- DATE :2017-11-06 13:45:20 - CLASS : report_perbandingan_kta - FUNCTION : search - URL : localhost:8080/golkar/index.php/report/report_perbandingan_kta/search - USER ID : 340 - USER IP : ::1 - USER ROLE : 1 - BROWSER : Mozilla/5.0 (Windows NT 10.0; Win64; x64; rv:56.0) Gecko/20100101 Firefox/56.0 - USERNAME : safari
SYSTEM LOG -- DATE :2017-11-06 13:45:24 - CLASS : data - FUNCTION : check_login - URL : localhost:8080/golkar/index.php/ajax/data/check_login - USER ID : 340 - USER IP : ::1 - USER ROLE : 1 - BROWSER : Mozilla/5.0 (Windows NT 10.0; Win64; x64; rv:56.0) Gecko/20100101 Firefox/56.0 - USERNAME : safari
SYSTEM LOG -- DATE :2017-11-06 13:45:25 - CLASS : data - FUNCTION : kabupaten - URL : localhost:8080/golkar/index.php/ajax/data/kabupaten - USER ID : 340 - USER IP : ::1 - USER ROLE : 1 - BROWSER : Mozilla/5.0 (Windows NT 10.0; Win64; x64; rv:56.0) Gecko/20100101 Firefox/56.0 - USERNAME : safari
SYSTEM LOG -- DATE :2017-11-06 13:45:25 - CLASS : data - FUNCTION : kecamatan - URL : localhost:8080/golkar/index.php/ajax/data/kecamatan - USER ID : 340 - USER IP : ::1 - USER ROLE : 1 - BROWSER : Mozilla/5.0 (Windows NT 10.0; Win64; x64; rv:56.0) Gecko/20100101 Firefox/56.0 - USERNAME : safari
SYSTEM LOG -- DATE :2017-11-06 13:45:25 - CLASS : data - FUNCTION : check_login - URL : localhost:8080/golkar/index.php/ajax/data/check_login - USER ID : 340 - USER IP : ::1 - USER ROLE : 1 - BROWSER : Mozilla/5.0 (Windows NT 10.0; Win64; x64; rv:56.0) Gecko/20100101 Firefox/56.0 - USERNAME : safari
SYSTEM LOG -- DATE :2017-11-06 13:45:38 - CLASS : report_perbandingan_kta - FUNCTION : search - URL : localhost:8080/golkar/index.php/report/report_perbandingan_kta/search - USER ID : 340 - USER IP : ::1 - USER ROLE : 1 - BROWSER : Mozilla/5.0 (Windows NT 10.0; Win64; x64; rv:56.0) Gecko/20100101 Firefox/56.0 - USERNAME : safari
SYSTEM LOG -- DATE :2017-11-06 13:45:50 - CLASS : data - FUNCTION : check_login - URL : localhost:8080/golkar/index.php/ajax/data/check_login - USER ID : 340 - USER IP : ::1 - USER ROLE : 1 - BROWSER : Mozilla/5.0 (Windows NT 10.0; Win64; x64; rv:56.0) Gecko/20100101 Firefox/56.0 - USERNAME : safari
SYSTEM LOG -- DATE :2017-11-06 13:47:58 - CLASS : report_perbandingan_kta - FUNCTION : search - URL : localhost:8080/golkar/index.php/report/report_perbandingan_kta/search - USER ID : 340 - USER IP : ::1 - USER ROLE : 1 - BROWSER : Mozilla/5.0 (Windows NT 10.0; Win64; x64; rv:56.0) Gecko/20100101 Firefox/56.0 - USERNAME : safari
SYSTEM LOG -- DATE :2017-11-06 13:48:02 - CLASS : data - FUNCTION : check_login - URL : localhost:8080/golkar/index.php/ajax/data/check_login - USER ID : 340 - USER IP : ::1 - USER ROLE : 1 - BROWSER : Mozilla/5.0 (Windows NT 10.0; Win64; x64; rv:56.0) Gecko/20100101 Firefox/56.0 - USERNAME : safari
SYSTEM LOG -- DATE :2017-11-06 13:48:03 - CLASS : data - FUNCTION : kabupaten - URL : localhost:8080/golkar/index.php/ajax/data/kabupaten - USER ID : 340 - USER IP : ::1 - USER ROLE : 1 - BROWSER : Mozilla/5.0 (Windows NT 10.0; Win64; x64; rv:56.0) Gecko/20100101 Firefox/56.0 - USERNAME : safari
SYSTEM LOG -- DATE :2017-11-06 13:48:03 - CLASS : data - FUNCTION : kecamatan - URL : localhost:8080/golkar/index.php/ajax/data/kecamatan - USER ID : 340 - USER IP : ::1 - USER ROLE : 1 - BROWSER : Mozilla/5.0 (Windows NT 10.0; Win64; x64; rv:56.0) Gecko/20100101 Firefox/56.0 - USERNAME : safari
SYSTEM LOG -- DATE :2017-11-06 13:48:03 - CLASS : data - FUNCTION : check_login - URL : localhost:8080/golkar/index.php/ajax/data/check_login - USER ID : 340 - USER IP : ::1 - USER ROLE : 1 - BROWSER : Mozilla/5.0 (Windows NT 10.0; Win64; x64; rv:56.0) Gecko/20100101 Firefox/56.0 - USERNAME : safari
SYSTEM LOG -- DATE :2017-11-06 13:48:05 - CLASS : report_perbandingan_kta - FUNCTION : search - URL : localhost:8080/golkar/index.php/report/report_perbandingan_kta/search - USER ID : 340 - USER IP : ::1 - USER ROLE : 1 - BROWSER : Mozilla/5.0 (Windows NT 10.0; Win64; x64; rv:56.0) Gecko/20100101 Firefox/56.0 - USERNAME : safari
SYSTEM LOG -- DATE :2017-11-06 13:48:16 - CLASS : data - FUNCTION : check_login - URL : localhost:8080/golkar/index.php/ajax/data/check_login - USER ID : 340 - USER IP : ::1 - USER ROLE : 1 - BROWSER : Mozilla/5.0 (Windows NT 10.0; Win64; x64; rv:56.0) Gecko/20100101 Firefox/56.0 - USERNAME : safari
SYSTEM LOG -- DATE :2017-11-06 13:50:06 - CLASS : report_perbandingan_kta - FUNCTION : search - URL : localhost:8080/golkar/index.php/report/report_perbandingan_kta/search - USER ID : 340 - USER IP : ::1 - USER ROLE : 1 - BROWSER : Mozilla/5.0 (Windows NT 10.0; Win64; x64; rv:56.0) Gecko/20100101 Firefox/56.0 - USERNAME : safari
SYSTEM LOG -- DATE :2017-11-06 13:50:11 - CLASS : data - FUNCTION : check_login - URL : localhost:8080/golkar/index.php/ajax/data/check_login - USER ID : 340 - USER IP : ::1 - USER ROLE : 1 - BROWSER : Mozilla/5.0 (Windows NT 10.0; Win64; x64; rv:56.0) Gecko/20100101 Firefox/56.0 - USERNAME : safari
SYSTEM LOG -- DATE :2017-11-06 13:50:11 - CLASS : data - FUNCTION : kabupaten - URL : localhost:8080/golkar/index.php/ajax/data/kabupaten - USER ID : 340 - USER IP : ::1 - USER ROLE : 1 - BROWSER : Mozilla/5.0 (Windows NT 10.0; Win64; x64; rv:56.0) Gecko/20100101 Firefox/56.0 - USERNAME : safari
SYSTEM LOG -- DATE :2017-11-06 13:50:11 - CLASS : data - FUNCTION : kecamatan - URL : localhost:8080/golkar/index.php/ajax/data/kecamatan - USER ID : 340 - USER IP : ::1 - USER ROLE : 1 - BROWSER : Mozilla/5.0 (Windows NT 10.0; Win64; x64; rv:56.0) Gecko/20100101 Firefox/56.0 - USERNAME : safari
SYSTEM LOG -- DATE :2017-11-06 13:50:12 - CLASS : data - FUNCTION : check_login - URL : localhost:8080/golkar/index.php/ajax/data/check_login - USER ID : 340 - USER IP : ::1 - USER ROLE : 1 - BROWSER : Mozilla/5.0 (Windows NT 10.0; Win64; x64; rv:56.0) Gecko/20100101 Firefox/56.0 - USERNAME : safari
SYSTEM LOG -- DATE :2017-11-06 13:50:31 - CLASS : report_perbandingan_kta - FUNCTION : search - URL : localhost:8080/golkar/index.php/report/report_perbandingan_kta/search - USER ID : 340 - USER IP : ::1 - USER ROLE : 1 - BROWSER : Mozilla/5.0 (Windows NT 10.0; Win64; x64; rv:56.0) Gecko/20100101 Firefox/56.0 - USERNAME : safari
SYSTEM LOG -- DATE :2017-11-06 13:50:35 - CLASS : data - FUNCTION : check_login - URL : localhost:8080/golkar/index.php/ajax/data/check_login - USER ID : 340 - USER IP : ::1 - USER ROLE : 1 - BROWSER : Mozilla/5.0 (Windows NT 10.0; Win64; x64; rv:56.0) Gecko/20100101 Firefox/56.0 - USERNAME : safari
SYSTEM LOG -- DATE :2017-11-06 13:50:36 - CLASS : data - FUNCTION : kabupaten - URL : localhost:8080/golkar/index.php/ajax/data/kabupaten - USER ID : 340 - USER IP : ::1 - USER ROLE : 1 - BROWSER : Mozilla/5.0 (Windows NT 10.0; Win64; x64; rv:56.0) Gecko/20100101 Firefox/56.0 - USERNAME : safari
SYSTEM LOG -- DATE :2017-11-06 13:50:36 - CLASS : data - FUNCTION : kecamatan - URL : localhost:8080/golkar/index.php/ajax/data/kecamatan - USER ID : 340 - USER IP : ::1 - USER ROLE : 1 - BROWSER : Mozilla/5.0 (Windows NT 10.0; Win64; x64; rv:56.0) Gecko/20100101 Firefox/56.0 - USERNAME : safari
SYSTEM LOG -- DATE :2017-11-06 13:50:36 - CLASS : data - FUNCTION : check_login - URL : localhost:8080/golkar/index.php/ajax/data/check_login - USER ID : 340 - USER IP : ::1 - USER ROLE : 1 - BROWSER : Mozilla/5.0 (Windows NT 10.0; Win64; x64; rv:56.0) Gecko/20100101 Firefox/56.0 - USERNAME : safari
SYSTEM LOG -- DATE :2017-11-06 13:50:43 - CLASS : report_perbandingan_kta - FUNCTION : search - URL : localhost:8080/golkar/index.php/report/report_perbandingan_kta/search - USER ID : 340 - USER IP : ::1 - USER ROLE : 1 - BROWSER : Mozilla/5.0 (Windows NT 10.0; Win64; x64; rv:56.0) Gecko/20100101 Firefox/56.0 - USERNAME : safari
SYSTEM LOG -- DATE :2017-11-06 13:50:54 - CLASS : data - FUNCTION : check_login - URL : localhost:8080/golkar/index.php/ajax/data/check_login - USER ID : 340 - USER IP : ::1 - USER ROLE : 1 - BROWSER : Mozilla/5.0 (Windows NT 10.0; Win64; x64; rv:56.0) Gecko/20100101 Firefox/56.0 - USERNAME : safari
SYSTEM LOG -- DATE :2017-11-06 13:51:38 - CLASS : report_perbandingan_kta - FUNCTION : search - URL : localhost:8080/golkar/index.php/report/report_perbandingan_kta/search - USER ID : 340 - USER IP : ::1 - USER ROLE : 1 - BROWSER : Mozilla/5.0 (Windows NT 10.0; Win64; x64; rv:56.0) Gecko/20100101 Firefox/56.0 - USERNAME : safari
SYSTEM LOG -- DATE :2017-11-06 13:51:48 - CLASS : data - FUNCTION : check_login - URL : localhost:8080/golkar/index.php/ajax/data/check_login - USER ID : 340 - USER IP : ::1 - USER ROLE : 1 - BROWSER : Mozilla/5.0 (Windows NT 10.0; Win64; x64; rv:56.0) Gecko/20100101 Firefox/56.0 - USERNAME : safari
SYSTEM LOG -- DATE :2017-11-06 13:53:01 - CLASS : report_perbandingan_kta - FUNCTION : search - URL : localhost:8080/golkar/index.php/report/report_perbandingan_kta/search - USER ID : 340 - USER IP : ::1 - USER ROLE : 1 - BROWSER : Mozilla/5.0 (Windows NT 10.0; Win64; x64; rv:56.0) Gecko/20100101 Firefox/56.0 - USERNAME : safari
SYSTEM LOG -- DATE :2017-11-06 13:53:05 - CLASS : data - FUNCTION : check_login - URL : localhost:8080/golkar/index.php/ajax/data/check_login - USER ID : 340 - USER IP : ::1 - USER ROLE : 1 - BROWSER : Mozilla/5.0 (Windows NT 10.0; Win64; x64; rv:56.0) Gecko/20100101 Firefox/56.0 - USERNAME : safari
SYSTEM LOG -- DATE :2017-11-06 13:53:06 - CLASS : data - FUNCTION : kabupaten - URL : localhost:8080/golkar/index.php/ajax/data/kabupaten - USER ID : 340 - USER IP : ::1 - USER ROLE : 1 - BROWSER : Mozilla/5.0 (Windows NT 10.0; Win64; x64; rv:56.0) Gecko/20100101 Firefox/56.0 - USERNAME : safari
SYSTEM LOG -- DATE :2017-11-06 13:53:06 - CLASS : data - FUNCTION : kecamatan - URL : localhost:8080/golkar/index.php/ajax/data/kecamatan - USER ID : 340 - USER IP : ::1 - USER ROLE : 1 - BROWSER : Mozilla/5.0 (Windows NT 10.0; Win64; x64; rv:56.0) Gecko/20100101 Firefox/56.0 - USERNAME : safari
SYSTEM LOG -- DATE :2017-11-06 13:53:06 - CLASS : data - FUNCTION : check_login - URL : localhost:8080/golkar/index.php/ajax/data/check_login - USER ID : 340 - USER IP : ::1 - USER ROLE : 1 - BROWSER : Mozilla/5.0 (Windows NT 10.0; Win64; x64; rv:56.0) Gecko/20100101 Firefox/56.0 - USERNAME : safari
SYSTEM LOG -- DATE :2017-11-06 13:53:08 - CLASS : report_perbandingan_kta - FUNCTION : search - URL : localhost:8080/golkar/index.php/report/report_perbandingan_kta/search - USER ID : 340 - USER IP : ::1 - USER ROLE : 1 - BROWSER : Mozilla/5.0 (Windows NT 10.0; Win64; x64; rv:56.0) Gecko/20100101 Firefox/56.0 - USERNAME : safari
SYSTEM LOG -- DATE :2017-11-06 13:53:18 - CLASS : data - FUNCTION : check_login - URL : localhost:8080/golkar/index.php/ajax/data/check_login - USER ID : 340 - USER IP : ::1 - USER ROLE : 1 - BROWSER : Mozilla/5.0 (Windows NT 10.0; Win64; x64; rv:56.0) Gecko/20100101 Firefox/56.0 - USERNAME : safari
SYSTEM LOG -- DATE :2017-11-06 13:53:43 - CLASS : report_perbandingan_kta - FUNCTION : search - URL : localhost:8080/golkar/index.php/report/report_perbandingan_kta/search - USER ID : 340 - USER IP : ::1 - USER ROLE : 1 - BROWSER : Mozilla/5.0 (Windows NT 10.0; Win64; x64; rv:56.0) Gecko/20100101 Firefox/56.0 - USERNAME : safari
SYSTEM LOG -- DATE :2017-11-06 13:53:47 - CLASS : data - FUNCTION : check_login - URL : localhost:8080/golkar/index.php/ajax/data/check_login - USER ID : 340 - USER IP : ::1 - USER ROLE : 1 - BROWSER : Mozilla/5.0 (Windows NT 10.0; Win64; x64; rv:56.0) Gecko/20100101 Firefox/56.0 - USERNAME : safari
SYSTEM LOG -- DATE :2017-11-06 13:53:48 - CLASS : data - FUNCTION : kabupaten - URL : localhost:8080/golkar/index.php/ajax/data/kabupaten - USER ID : 340 - USER IP : ::1 - USER ROLE : 1 - BROWSER : Mozilla/5.0 (Windows NT 10.0; Win64; x64; rv:56.0) Gecko/20100101 Firefox/56.0 - USERNAME : safari
SYSTEM LOG -- DATE :2017-11-06 13:53:48 - CLASS : data - FUNCTION : kecamatan - URL : localhost:8080/golkar/index.php/ajax/data/kecamatan - USER ID : 340 - USER IP : ::1 - USER ROLE : 1 - BROWSER : Mozilla/5.0 (Windows NT 10.0; Win64; x64; rv:56.0) Gecko/20100101 Firefox/56.0 - USERNAME : safari
SYSTEM LOG -- DATE :2017-11-06 13:53:48 - CLASS : data - FUNCTION : check_login - URL : localhost:8080/golkar/index.php/ajax/data/check_login - USER ID : 340 - USER IP : ::1 - USER ROLE : 1 - BROWSER : Mozilla/5.0 (Windows NT 10.0; Win64; x64; rv:56.0) Gecko/20100101 Firefox/56.0 - USERNAME : safari
SYSTEM LOG -- DATE :2017-11-06 13:53:50 - CLASS : report_perbandingan_kta - FUNCTION : search - URL : localhost:8080/golkar/index.php/report/report_perbandingan_kta/search - USER ID : 340 - USER IP : ::1 - USER ROLE : 1 - BROWSER : Mozilla/5.0 (Windows NT 10.0; Win64; x64; rv:56.0) Gecko/20100101 Firefox/56.0 - USERNAME : safari
SYSTEM LOG -- DATE :2017-11-06 13:54:01 - CLASS : data - FUNCTION : check_login - URL : localhost:8080/golkar/index.php/ajax/data/check_login - USER ID : 340 - USER IP : ::1 - USER ROLE : 1 - BROWSER : Mozilla/5.0 (Windows NT 10.0; Win64; x64; rv:56.0) Gecko/20100101 Firefox/56.0 - USERNAME : safari
SYSTEM LOG -- DATE :2017-11-06 13:54:29 - CLASS : report_perbandingan_kta - FUNCTION : search - URL : localhost:8080/golkar/index.php/report/report_perbandingan_kta/search - USER ID : 340 - USER IP : ::1 - USER ROLE : 1 - BROWSER : Mozilla/5.0 (Windows NT 10.0; Win64; x64; rv:56.0) Gecko/20100101 Firefox/56.0 - USERNAME : safari
SYSTEM LOG -- DATE :2017-11-06 13:54:34 - CLASS : data - FUNCTION : check_login - URL : localhost:8080/golkar/index.php/ajax/data/check_login - USER ID : 340 - USER IP : ::1 - USER ROLE : 1 - BROWSER : Mozilla/5.0 (Windows NT 10.0; Win64; x64; rv:56.0) Gecko/20100101 Firefox/56.0 - USERNAME : safari
SYSTEM LOG -- DATE :2017-11-06 13:54:34 - CLASS : data - FUNCTION : kabupaten - URL : localhost:8080/golkar/index.php/ajax/data/kabupaten - USER ID : 340 - USER IP : ::1 - USER ROLE : 1 - BROWSER : Mozilla/5.0 (Windows NT 10.0; Win64; x64; rv:56.0) Gecko/20100101 Firefox/56.0 - USERNAME : safari
SYSTEM LOG -- DATE :2017-11-06 13:54:34 - CLASS : data - FUNCTION : kecamatan - URL : localhost:8080/golkar/index.php/ajax/data/kecamatan - USER ID : 340 - USER IP : ::1 - USER ROLE : 1 - BROWSER : Mozilla/5.0 (Windows NT 10.0; Win64; x64; rv:56.0) Gecko/20100101 Firefox/56.0 - USERNAME : safari
SYSTEM LOG -- DATE :2017-11-06 13:54:35 - CLASS : data - FUNCTION : check_login - URL : localhost:8080/golkar/index.php/ajax/data/check_login - USER ID : 340 - USER IP : ::1 - USER ROLE : 1 - BROWSER : Mozilla/5.0 (Windows NT 10.0; Win64; x64; rv:56.0) Gecko/20100101 Firefox/56.0 - USERNAME : safari
SYSTEM LOG -- DATE :2017-11-06 13:54:36 - CLASS : report_perbandingan_kta - FUNCTION : search - URL : localhost:8080/golkar/index.php/report/report_perbandingan_kta/search - USER ID : 340 - USER IP : ::1 - USER ROLE : 1 - BROWSER : Mozilla/5.0 (Windows NT 10.0; Win64; x64; rv:56.0) Gecko/20100101 Firefox/56.0 - USERNAME : safari
SYSTEM LOG -- DATE :2017-11-06 13:54:46 - CLASS : data - FUNCTION : check_login - URL : localhost:8080/golkar/index.php/ajax/data/check_login - USER ID : 340 - USER IP : ::1 - USER ROLE : 1 - BROWSER : Mozilla/5.0 (Windows NT 10.0; Win64; x64; rv:56.0) Gecko/20100101 Firefox/56.0 - USERNAME : safari
SYSTEM LOG -- DATE :2017-11-06 13:56:04 - CLASS : report_perbandingan_kta - FUNCTION : search - URL : localhost:8080/golkar/index.php/report/report_perbandingan_kta/search - USER ID : 340 - USER IP : ::1 - USER ROLE : 1 - BROWSER : Mozilla/5.0 (Windows NT 10.0; Win64; x64; rv:56.0) Gecko/20100101 Firefox/56.0 - USERNAME : safari
SYSTEM LOG -- DATE :2017-11-06 13:56:08 - CLASS : data - FUNCTION : check_login - URL : localhost:8080/golkar/index.php/ajax/data/check_login - USER ID : 340 - USER IP : ::1 - USER ROLE : 1 - BROWSER : Mozilla/5.0 (Windows NT 10.0; Win64; x64; rv:56.0) Gecko/20100101 Firefox/56.0 - USERNAME : safari
SYSTEM LOG -- DATE :2017-11-06 13:56:09 - CLASS : data - FUNCTION : kabupaten - URL : localhost:8080/golkar/index.php/ajax/data/kabupaten - USER ID : 340 - USER IP : ::1 - USER ROLE : 1 - BROWSER : Mozilla/5.0 (Windows NT 10.0; Win64; x64; rv:56.0) Gecko/20100101 Firefox/56.0 - USERNAME : safari
SYSTEM LOG -- DATE :2017-11-06 13:56:09 - CLASS : data - FUNCTION : kecamatan - URL : localhost:8080/golkar/index.php/ajax/data/kecamatan - USER ID : 340 - USER IP : ::1 - USER ROLE : 1 - BROWSER : Mozilla/5.0 (Windows NT 10.0; Win64; x64; rv:56.0) Gecko/20100101 Firefox/56.0 - USERNAME : safari
SYSTEM LOG -- DATE :2017-11-06 13:56:09 - CLASS : data - FUNCTION : check_login - URL : localhost:8080/golkar/index.php/ajax/data/check_login - USER ID : 340 - USER IP : ::1 - USER ROLE : 1 - BROWSER : Mozilla/5.0 (Windows NT 10.0; Win64; x64; rv:56.0) Gecko/20100101 Firefox/56.0 - USERNAME : safari
SYSTEM LOG -- DATE :2017-11-06 13:56:32 - CLASS : report_perbandingan_kta - FUNCTION : search - URL : localhost:8080/golkar/index.php/report/report_perbandingan_kta/search - USER ID : 340 - USER IP : ::1 - USER ROLE : 1 - BROWSER : Mozilla/5.0 (Windows NT 10.0; Win64; x64; rv:56.0) Gecko/20100101 Firefox/56.0 - USERNAME : safari
SYSTEM LOG -- DATE :2017-11-06 13:56:43 - CLASS : data - FUNCTION : check_login - URL : localhost:8080/golkar/index.php/ajax/data/check_login - USER ID : 340 - USER IP : ::1 - USER ROLE : 1 - BROWSER : Mozilla/5.0 (Windows NT 10.0; Win64; x64; rv:56.0) Gecko/20100101 Firefox/56.0 - USERNAME : safari
SYSTEM LOG -- DATE :2017-11-06 13:57:55 - CLASS : report_perbandingan_kta - FUNCTION : search - URL : localhost:8080/golkar/index.php/report/report_perbandingan_kta/search - USER ID : 340 - USER IP : ::1 - USER ROLE : 1 - BROWSER : Mozilla/5.0 (Windows NT 10.0; Win64; x64; rv:56.0) Gecko/20100101 Firefox/56.0 - USERNAME : safari
SYSTEM LOG -- DATE :2017-11-06 13:58:00 - CLASS : data - FUNCTION : kabupaten - URL : localhost:8080/golkar/index.php/ajax/data/kabupaten - USER ID : 340 - USER IP : ::1 - USER ROLE : 1 - BROWSER : Mozilla/5.0 (Windows NT 10.0; Win64; x64; rv:56.0) Gecko/20100101 Firefox/56.0 - USERNAME : safari
SYSTEM LOG -- DATE :2017-11-06 13:58:00 - CLASS : data - FUNCTION : kecamatan - URL : localhost:8080/golkar/index.php/ajax/data/kecamatan - USER ID : 340 - USER IP : ::1 - USER ROLE : 1 - BROWSER : Mozilla/5.0 (Windows NT 10.0; Win64; x64; rv:56.0) Gecko/20100101 Firefox/56.0 - USERNAME : safari
SYSTEM LOG -- DATE :2017-11-06 13:58:00 - CLASS : data - FUNCTION : check_login - URL : localhost:8080/golkar/index.php/ajax/data/check_login - USER ID : 340 - USER IP : ::1 - USER ROLE : 1 - BROWSER : Mozilla/5.0 (Windows NT 10.0; Win64; x64; rv:56.0) Gecko/20100101 Firefox/56.0 - USERNAME : safari
SYSTEM LOG -- DATE :2017-11-06 13:58:19 - CLASS : report_perbandingan_kta - FUNCTION : search - URL : localhost:8080/golkar/index.php/report/report_perbandingan_kta/search - USER ID : 340 - USER IP : ::1 - USER ROLE : 1 - BROWSER : Mozilla/5.0 (Windows NT 10.0; Win64; x64; rv:56.0) Gecko/20100101 Firefox/56.0 - USERNAME : safari
SYSTEM LOG -- DATE :2017-11-06 13:58:21 - CLASS : data - FUNCTION : check_login - URL : localhost:8080/golkar/index.php/ajax/data/check_login - USER ID : 340 - USER IP : ::1 - USER ROLE : 1 - BROWSER : Mozilla/5.0 (Windows NT 10.0; Win64; x64; rv:56.0) Gecko/20100101 Firefox/56.0 - USERNAME : safari
SYSTEM LOG -- DATE :2017-11-06 13:59:45 - CLASS : report_perbandingan_kta - FUNCTION : re_generate - URL : localhost:8080/golkar/index.php/report/report_perbandingan_kta/re_generate/?_id=mFrEHpgr9KTc6XAXD8aIT1gJcQq45xgU1jvaDAmTrEWbbQw5jmwDygZrh7hU4pI0mmDz3dAP87pFBDgCE2HCsw%3D%3D - USER ID : 340 - USER IP : ::1 - USER ROLE : 1 - BROWSER : Mozilla/5.0 (Windows NT 10.0; Win64; x64; rv:56.0) Gecko/20100101 Firefox/56.0 - USERNAME : safari
SYSTEM LOG -- DATE :2017-11-06 13:59:46 - CLASS : data - FUNCTION : check_login - URL : localhost:8080/golkar/index.php/ajax/data/check_login - USER ID : 340 - USER IP : ::1 - USER ROLE : 1 - BROWSER : Mozilla/5.0 (Windows NT 10.0; Win64; x64; rv:56.0) Gecko/20100101 Firefox/56.0 - USERNAME : safari
SYSTEM LOG -- DATE :2017-11-06 13:59:46 - CLASS : report_perbandingan_kta - FUNCTION : index - URL : localhost:8080/golkar/index.php/report/report_perbandingan_kta?msg=Export%20F1%20Kabupaten%20Berhasil%20di%20Generate%20Ulang.&type_msg=success - USER ID : 340 - USER IP : ::1 - USER ROLE : 1 - BROWSER : Mozilla/5.0 (Windows NT 10.0; Win64; x64; rv:56.0) Gecko/20100101 Firefox/56.0 - USERNAME : safari
SYSTEM LOG -- DATE :2017-11-06 13:59:47 - CLASS : data - FUNCTION : check_login - URL : localhost:8080/golkar/index.php/ajax/data/check_login - USER ID : 340 - USER IP : ::1 - USER ROLE : 1 - BROWSER : Mozilla/5.0 (Windows NT 10.0; Win64; x64; rv:56.0) Gecko/20100101 Firefox/56.0 - USERNAME : safari
SYSTEM LOG -- DATE :2017-11-06 13:59:49 - CLASS : data - FUNCTION : kabupaten - URL : localhost:8080/golkar/index.php/ajax/data/kabupaten - USER ID : 340 - USER IP : ::1 - USER ROLE : 1 - BROWSER : Mozilla/5.0 (Windows NT 10.0; Win64; x64; rv:56.0) Gecko/20100101 Firefox/56.0 - USERNAME : safari
SYSTEM LOG -- DATE :2017-11-06 13:59:51 - CLASS : data - FUNCTION : kecamatan - URL : localhost:8080/golkar/index.php/ajax/data/kecamatan - USER ID : 340 - USER IP : ::1 - USER ROLE : 1 - BROWSER : Mozilla/5.0 (Windows NT 10.0; Win64; x64; rv:56.0) Gecko/20100101 Firefox/56.0 - USERNAME : safari
SYSTEM LOG -- DATE :2017-11-06 13:59:52 - CLASS : data - FUNCTION : check_login - URL : localhost:8080/golkar/index.php/ajax/data/check_login - USER ID : 340 - USER IP : ::1 - USER ROLE : 1 - BROWSER : Mozilla/5.0 (Windows NT 10.0; Win64; x64; rv:56.0) Gecko/20100101 Firefox/56.0 - USERNAME : safari
SYSTEM LOG -- DATE :2017-11-06 13:59:53 - CLASS : data - FUNCTION : kecamatan - URL : localhost:8080/golkar/index.php/ajax/data/kecamatan - USER ID : 340 - USER IP : ::1 - USER ROLE : 1 - BROWSER : Mozilla/5.0 (Windows NT 10.0; Win64; x64; rv:56.0) Gecko/20100101 Firefox/56.0 - USERNAME : safari
SYSTEM LOG -- DATE :2017-11-06 13:59:57 - CLASS : data - FUNCTION : check_login - URL : localhost:8080/golkar/index.php/ajax/data/check_login - USER ID : 340 - USER IP : ::1 - USER ROLE : 1 - BROWSER : Mozilla/5.0 (Windows NT 10.0; Win64; x64; rv:56.0) Gecko/20100101 Firefox/56.0 - USERNAME : safari
SYSTEM LOG -- DATE :2017-11-06 14:00:11 - CLASS : report_perbandingan_kta - FUNCTION : search - URL : localhost:8080/golkar/index.php/report/report_perbandingan_kta/search - USER ID : 340 - USER IP : ::1 - USER ROLE : 1 - BROWSER : Mozilla/5.0 (Windows NT 10.0; Win64; x64; rv:56.0) Gecko/20100101 Firefox/56.0 - USERNAME : safari
SYSTEM LOG -- DATE :2017-11-06 14:00:16 - CLASS : data - FUNCTION : check_login - URL : localhost:8080/golkar/index.php/ajax/data/check_login - USER ID : 340 - USER IP : ::1 - USER ROLE : 1 - BROWSER : Mozilla/5.0 (Windows NT 10.0; Win64; x64; rv:56.0) Gecko/20100101 Firefox/56.0 - USERNAME : safari
SYSTEM LOG -- DATE :2017-11-06 14:00:16 - CLASS : data - FUNCTION : kabupaten - URL : localhost:8080/golkar/index.php/ajax/data/kabupaten - USER ID : 340 - USER IP : ::1 - USER ROLE : 1 - BROWSER : Mozilla/5.0 (Windows NT 10.0; Win64; x64; rv:56.0) Gecko/20100101 Firefox/56.0 - USERNAME : safari
SYSTEM LOG -- DATE :2017-11-06 14:00:16 - CLASS : data - FUNCTION : kecamatan - URL : localhost:8080/golkar/index.php/ajax/data/kecamatan - USER ID : 340 - USER IP : ::1 - USER ROLE : 1 - BROWSER : Mozilla/5.0 (Windows NT 10.0; Win64; x64; rv:56.0) Gecko/20100101 Firefox/56.0 - USERNAME : safari
SYSTEM LOG -- DATE :2017-11-06 14:00:17 - CLASS : data - FUNCTION : check_login - URL : localhost:8080/golkar/index.php/ajax/data/check_login - USER ID : 340 - USER IP : ::1 - USER ROLE : 1 - BROWSER : Mozilla/5.0 (Windows NT 10.0; Win64; x64; rv:56.0) Gecko/20100101 Firefox/56.0 - USERNAME : safari
SYSTEM LOG -- DATE :2017-11-06 14:00:18 - CLASS : report_perbandingan_kta - FUNCTION : search - URL : localhost:8080/golkar/index.php/report/report_perbandingan_kta/search - USER ID : 340 - USER IP : ::1 - USER ROLE : 1 - BROWSER : Mozilla/5.0 (Windows NT 10.0; Win64; x64; rv:56.0) Gecko/20100101 Firefox/56.0 - USERNAME : safari
SYSTEM LOG -- DATE :2017-11-06 14:00:29 - CLASS : data - FUNCTION : check_login - URL : localhost:8080/golkar/index.php/ajax/data/check_login - USER ID : 340 - USER IP : ::1 - USER ROLE : 1 - BROWSER : Mozilla/5.0 (Windows NT 10.0; Win64; x64; rv:56.0) Gecko/20100101 Firefox/56.0 - USERNAME : safari
SYSTEM LOG -- DATE :2017-11-06 14:05:59 - CLASS : report_perbandingan_kta - FUNCTION : search - URL : localhost:8080/golkar/index.php/report/report_perbandingan_kta/search - USER ID : 340 - USER IP : ::1 - USER ROLE : 1 - BROWSER : Mozilla/5.0 (Windows NT 10.0; Win64; x64; rv:56.0) Gecko/20100101 Firefox/56.0 - USERNAME : safari
SYSTEM LOG -- DATE :2017-11-06 14:06:04 - CLASS : data - FUNCTION : check_login - URL : localhost:8080/golkar/index.php/ajax/data/check_login - USER ID : 340 - USER IP : ::1 - USER ROLE : 1 - BROWSER : Mozilla/5.0 (Windows NT 10.0; Win64; x64; rv:56.0) Gecko/20100101 Firefox/56.0 - USERNAME : safari
SYSTEM LOG -- DATE :2017-11-06 14:06:04 - CLASS : data - FUNCTION : kabupaten - URL : localhost:8080/golkar/index.php/ajax/data/kabupaten - USER ID : 340 - USER IP : ::1 - USER ROLE : 1 - BROWSER : Mozilla/5.0 (Windows NT 10.0; Win64; x64; rv:56.0) Gecko/20100101 Firefox/56.0 - USERNAME : safari
SYSTEM LOG -- DATE :2017-11-06 14:06:04 - CLASS : data - FUNCTION : kecamatan - URL : localhost:8080/golkar/index.php/ajax/data/kecamatan - USER ID : 340 - USER IP : ::1 - USER ROLE : 1 - BROWSER : Mozilla/5.0 (Windows NT 10.0; Win64; x64; rv:56.0) Gecko/20100101 Firefox/56.0 - USERNAME : safari
SYSTEM LOG -- DATE :2017-11-06 14:06:05 - CLASS : data - FUNCTION : check_login - URL : localhost:8080/golkar/index.php/ajax/data/check_login - USER ID : 340 - USER IP : ::1 - USER ROLE : 1 - BROWSER : Mozilla/5.0 (Windows NT 10.0; Win64; x64; rv:56.0) Gecko/20100101 Firefox/56.0 - USERNAME : safari
SYSTEM LOG -- DATE :2017-11-06 14:06:12 - CLASS : report_perbandingan_kta - FUNCTION : search - URL : localhost:8080/golkar/index.php/report/report_perbandingan_kta/search - USER ID : 340 - USER IP : ::1 - USER ROLE : 1 - BROWSER : Mozilla/5.0 (Windows NT 10.0; Win64; x64; rv:56.0) Gecko/20100101 Firefox/56.0 - USERNAME : safari
SYSTEM LOG -- DATE :2017-11-06 14:06:23 - CLASS : data - FUNCTION : check_login - URL : localhost:8080/golkar/index.php/ajax/data/check_login - USER ID : 340 - USER IP : ::1 - USER ROLE : 1 - BROWSER : Mozilla/5.0 (Windows NT 10.0; Win64; x64; rv:56.0) Gecko/20100101 Firefox/56.0 - USERNAME : safari
SYSTEM LOG -- DATE :2017-11-06 14:07:13 - CLASS : report_perbandingan_kta - FUNCTION : search - URL : localhost:8080/golkar/index.php/report/report_perbandingan_kta/search - USER ID : 340 - USER IP : ::1 - USER ROLE : 1 - BROWSER : Mozilla/5.0 (Windows NT 10.0; Win64; x64; rv:56.0) Gecko/20100101 Firefox/56.0 - USERNAME : safari
SYSTEM LOG -- DATE :2017-11-06 14:07:17 - CLASS : data - FUNCTION : check_login - URL : localhost:8080/golkar/index.php/ajax/data/check_login - USER ID : 340 - USER IP : ::1 - USER ROLE : 1 - BROWSER : Mozilla/5.0 (Windows NT 10.0; Win64; x64; rv:56.0) Gecko/20100101 Firefox/56.0 - USERNAME : safari
SYSTEM LOG -- DATE :2017-11-06 14:07:18 - CLASS : data - FUNCTION : kabupaten - URL : localhost:8080/golkar/index.php/ajax/data/kabupaten - USER ID : 340 - USER IP : ::1 - USER ROLE : 1 - BROWSER : Mozilla/5.0 (Windows NT 10.0; Win64; x64; rv:56.0) Gecko/20100101 Firefox/56.0 - USERNAME : safari
SYSTEM LOG -- DATE :2017-11-06 14:07:18 - CLASS : data - FUNCTION : kecamatan - URL : localhost:8080/golkar/index.php/ajax/data/kecamatan - USER ID : 340 - USER IP : ::1 - USER ROLE : 1 - BROWSER : Mozilla/5.0 (Windows NT 10.0; Win64; x64; rv:56.0) Gecko/20100101 Firefox/56.0 - USERNAME : safari
SYSTEM LOG -- DATE :2017-11-06 14:07:18 - CLASS : data - FUNCTION : check_login - URL : localhost:8080/golkar/index.php/ajax/data/check_login - USER ID : 340 - USER IP : ::1 - USER ROLE : 1 - BROWSER : Mozilla/5.0 (Windows NT 10.0; Win64; x64; rv:56.0) Gecko/20100101 Firefox/56.0 - USERNAME : safari
SYSTEM LOG -- DATE :2017-11-06 14:07:19 - CLASS : report_perbandingan_kta - FUNCTION : search - URL : localhost:8080/golkar/index.php/report/report_perbandingan_kta/search - USER ID : 340 - USER IP : ::1 - USER ROLE : 1 - BROWSER : Mozilla/5.0 (Windows NT 10.0; Win64; x64; rv:56.0) Gecko/20100101 Firefox/56.0 - USERNAME : safari
SYSTEM LOG -- DATE :2017-11-06 14:07:31 - CLASS : data - FUNCTION : check_login - URL : localhost:8080/golkar/index.php/ajax/data/check_login - USER ID : 340 - USER IP : ::1 - USER ROLE : 1 - BROWSER : Mozilla/5.0 (Windows NT 10.0; Win64; x64; rv:56.0) Gecko/20100101 Firefox/56.0 - USERNAME : safari
SYSTEM LOG -- DATE :2017-11-06 14:08:13 - CLASS : report_perbandingan_kta - FUNCTION : search - URL : localhost:8080/golkar/index.php/report/report_perbandingan_kta/search - USER ID : 340 - USER IP : ::1 - USER ROLE : 1 - BROWSER : Mozilla/5.0 (Windows NT 10.0; Win64; x64; rv:56.0) Gecko/20100101 Firefox/56.0 - USERNAME : safari
SYSTEM LOG -- DATE :2017-11-06 14:08:18 - CLASS : data - FUNCTION : check_login - URL : localhost:8080/golkar/index.php/ajax/data/check_login - USER ID : 340 - USER IP : ::1 - USER ROLE : 1 - BROWSER : Mozilla/5.0 (Windows NT 10.0; Win64; x64; rv:56.0) Gecko/20100101 Firefox/56.0 - USERNAME : safari
SYSTEM LOG -- DATE :2017-11-06 14:08:18 - CLASS : data - FUNCTION : kabupaten - URL : localhost:8080/golkar/index.php/ajax/data/kabupaten - USER ID : 340 - USER IP : ::1 - USER ROLE : 1 - BROWSER : Mozilla/5.0 (Windows NT 10.0; Win64; x64; rv:56.0) Gecko/20100101 Firefox/56.0 - USERNAME : safari
SYSTEM LOG -- DATE :2017-11-06 14:08:18 - CLASS : data - FUNCTION : kecamatan - URL : localhost:8080/golkar/index.php/ajax/data/kecamatan - USER ID : 340 - USER IP : ::1 - USER ROLE : 1 - BROWSER : Mozilla/5.0 (Windows NT 10.0; Win64; x64; rv:56.0) Gecko/20100101 Firefox/56.0 - USERNAME : safari
SYSTEM LOG -- DATE :2017-11-06 14:08:19 - CLASS : data - FUNCTION : check_login - URL : localhost:8080/golkar/index.php/ajax/data/check_login - USER ID : 340 - USER IP : ::1 - USER ROLE : 1 - BROWSER : Mozilla/5.0 (Windows NT 10.0; Win64; x64; rv:56.0) Gecko/20100101 Firefox/56.0 - USERNAME : safari
SYSTEM LOG -- DATE :2017-11-06 14:08:44 - CLASS : report_perbandingan_kta - FUNCTION : search - URL : localhost:8080/golkar/index.php/report/report_perbandingan_kta/search - USER ID : 340 - USER IP : ::1 - USER ROLE : 1 - BROWSER : Mozilla/5.0 (Windows NT 10.0; Win64; x64; rv:56.0) Gecko/20100101 Firefox/56.0 - USERNAME : safari
SYSTEM LOG -- DATE :2017-11-06 14:08:55 - CLASS : data - FUNCTION : check_login - URL : localhost:8080/golkar/index.php/ajax/data/check_login - USER ID : 340 - USER IP : ::1 - USER ROLE : 1 - BROWSER : Mozilla/5.0 (Windows NT 10.0; Win64; x64; rv:56.0) Gecko/20100101 Firefox/56.0 - USERNAME : safari
SYSTEM LOG -- DATE :2017-11-06 14:09:18 - CLASS : report_perbandingan_kta - FUNCTION : search - URL : localhost:8080/golkar/index.php/report/report_perbandingan_kta/search - USER ID : 340 - USER IP : ::1 - USER ROLE : 1 - BROWSER : Mozilla/5.0 (Windows NT 10.0; Win64; x64; rv:56.0) Gecko/20100101 Firefox/56.0 - USERNAME : safari
SYSTEM LOG -- DATE :2017-11-06 14:09:30 - CLASS : data - FUNCTION : check_login - URL : localhost:8080/golkar/index.php/ajax/data/check_login - USER ID : 340 - USER IP : ::1 - USER ROLE : 1 - BROWSER : Mozilla/5.0 (Windows NT 10.0; Win64; x64; rv:56.0) Gecko/20100101 Firefox/56.0 - USERNAME : safari
SYSTEM LOG -- DATE :2017-11-06 14:38:56 - CLASS : report_perbandingan_kta - FUNCTION : search - URL : localhost:8080/golkar/index.php/report/report_perbandingan_kta/search - USER ID : 340 - USER IP : ::1 - USER ROLE : 1 - BROWSER : Mozilla/5.0 (Windows NT 10.0; Win64; x64; rv:56.0) Gecko/20100101 Firefox/56.0 - USERNAME : safari
SYSTEM LOG -- DATE :2017-11-06 14:39:01 - CLASS : data - FUNCTION : check_login - URL : localhost:8080/golkar/index.php/ajax/data/check_login - USER ID : 340 - USER IP : ::1 - USER ROLE : 1 - BROWSER : Mozilla/5.0 (Windows NT 10.0; Win64; x64; rv:56.0) Gecko/20100101 Firefox/56.0 - USERNAME : safari
SYSTEM LOG -- DATE :2017-11-06 14:39:01 - CLASS : data - FUNCTION : kabupaten - URL : localhost:8080/golkar/index.php/ajax/data/kabupaten - USER ID : 340 - USER IP : ::1 - USER ROLE : 1 - BROWSER : Mozilla/5.0 (Windows NT 10.0; Win64; x64; rv:56.0) Gecko/20100101 Firefox/56.0 - USERNAME : safari
SYSTEM LOG -- DATE :2017-11-06 14:39:02 - CLASS : data - FUNCTION : kecamatan - URL : localhost:8080/golkar/index.php/ajax/data/kecamatan - USER ID : 340 - USER IP : ::1 - USER ROLE : 1 - BROWSER : Mozilla/5.0 (Windows NT 10.0; Win64; x64; rv:56.0) Gecko/20100101 Firefox/56.0 - USERNAME : safari
SYSTEM LOG -- DATE :2017-11-06 14:39:02 - CLASS : data - FUNCTION : check_login - URL : localhost:8080/golkar/index.php/ajax/data/check_login - USER ID : 340 - USER IP : ::1 - USER ROLE : 1 - BROWSER : Mozilla/5.0 (Windows NT 10.0; Win64; x64; rv:56.0) Gecko/20100101 Firefox/56.0 - USERNAME : safari
SYSTEM LOG -- DATE :2017-11-06 14:39:04 - CLASS : report_perbandingan_kta - FUNCTION : search - URL : localhost:8080/golkar/index.php/report/report_perbandingan_kta/search - USER ID : 340 - USER IP : ::1 - USER ROLE : 1 - BROWSER : Mozilla/5.0 (Windows NT 10.0; Win64; x64; rv:56.0) Gecko/20100101 Firefox/56.0 - USERNAME : safari
SYSTEM LOG -- DATE :2017-11-06 14:39:15 - CLASS : data - FUNCTION : check_login - URL : localhost:8080/golkar/index.php/ajax/data/check_login - USER ID : 340 - USER IP : ::1 - USER ROLE : 1 - BROWSER : Mozilla/5.0 (Windows NT 10.0; Win64; x64; rv:56.0) Gecko/20100101 Firefox/56.0 - USERNAME : safari
SYSTEM LOG -- DATE :2017-11-06 15:07:15 - CLASS : report_perbandingan_kta - FUNCTION : re_generate - URL : localhost:8080/golkar/index.php/report/report_perbandingan_kta/re_generate/?_id=NZMwim5099Ac%2FGuwzL68XIReAfcldgarNzwIdu2g3Av5DmgUBH%2BH65K06ED9KVZ6XWqnxBUxscD3PwCWRfMmig%3D%3D - USER ID : 340 - USER IP : ::1 - USER ROLE : 1 - BROWSER : Mozilla/5.0 (Windows NT 10.0; Win64; x64; rv:56.0) Gecko/20100101 Firefox/56.0 - USERNAME : safari
SYSTEM LOG -- DATE :2017-11-06 15:07:16 - CLASS : data - FUNCTION : check_login - URL : localhost:8080/golkar/index.php/ajax/data/check_login - USER ID : 340 - USER IP : ::1 - USER ROLE : 1 - BROWSER : Mozilla/5.0 (Windows NT 10.0; Win64; x64; rv:56.0) Gecko/20100101 Firefox/56.0 - USERNAME : safari
SYSTEM LOG -- DATE :2017-11-06 15:07:16 - CLASS : report_perbandingan_kta - FUNCTION : index - URL : localhost:8080/golkar/index.php/report/report_perbandingan_kta?msg=Export%20F1%20Kabupaten%20Berhasil%20di%20Generate%20Ulang.&type_msg=success - USER ID : 340 - USER IP : ::1 - USER ROLE : 1 - BROWSER : Mozilla/5.0 (Windows NT 10.0; Win64; x64; rv:56.0) Gecko/20100101 Firefox/56.0 - USERNAME : safari
SYSTEM LOG -- DATE :2017-11-06 15:07:17 - CLASS : data - FUNCTION : check_login - URL : localhost:8080/golkar/index.php/ajax/data/check_login - USER ID : 340 - USER IP : ::1 - USER ROLE : 1 - BROWSER : Mozilla/5.0 (Windows NT 10.0; Win64; x64; rv:56.0) Gecko/20100101 Firefox/56.0 - USERNAME : safari
SYSTEM LOG -- DATE :2017-11-06 15:07:21 - CLASS : data - FUNCTION : kabupaten - URL : localhost:8080/golkar/index.php/ajax/data/kabupaten - USER ID : 340 - USER IP : ::1 - USER ROLE : 1 - BROWSER : Mozilla/5.0 (Windows NT 10.0; Win64; x64; rv:56.0) Gecko/20100101 Firefox/56.0 - USERNAME : safari
SYSTEM LOG -- DATE :2017-11-06 15:07:22 - CLASS : data - FUNCTION : check_login - URL : localhost:8080/golkar/index.php/ajax/data/check_login - USER ID : 340 - USER IP : ::1 - USER ROLE : 1 - BROWSER : Mozilla/5.0 (Windows NT 10.0; Win64; x64; rv:56.0) Gecko/20100101 Firefox/56.0 - USERNAME : safari
SYSTEM LOG -- DATE :2017-11-06 15:07:22 - CLASS : data - FUNCTION : kecamatan - URL : localhost:8080/golkar/index.php/ajax/data/kecamatan - USER ID : 340 - USER IP : ::1 - USER ROLE : 1 - BROWSER : Mozilla/5.0 (Windows NT 10.0; Win64; x64; rv:56.0) Gecko/20100101 Firefox/56.0 - USERNAME : safari
SYSTEM LOG -- DATE :2017-11-06 15:07:25 - CLASS : report_perbandingan_kta - FUNCTION : search - URL : localhost:8080/golkar/index.php/report/report_perbandingan_kta/search - USER ID : 340 - USER IP : ::1 - USER ROLE : 1 - BROWSER : Mozilla/5.0 (Windows NT 10.0; Win64; x64; rv:56.0) Gecko/20100101 Firefox/56.0 - USERNAME : safari
SYSTEM LOG -- DATE :2017-11-06 15:07:29 - CLASS : data - FUNCTION : check_login - URL : localhost:8080/golkar/index.php/ajax/data/check_login - USER ID : 340 - USER IP : ::1 - USER ROLE : 1 - BROWSER : Mozilla/5.0 (Windows NT 10.0; Win64; x64; rv:56.0) Gecko/20100101 Firefox/56.0 - USERNAME : safari
SYSTEM LOG -- DATE :2017-11-06 15:07:30 - CLASS : data - FUNCTION : kabupaten - URL : localhost:8080/golkar/index.php/ajax/data/kabupaten - USER ID : 340 - USER IP : ::1 - USER ROLE : 1 - BROWSER : Mozilla/5.0 (Windows NT 10.0; Win64; x64; rv:56.0) Gecko/20100101 Firefox/56.0 - USERNAME : safari
SYSTEM LOG -- DATE :2017-11-06 15:07:30 - CLASS : data - FUNCTION : kecamatan - URL : localhost:8080/golkar/index.php/ajax/data/kecamatan - USER ID : 340 - USER IP : ::1 - USER ROLE : 1 - BROWSER : Mozilla/5.0 (Windows NT 10.0; Win64; x64; rv:56.0) Gecko/20100101 Firefox/56.0 - USERNAME : safari
SYSTEM LOG -- DATE :2017-11-06 15:07:30 - CLASS : data - FUNCTION : check_login - URL : localhost:8080/golkar/index.php/ajax/data/check_login - USER ID : 340 - USER IP : ::1 - USER ROLE : 1 - BROWSER : Mozilla/5.0 (Windows NT 10.0; Win64; x64; rv:56.0) Gecko/20100101 Firefox/56.0 - USERNAME : safari
SYSTEM LOG -- DATE :2017-11-06 15:07:33 - CLASS : report_perbandingan_kta - FUNCTION : search - URL : localhost:8080/golkar/index.php/report/report_perbandingan_kta/search - USER ID : 340 - USER IP : ::1 - USER ROLE : 1 - BROWSER : Mozilla/5.0 (Windows NT 10.0; Win64; x64; rv:56.0) Gecko/20100101 Firefox/56.0 - USERNAME : safari
SYSTEM LOG -- DATE :2017-11-06 15:07:44 - CLASS : data - FUNCTION : check_login - URL : localhost:8080/golkar/index.php/ajax/data/check_login - USER ID : 340 - USER IP : ::1 - USER ROLE : 1 - BROWSER : Mozilla/5.0 (Windows NT 10.0; Win64; x64; rv:56.0) Gecko/20100101 Firefox/56.0 - USERNAME : safari
SYSTEM LOG -- DATE :2017-11-06 15:07:46 - CLASS : report_perbandingan_kta - FUNCTION : search - URL : localhost:8080/golkar/index.php/report/report_perbandingan_kta/search - USER ID : 340 - USER IP : ::1 - USER ROLE : 1 - BROWSER : Mozilla/5.0 (Windows NT 10.0; Win64; x64; rv:56.0) Gecko/20100101 Firefox/56.0 - USERNAME : safari
SYSTEM LOG -- DATE :2017-11-06 15:07:58 - CLASS : data - FUNCTION : check_login - URL : localhost:8080/golkar/index.php/ajax/data/check_login - USER ID : 340 - USER IP : ::1 - USER ROLE : 1 - BROWSER : Mozilla/5.0 (Windows NT 10.0; Win64; x64; rv:56.0) Gecko/20100101 Firefox/56.0 - USERNAME : safari
SYSTEM LOG -- DATE :2017-11-06 15:08:00 - CLASS : report_perbandingan_kta - FUNCTION : search - URL : localhost:8080/golkar/index.php/report/report_perbandingan_kta/search - USER ID : 340 - USER IP : ::1 - USER ROLE : 1 - BROWSER : Mozilla/5.0 (Windows NT 10.0; Win64; x64; rv:56.0) Gecko/20100101 Firefox/56.0 - USERNAME : safari
SYSTEM LOG -- DATE :2017-11-06 15:08:11 - CLASS : data - FUNCTION : check_login - URL : localhost:8080/golkar/index.php/ajax/data/check_login - USER ID : 340 - USER IP : ::1 - USER ROLE : 1 - BROWSER : Mozilla/5.0 (Windows NT 10.0; Win64; x64; rv:56.0) Gecko/20100101 Firefox/56.0 - USERNAME : safari
SYSTEM LOG -- DATE :2017-11-06 15:08:14 - CLASS : report_perbandingan_kta - FUNCTION : search - URL : localhost:8080/golkar/index.php/report/report_perbandingan_kta/search - USER ID : 340 - USER IP : ::1 - USER ROLE : 1 - BROWSER : Mozilla/5.0 (Windows NT 10.0; Win64; x64; rv:56.0) Gecko/20100101 Firefox/56.0 - USERNAME : safari
SYSTEM LOG -- DATE :2017-11-06 15:08:25 - CLASS : data - FUNCTION : check_login - URL : localhost:8080/golkar/index.php/ajax/data/check_login - USER ID : 340 - USER IP : ::1 - USER ROLE : 1 - BROWSER : Mozilla/5.0 (Windows NT 10.0; Win64; x64; rv:56.0) Gecko/20100101 Firefox/56.0 - USERNAME : safari
SYSTEM LOG -- DATE :2017-11-06 15:08:28 - CLASS : report_perbandingan_kta - FUNCTION : search - URL : localhost:8080/golkar/index.php/report/report_perbandingan_kta/search - USER ID : 340 - USER IP : ::1 - USER ROLE : 1 - BROWSER : Mozilla/5.0 (Windows NT 10.0; Win64; x64; rv:56.0) Gecko/20100101 Firefox/56.0 - USERNAME : safari
SYSTEM LOG -- DATE :2017-11-06 15:08:40 - CLASS : data - FUNCTION : check_login - URL : localhost:8080/golkar/index.php/ajax/data/check_login - USER ID : 340 - USER IP : ::1 - USER ROLE : 1 - BROWSER : Mozilla/5.0 (Windows NT 10.0; Win64; x64; rv:56.0) Gecko/20100101 Firefox/56.0 - USERNAME : safari
SYSTEM LOG -- DATE :2017-11-06 15:08:41 - CLASS : report_perbandingan_kta - FUNCTION : search - URL : localhost:8080/golkar/index.php/report/report_perbandingan_kta/search - USER ID : 340 - USER IP : ::1 - USER ROLE : 1 - BROWSER : Mozilla/5.0 (Windows NT 10.0; Win64; x64; rv:56.0) Gecko/20100101 Firefox/56.0 - USERNAME : safari
SYSTEM LOG -- DATE :2017-11-06 15:08:53 - CLASS : data - FUNCTION : check_login - URL : localhost:8080/golkar/index.php/ajax/data/check_login - USER ID : 340 - USER IP : ::1 - USER ROLE : 1 - BROWSER : Mozilla/5.0 (Windows NT 10.0; Win64; x64; rv:56.0) Gecko/20100101 Firefox/56.0 - USERNAME : safari
SYSTEM LOG -- DATE :2017-11-06 15:08:54 - CLASS : report_perbandingan_kta - FUNCTION : search - URL : localhost:8080/golkar/index.php/report/report_perbandingan_kta/search - USER ID : 340 - USER IP : ::1 - USER ROLE : 1 - BROWSER : Mozilla/5.0 (Windows NT 10.0; Win64; x64; rv:56.0) Gecko/20100101 Firefox/56.0 - USERNAME : safari
SYSTEM LOG -- DATE :2017-11-06 15:09:06 - CLASS : data - FUNCTION : check_login - URL : localhost:8080/golkar/index.php/ajax/data/check_login - USER ID : 340 - USER IP : ::1 - USER ROLE : 1 - BROWSER : Mozilla/5.0 (Windows NT 10.0; Win64; x64; rv:56.0) Gecko/20100101 Firefox/56.0 - USERNAME : safari
SYSTEM LOG -- DATE :2017-11-06 15:09:09 - CLASS : report_perbandingan_kta - FUNCTION : search - URL : localhost:8080/golkar/index.php/report/report_perbandingan_kta/search - USER ID : 340 - USER IP : ::1 - USER ROLE : 1 - BROWSER : Mozilla/5.0 (Windows NT 10.0; Win64; x64; rv:56.0) Gecko/20100101 Firefox/56.0 - USERNAME : safari
SYSTEM LOG -- DATE :2017-11-06 15:09:21 - CLASS : data - FUNCTION : check_login - URL : localhost:8080/golkar/index.php/ajax/data/check_login - USER ID : 340 - USER IP : ::1 - USER ROLE : 1 - BROWSER : Mozilla/5.0 (Windows NT 10.0; Win64; x64; rv:56.0) Gecko/20100101 Firefox/56.0 - USERNAME : safari
SYSTEM LOG -- DATE :2017-11-06 15:09:24 - CLASS : report_perbandingan_kta - FUNCTION : search - URL : localhost:8080/golkar/index.php/report/report_perbandingan_kta/search - USER ID : 340 - USER IP : ::1 - USER ROLE : 1 - BROWSER : Mozilla/5.0 (Windows NT 10.0; Win64; x64; rv:56.0) Gecko/20100101 Firefox/56.0 - USERNAME : safari
SYSTEM LOG -- DATE :2017-11-06 15:09:36 - CLASS : data - FUNCTION : check_login - URL : localhost:8080/golkar/index.php/ajax/data/check_login - USER ID : 340 - USER IP : ::1 - USER ROLE : 1 - BROWSER : Mozilla/5.0 (Windows NT 10.0; Win64; x64; rv:56.0) Gecko/20100101 Firefox/56.0 - USERNAME : safari
SYSTEM LOG -- DATE :2017-11-06 15:09:38 - CLASS : report_perbandingan_kta - FUNCTION : search - URL : localhost:8080/golkar/index.php/report/report_perbandingan_kta/search - USER ID : 340 - USER IP : ::1 - USER ROLE : 1 - BROWSER : Mozilla/5.0 (Windows NT 10.0; Win64; x64; rv:56.0) Gecko/20100101 Firefox/56.0 - USERNAME : safari
SYSTEM LOG -- DATE :2017-11-06 15:09:50 - CLASS : data - FUNCTION : check_login - URL : localhost:8080/golkar/index.php/ajax/data/check_login - USER ID : 340 - USER IP : ::1 - USER ROLE : 1 - BROWSER : Mozilla/5.0 (Windows NT 10.0; Win64; x64; rv:56.0) Gecko/20100101 Firefox/56.0 - USERNAME : safari
SYSTEM LOG -- DATE :2017-11-06 15:10:05 - CLASS : report_perbandingan_kta - FUNCTION : search - URL : localhost:8080/golkar/index.php/report/report_perbandingan_kta/search - USER ID : 340 - USER IP : ::1 - USER ROLE : 1 - BROWSER : Mozilla/5.0 (Windows NT 10.0; Win64; x64; rv:56.0) Gecko/20100101 Firefox/56.0 - USERNAME : safari
SYSTEM LOG -- DATE :2017-11-06 15:10:16 - CLASS : data - FUNCTION : check_login - URL : localhost:8080/golkar/index.php/ajax/data/check_login - USER ID : 340 - USER IP : ::1 - USER ROLE : 1 - BROWSER : Mozilla/5.0 (Windows NT 10.0; Win64; x64; rv:56.0) Gecko/20100101 Firefox/56.0 - USERNAME : safari
SYSTEM LOG -- DATE :2017-11-06 15:10:22 - CLASS : report_perbandingan_kta - FUNCTION : search - URL : localhost:8080/golkar/index.php/report/report_perbandingan_kta/search - USER ID : 340 - USER IP : ::1 - USER ROLE : 1 - BROWSER : Mozilla/5.0 (Windows NT 10.0; Win64; x64; rv:56.0) Gecko/20100101 Firefox/56.0 - USERNAME : safari
SYSTEM LOG -- DATE :2017-11-06 15:10:25 - CLASS : data - FUNCTION : check_login - URL : localhost:8080/golkar/index.php/ajax/data/check_login - USER ID : 340 - USER IP : ::1 - USER ROLE : 1 - BROWSER : Mozilla/5.0 (Windows NT 10.0; Win64; x64; rv:56.0) Gecko/20100101 Firefox/56.0 - USERNAME : safari
SYSTEM LOG -- DATE :2017-11-06 18:48:23 - CLASS : me - FUNCTION : index - URL : localhost:8080/golkar/index.php/meme/me - USER ID : 340 - USER IP : ::1 - USER ROLE : 1 - BROWSER : Mozilla/5.0 (Windows NT 10.0; Win64; x64; rv:56.0) Gecko/20100101 Firefox/56.0 - USERNAME : safari
SYSTEM LOG -- DATE :2017-11-06 18:48:24 - CLASS : data - FUNCTION : check_login - URL : localhost:8080/golkar/index.php/ajax/data/check_login - USER ID : 340 - USER IP : ::1 - USER ROLE : 1 - BROWSER : Mozilla/5.0 (Windows NT 10.0; Win64; x64; rv:56.0) Gecko/20100101 Firefox/56.0 - USERNAME : safari
SYSTEM LOG -- DATE :2017-11-06 18:48:24 - CLASS : me - FUNCTION : verifikasi - URL : localhost:8080/golkar/index.php/meme/me/verifikasi - USER ID : 340 - USER IP : ::1 - USER ROLE : 1 - BROWSER : Mozilla/5.0 (Windows NT 10.0; Win64; x64; rv:56.0) Gecko/20100101 Firefox/56.0 - USERNAME : safari
SYSTEM LOG -- DATE :2017-11-06 18:48:26 - CLASS : data - FUNCTION : check_login - URL : localhost:8080/golkar/index.php/ajax/data/check_login - USER ID : 340 - USER IP : ::1 - USER ROLE : 1 - BROWSER : Mozilla/5.0 (Windows NT 10.0; Win64; x64; rv:56.0) Gecko/20100101 Firefox/56.0 - USERNAME : safari
SYSTEM LOG -- DATE :2017-11-06 18:48:42 - CLASS : data - FUNCTION : get_verification_data - URL : localhost:8080/golkar/index.php/ajax/data/get_verification_data - USER ID : 340 - USER IP : ::1 - USER ROLE : 1 - BROWSER : Mozilla/5.0 (Windows NT 10.0; Win64; x64; rv:56.0) Gecko/20100101 Firefox/56.0 - USERNAME : safari
SYSTEM LOG -- DATE :2017-11-06 18:48:46 - CLASS : data - FUNCTION : check_login - URL : localhost:8080/golkar/index.php/ajax/data/check_login - USER ID : 340 - USER IP : ::1 - USER ROLE : 1 - BROWSER : Mozilla/5.0 (Windows NT 10.0; Win64; x64; rv:56.0) Gecko/20100101 Firefox/56.0 - USERNAME : safari
SYSTEM LOG -- DATE :2017-11-06 18:48:54 - CLASS : data - FUNCTION : get_verification_data - URL : localhost:8080/golkar/index.php/ajax/data/get_verification_data - USER ID : 340 - USER IP : ::1 - USER ROLE : 1 - BROWSER : Mozilla/5.0 (Windows NT 10.0; Win64; x64; rv:56.0) Gecko/20100101 Firefox/56.0 - USERNAME : safari
SYSTEM LOG -- DATE :2017-11-06 18:48:56 - CLASS : data - FUNCTION : check_login - URL : localhost:8080/golkar/index.php/ajax/data/check_login - USER ID : 340 - USER IP : ::1 - USER ROLE : 1 - BROWSER : Mozilla/5.0 (Windows NT 10.0; Win64; x64; rv:56.0) Gecko/20100101 Firefox/56.0 - USERNAME : safari
SYSTEM LOG -- DATE :2017-11-06 18:48:58 - CLASS : data - FUNCTION : get_verification_data - URL : localhost:8080/golkar/index.php/ajax/data/get_verification_data - USER ID : 340 - USER IP : ::1 - USER ROLE : 1 - BROWSER : Mozilla/5.0 (Windows NT 10.0; Win64; x64; rv:56.0) Gecko/20100101 Firefox/56.0 - USERNAME : safari
SYSTEM LOG -- DATE :2017-11-06 18:49:01 - CLASS : data - FUNCTION : check_login - URL : localhost:8080/golkar/index.php/ajax/data/check_login - USER ID : 340 - USER IP : ::1 - USER ROLE : 1 - BROWSER : Mozilla/5.0 (Windows NT 10.0; Win64; x64; rv:56.0) Gecko/20100101 Firefox/56.0 - USERNAME : safari
SYSTEM LOG -- DATE :2017-11-06 18:49:02 - CLASS : data - FUNCTION : get_verification_data - URL : localhost:8080/golkar/index.php/ajax/data/get_verification_data - USER ID : 340 - USER IP : ::1 - USER ROLE : 1 - BROWSER : Mozilla/5.0 (Windows NT 10.0; Win64; x64; rv:56.0) Gecko/20100101 Firefox/56.0 - USERNAME : safari
SYSTEM LOG -- DATE :2017-11-06 18:49:06 - CLASS : data - FUNCTION : check_login - URL : localhost:8080/golkar/index.php/ajax/data/check_login - USER ID : 340 - USER IP : ::1 - USER ROLE : 1 - BROWSER : Mozilla/5.0 (Windows NT 10.0; Win64; x64; rv:56.0) Gecko/20100101 Firefox/56.0 - USERNAME : safari
