SYSTEM LOG -- DATE :2017-09-19 14:17:28 - CLASS : me - FUNCTION : index - URL : localhost:8080/golkar/index.php/meme/me - USER ID : 340 - USER IP : ::1 - USER ROLE : 1 - BROWSER : Mozilla/5.0 (Windows NT 10.0; Win64; x64) AppleWebKit/537.36 (KHTML, like Gecko) Chrome/60.0.3112.113 Safari/537.36 - USERNAME : safari - VAR GET: [] - VAR POST: []
SYSTEM LOG -- DATE :2017-09-19 14:17:30 - CLASS : data - FUNCTION : check_login - URL : localhost:8080/golkar/index.php/ajax/data/check_login - USER ID : 340 - USER IP : ::1 - USER ROLE : 1 - BROWSER : Mozilla/5.0 (Windows NT 10.0; Win64; x64) AppleWebKit/537.36 (KHTML, like Gecko) Chrome/60.0.3112.113 Safari/537.36 - USERNAME : safari - VAR GET: [] - VAR POST: []
SYSTEM LOG -- DATE :2017-09-19 14:19:53 - CLASS : master_anggota - FUNCTION : index - URL : localhost:8080/golkar/index.php/master/master_anggota - USER ID : 340 - USER IP : ::1 - USER ROLE : 1 - BROWSER : Mozilla/5.0 (Windows NT 10.0; Win64; x64) AppleWebKit/537.36 (KHTML, like Gecko) Chrome/60.0.3112.113 Safari/537.36 - USERNAME : safari
SYSTEM LOG -- DATE :2017-09-19 14:19:54 - CLASS : data - FUNCTION : check_login - URL : localhost:8080/golkar/index.php/ajax/data/check_login - USER ID : 340 - USER IP : ::1 - USER ROLE : 1 - BROWSER : Mozilla/5.0 (Windows NT 10.0; Win64; x64) AppleWebKit/537.36 (KHTML, like Gecko) Chrome/60.0.3112.113 Safari/537.36 - USERNAME : safari
SYSTEM LOG -- DATE :2017-09-19 14:19:57 - CLASS : pendaftaran_kartu - FUNCTION : index - URL : localhost:8080/golkar/index.php/master/pendaftaran_kartu - USER ID : 340 - USER IP : ::1 - USER ROLE : 1 - BROWSER : Mozilla/5.0 (Windows NT 10.0; Win64; x64) AppleWebKit/537.36 (KHTML, like Gecko) Chrome/60.0.3112.113 Safari/537.36 - USERNAME : safari
SYSTEM LOG -- DATE :2017-09-19 14:21:55 - CLASS : data - FUNCTION : check_login - URL : localhost:8080/golkar/index.php/ajax/data/check_login - USER ID : 340 - USER IP : ::1 - USER ROLE : 1 - BROWSER : Mozilla/5.0 (Windows NT 10.0; Win64; x64) AppleWebKit/537.36 (KHTML, like Gecko) Chrome/60.0.3112.113 Safari/537.36 - USERNAME : safari
SYSTEM LOG -- DATE :2017-09-19 14:22:07 - CLASS : me - FUNCTION : index - URL : localhost:8080/golkar/index.php - USER ID : 340 - USER IP : ::1 - USER ROLE : 1 - BROWSER : Mozilla/5.0 (Windows NT 10.0; Win64; x64) AppleWebKit/537.36 (KHTML, like Gecko) Chrome/60.0.3112.113 Safari/537.36 - USERNAME : safari
SYSTEM LOG -- DATE :2017-09-19 14:22:08 - CLASS : data - FUNCTION : check_login - URL : localhost:8080/golkar/index.php/ajax/data/check_login - USER ID : 340 - USER IP : ::1 - USER ROLE : 1 - BROWSER : Mozilla/5.0 (Windows NT 10.0; Win64; x64) AppleWebKit/537.36 (KHTML, like Gecko) Chrome/60.0.3112.113 Safari/537.36 - USERNAME : safari
SYSTEM LOG -- DATE :2017-09-19 14:32:19 - CLASS : me - FUNCTION : index - URL : localhost:8080/golkar/index.php/meme/me - USER ID : 340 - USER IP : ::1 - USER ROLE : 1 - BROWSER : Mozilla/5.0 (Windows NT 10.0; Win64; x64) AppleWebKit/537.36 (KHTML, like Gecko) Chrome/60.0.3112.113 Safari/537.36 - USERNAME : safari
SYSTEM LOG -- DATE :2017-09-19 14:32:20 - CLASS : data - FUNCTION : check_login - URL : localhost:8080/golkar/index.php/ajax/data/check_login - USER ID : 340 - USER IP : ::1 - USER ROLE : 1 - BROWSER : Mozilla/5.0 (Windows NT 10.0; Win64; x64) AppleWebKit/537.36 (KHTML, like Gecko) Chrome/60.0.3112.113 Safari/537.36 - USERNAME : safari
SYSTEM LOG -- DATE :2017-09-19 14:32:22 - CLASS : me - FUNCTION : detail_kta - URL : localhost:8080/golkar/index.php/meme/me/detail_kta - USER ID : 340 - USER IP : ::1 - USER ROLE : 1 - BROWSER : Mozilla/5.0 (Windows NT 10.0; Win64; x64) AppleWebKit/537.36 (KHTML, like Gecko) Chrome/60.0.3112.113 Safari/537.36 - USERNAME : safari
SYSTEM LOG -- DATE :2017-09-19 14:32:25 - CLASS : data - FUNCTION : check_login - URL : localhost:8080/golkar/index.php/ajax/data/check_login - USER ID : 340 - USER IP : ::1 - USER ROLE : 1 - BROWSER : Mozilla/5.0 (Windows NT 10.0; Win64; x64) AppleWebKit/537.36 (KHTML, like Gecko) Chrome/60.0.3112.113 Safari/537.36 - USERNAME : safari
SYSTEM LOG -- DATE :2017-09-19 14:39:42 - CLASS : me - FUNCTION : detail_kta - URL : localhost:8080/golkar/index.php/meme/me/detail_kta - USER ID : 340 - USER IP : ::1 - USER ROLE : 1 - BROWSER : Mozilla/5.0 (Windows NT 10.0; Win64; x64) AppleWebKit/537.36 (KHTML, like Gecko) Chrome/60.0.3112.113 Safari/537.36 - USERNAME : safari
SYSTEM LOG -- DATE :2017-09-19 14:39:45 - CLASS : data - FUNCTION : check_login - URL : localhost:8080/golkar/index.php/ajax/data/check_login - USER ID : 340 - USER IP : ::1 - USER ROLE : 1 - BROWSER : Mozilla/5.0 (Windows NT 10.0; Win64; x64) AppleWebKit/537.36 (KHTML, like Gecko) Chrome/60.0.3112.113 Safari/537.36 - USERNAME : safari
SYSTEM LOG -- DATE :2017-09-19 14:39:48 - CLASS : me - FUNCTION : detail_kta - URL : localhost:8080/golkar/index.php/meme/me/detail_kta - USER ID : 340 - USER IP : ::1 - USER ROLE : 1 - BROWSER : Mozilla/5.0 (Windows NT 10.0; Win64; x64) AppleWebKit/537.36 (KHTML, like Gecko) Chrome/60.0.3112.113 Safari/537.36 - USERNAME : safari
SYSTEM LOG -- DATE :2017-09-19 14:39:50 - CLASS : data - FUNCTION : check_login - URL : localhost:8080/golkar/index.php/ajax/data/check_login - USER ID : 340 - USER IP : ::1 - USER ROLE : 1 - BROWSER : Mozilla/5.0 (Windows NT 10.0; Win64; x64) AppleWebKit/537.36 (KHTML, like Gecko) Chrome/60.0.3112.113 Safari/537.36 - USERNAME : safari
SYSTEM LOG -- DATE :2017-09-19 14:40:24 - CLASS : me - FUNCTION : detail_kta - URL : localhost:8080/golkar/index.php/meme/me/detail_kta - USER ID : 340 - USER IP : ::1 - USER ROLE : 1 - BROWSER : Mozilla/5.0 (Windows NT 10.0; Win64; x64) AppleWebKit/537.36 (KHTML, like Gecko) Chrome/60.0.3112.113 Safari/537.36 - USERNAME : safari
SYSTEM LOG -- DATE :2017-09-19 14:40:26 - CLASS : data - FUNCTION : get_growing_data - URL : localhost:8080/golkar/index.php/ajax/data/get_growing_data - USER ID : 340 - USER IP : ::1 - USER ROLE : 1 - BROWSER : Mozilla/5.0 (Windows NT 10.0; Win64; x64) AppleWebKit/537.36 (KHTML, like Gecko) Chrome/60.0.3112.113 Safari/537.36 - USERNAME : safari
SYSTEM LOG -- DATE :2017-09-19 14:40:29 - CLASS : data - FUNCTION : get_area_data - URL : localhost:8080/golkar/index.php/ajax/data/get_area_data - USER ID : 340 - USER IP : ::1 - USER ROLE : 1 - BROWSER : Mozilla/5.0 (Windows NT 10.0; Win64; x64) AppleWebKit/537.36 (KHTML, like Gecko) Chrome/60.0.3112.113 Safari/537.36 - USERNAME : safari
SYSTEM LOG -- DATE :2017-09-19 14:40:30 - CLASS : data - FUNCTION : get_gender_data - URL : localhost:8080/golkar/index.php/ajax/data/get_gender_data - USER ID : 340 - USER IP : ::1 - USER ROLE : 1 - BROWSER : Mozilla/5.0 (Windows NT 10.0; Win64; x64) AppleWebKit/537.36 (KHTML, like Gecko) Chrome/60.0.3112.113 Safari/537.36 - USERNAME : safari
SYSTEM LOG -- DATE :2017-09-19 14:40:31 - CLASS : data - FUNCTION : get_status_data - URL : localhost:8080/golkar/index.php/ajax/data/get_status_data - USER ID : 340 - USER IP : ::1 - USER ROLE : 1 - BROWSER : Mozilla/5.0 (Windows NT 10.0; Win64; x64) AppleWebKit/537.36 (KHTML, like Gecko) Chrome/60.0.3112.113 Safari/537.36 - USERNAME : safari
SYSTEM LOG -- DATE :2017-09-19 14:40:32 - CLASS : data - FUNCTION : check_login - URL : localhost:8080/golkar/index.php/ajax/data/check_login - USER ID : 340 - USER IP : ::1 - USER ROLE : 1 - BROWSER : Mozilla/5.0 (Windows NT 10.0; Win64; x64) AppleWebKit/537.36 (KHTML, like Gecko) Chrome/60.0.3112.113 Safari/537.36 - USERNAME : safari
SYSTEM LOG -- DATE :2017-09-19 14:40:49 - CLASS : me - FUNCTION : detail_kta - URL : localhost:8080/golkar/index.php/meme/me/detail_kta - USER ID : 340 - USER IP : ::1 - USER ROLE : 1 - BROWSER : Mozilla/5.0 (Windows NT 10.0; Win64; x64) AppleWebKit/537.36 (KHTML, like Gecko) Chrome/60.0.3112.113 Safari/537.36 - USERNAME : safari
SYSTEM LOG -- DATE :2017-09-19 14:40:52 - CLASS : data - FUNCTION : get_growing_data - URL : localhost:8080/golkar/index.php/ajax/data/get_growing_data - USER ID : 340 - USER IP : ::1 - USER ROLE : 1 - BROWSER : Mozilla/5.0 (Windows NT 10.0; Win64; x64) AppleWebKit/537.36 (KHTML, like Gecko) Chrome/60.0.3112.113 Safari/537.36 - USERNAME : safari
SYSTEM LOG -- DATE :2017-09-19 14:40:54 - CLASS : data - FUNCTION : get_area_data - URL : localhost:8080/golkar/index.php/ajax/data/get_area_data - USER ID : 340 - USER IP : ::1 - USER ROLE : 1 - BROWSER : Mozilla/5.0 (Windows NT 10.0; Win64; x64) AppleWebKit/537.36 (KHTML, like Gecko) Chrome/60.0.3112.113 Safari/537.36 - USERNAME : safari
SYSTEM LOG -- DATE :2017-09-19 14:40:54 - CLASS : data - FUNCTION : get_gender_data - URL : localhost:8080/golkar/index.php/ajax/data/get_gender_data - USER ID : 340 - USER IP : ::1 - USER ROLE : 1 - BROWSER : Mozilla/5.0 (Windows NT 10.0; Win64; x64) AppleWebKit/537.36 (KHTML, like Gecko) Chrome/60.0.3112.113 Safari/537.36 - USERNAME : safari
SYSTEM LOG -- DATE :2017-09-19 14:40:56 - CLASS : data - FUNCTION : get_status_data - URL : localhost:8080/golkar/index.php/ajax/data/get_status_data - USER ID : 340 - USER IP : ::1 - USER ROLE : 1 - BROWSER : Mozilla/5.0 (Windows NT 10.0; Win64; x64) AppleWebKit/537.36 (KHTML, like Gecko) Chrome/60.0.3112.113 Safari/537.36 - USERNAME : safari
SYSTEM LOG -- DATE :2017-09-19 14:40:56 - CLASS : data - FUNCTION : check_login - URL : localhost:8080/golkar/index.php/ajax/data/check_login - USER ID : 340 - USER IP : ::1 - USER ROLE : 1 - BROWSER : Mozilla/5.0 (Windows NT 10.0; Win64; x64) AppleWebKit/537.36 (KHTML, like Gecko) Chrome/60.0.3112.113 Safari/537.36 - USERNAME : safari
SYSTEM LOG -- DATE :2017-09-19 15:15:37 - CLASS : upload_formulir - FUNCTION : index - URL : localhost:8080/golkar/index.php/master/upload_formulir - USER ID : 340 - USER IP : ::1 - USER ROLE : 1 - BROWSER : Mozilla/5.0 (Windows NT 10.0; Win64; x64) AppleWebKit/537.36 (KHTML, like Gecko) Chrome/60.0.3112.113 Safari/537.36 - USERNAME : safari
SYSTEM LOG -- DATE :2017-09-19 15:15:39 - CLASS : upload_formulir - FUNCTION : show_table - URL : localhost:8080/golkar/index.php/master/upload_formulir/show_table?_=1505808939648 - USER ID : 340 - USER IP : ::1 - USER ROLE : 1 - BROWSER : Mozilla/5.0 (Windows NT 10.0; Win64; x64) AppleWebKit/537.36 (KHTML, like Gecko) Chrome/60.0.3112.113 Safari/537.36 - USERNAME : safari
SYSTEM LOG -- DATE :2017-09-19 15:15:53 - CLASS : data - FUNCTION : check_login - URL : localhost:8080/golkar/index.php/ajax/data/check_login - USER ID : 340 - USER IP : ::1 - USER ROLE : 1 - BROWSER : Mozilla/5.0 (Windows NT 10.0; Win64; x64) AppleWebKit/537.36 (KHTML, like Gecko) Chrome/60.0.3112.113 Safari/537.36 - USERNAME : safari
SYSTEM LOG -- DATE :2017-09-19 15:15:53 - CLASS : approve_anggota - FUNCTION : index - URL : localhost:8080/golkar/index.php/master/approve_anggota - USER ID : 340 - USER IP : ::1 - USER ROLE : 1 - BROWSER : Mozilla/5.0 (Windows NT 10.0; Win64; x64) AppleWebKit/537.36 (KHTML, like Gecko) Chrome/60.0.3112.113 Safari/537.36 - USERNAME : safari
SYSTEM LOG -- DATE :2017-09-19 15:15:53 - CLASS : data - FUNCTION : check_login - URL : localhost:8080/golkar/index.php/ajax/data/check_login - USER ID : 340 - USER IP : ::1 - USER ROLE : 1 - BROWSER : Mozilla/5.0 (Windows NT 10.0; Win64; x64) AppleWebKit/537.36 (KHTML, like Gecko) Chrome/60.0.3112.113 Safari/537.36 - USERNAME : safari
SYSTEM LOG -- DATE :2017-09-19 15:15:59 - CLASS : approve_anggota - FUNCTION : index - URL : localhost:8080/golkar/index.php/master/approve_anggota - USER ID : 340 - USER IP : ::1 - USER ROLE : 1 - BROWSER : Mozilla/5.0 (Windows NT 10.0; Win64; x64) AppleWebKit/537.36 (KHTML, like Gecko) Chrome/60.0.3112.113 Safari/537.36 - USERNAME : safari
SYSTEM LOG -- DATE :2017-09-19 15:16:31 - CLASS : data - FUNCTION : check_login - URL : localhost:8080/golkar/index.php/ajax/data/check_login - USER ID : 340 - USER IP : ::1 - USER ROLE : 1 - BROWSER : Mozilla/5.0 (Windows NT 10.0; Win64; x64) AppleWebKit/537.36 (KHTML, like Gecko) Chrome/60.0.3112.113 Safari/537.36 - USERNAME : safari
SYSTEM LOG -- DATE :2017-09-19 15:18:41 - CLASS : me - FUNCTION : index - URL : localhost:8080/golkar/index.php/meme/me - USER ID : 340 - USER IP : ::1 - USER ROLE : 1 - BROWSER : Mozilla/5.0 (Windows NT 10.0; Win64; x64) AppleWebKit/537.36 (KHTML, like Gecko) Chrome/60.0.3112.113 Safari/537.36 - USERNAME : safari
SYSTEM LOG -- DATE :2017-09-19 15:18:42 - CLASS : data - FUNCTION : check_login - URL : localhost:8080/golkar/index.php/ajax/data/check_login - USER ID : 340 - USER IP : ::1 - USER ROLE : 1 - BROWSER : Mozilla/5.0 (Windows NT 10.0; Win64; x64) AppleWebKit/537.36 (KHTML, like Gecko) Chrome/60.0.3112.113 Safari/537.36 - USERNAME : safari
SYSTEM LOG -- DATE :2017-09-19 15:18:51 - CLASS : approve_anggota - FUNCTION : index - URL : localhost:8080/golkar/index.php/master/approve_anggota - USER ID : 340 - USER IP : ::1 - USER ROLE : 1 - BROWSER : Mozilla/5.0 (Windows NT 10.0; Win64; x64) AppleWebKit/537.36 (KHTML, like Gecko) Chrome/60.0.3112.113 Safari/537.36 - USERNAME : safari
SYSTEM LOG -- DATE :2017-09-19 15:19:23 - CLASS : data - FUNCTION : check_login - URL : localhost:8080/golkar/index.php/ajax/data/check_login - USER ID : 340 - USER IP : ::1 - USER ROLE : 1 - BROWSER : Mozilla/5.0 (Windows NT 10.0; Win64; x64) AppleWebKit/537.36 (KHTML, like Gecko) Chrome/60.0.3112.113 Safari/537.36 - USERNAME : safari
SYSTEM LOG -- DATE :2017-09-19 15:20:19 - CLASS : approve_anggota - FUNCTION : assign - URL : localhost:8080/golkar/index.php/master/approve_anggota/assign - USER ID : 340 - USER IP : ::1 - USER ROLE : 1 - BROWSER : Mozilla/5.0 (Windows NT 10.0; Win64; x64) AppleWebKit/537.36 (KHTML, like Gecko) Chrome/60.0.3112.113 Safari/537.36 - USERNAME : safari
SYSTEM LOG -- DATE :2017-09-19 15:28:51 - CLASS : me - FUNCTION : index - URL : localhost:8080/golkar/index.php - USER ID : 340 - USER IP : ::1 - USER ROLE : 1 - BROWSER : Mozilla/5.0 (Windows NT 10.0; Win64; x64) AppleWebKit/537.36 (KHTML, like Gecko) Chrome/60.0.3112.113 Safari/537.36 - USERNAME : safari
SYSTEM LOG -- DATE :2017-09-19 15:28:52 - CLASS : data - FUNCTION : check_login - URL : localhost:8080/golkar/index.php/ajax/data/check_login - USER ID : 340 - USER IP : ::1 - USER ROLE : 1 - BROWSER : Mozilla/5.0 (Windows NT 10.0; Win64; x64) AppleWebKit/537.36 (KHTML, like Gecko) Chrome/60.0.3112.113 Safari/537.36 - USERNAME : safari
SYSTEM LOG -- DATE :2017-09-19 15:32:07 - CLASS : cek_kesiapan_data - FUNCTION : index - URL : localhost:8080/golkar/index.php/verifikasi/cek_kesiapan_data - USER ID : 340 - USER IP : ::1 - USER ROLE : 1 - BROWSER : Mozilla/5.0 (Windows NT 10.0; Win64; x64) AppleWebKit/537.36 (KHTML, like Gecko) Chrome/60.0.3112.113 Safari/537.36 - USERNAME : safari
SYSTEM LOG -- DATE :2017-09-19 15:32:07 - CLASS : data - FUNCTION : check_login - URL : localhost:8080/golkar/index.php/ajax/data/check_login - USER ID : 340 - USER IP : ::1 - USER ROLE : 1 - BROWSER : Mozilla/5.0 (Windows NT 10.0; Win64; x64) AppleWebKit/537.36 (KHTML, like Gecko) Chrome/60.0.3112.113 Safari/537.36 - USERNAME : safari
SYSTEM LOG -- DATE :2017-09-19 15:32:09 - CLASS : data - FUNCTION : kabupaten - URL : localhost:8080/golkar/index.php/ajax/data/kabupaten - USER ID : 340 - USER IP : ::1 - USER ROLE : 1 - BROWSER : Mozilla/5.0 (Windows NT 10.0; Win64; x64) AppleWebKit/537.36 (KHTML, like Gecko) Chrome/60.0.3112.113 Safari/537.36 - USERNAME : safari
SYSTEM LOG -- DATE :2017-09-19 15:32:11 - CLASS : data - FUNCTION : kecamatan - URL : localhost:8080/golkar/index.php/ajax/data/kecamatan - USER ID : 340 - USER IP : ::1 - USER ROLE : 1 - BROWSER : Mozilla/5.0 (Windows NT 10.0; Win64; x64) AppleWebKit/537.36 (KHTML, like Gecko) Chrome/60.0.3112.113 Safari/537.36 - USERNAME : safari
SYSTEM LOG -- DATE :2017-09-19 15:32:12 - CLASS : data - FUNCTION : check_login - URL : localhost:8080/golkar/index.php/ajax/data/check_login - USER ID : 340 - USER IP : ::1 - USER ROLE : 1 - BROWSER : Mozilla/5.0 (Windows NT 10.0; Win64; x64) AppleWebKit/537.36 (KHTML, like Gecko) Chrome/60.0.3112.113 Safari/537.36 - USERNAME : safari
SYSTEM LOG -- DATE :2017-09-19 15:32:13 - CLASS : data - FUNCTION : kabupaten - URL : localhost:8080/golkar/index.php/ajax/data/kabupaten - USER ID : 340 - USER IP : ::1 - USER ROLE : 1 - BROWSER : Mozilla/5.0 (Windows NT 10.0; Win64; x64) AppleWebKit/537.36 (KHTML, like Gecko) Chrome/60.0.3112.113 Safari/537.36 - USERNAME : safari
SYSTEM LOG -- DATE :2017-09-19 15:32:14 - CLASS : data - FUNCTION : kecamatan - URL : localhost:8080/golkar/index.php/ajax/data/kecamatan - USER ID : 340 - USER IP : ::1 - USER ROLE : 1 - BROWSER : Mozilla/5.0 (Windows NT 10.0; Win64; x64) AppleWebKit/537.36 (KHTML, like Gecko) Chrome/60.0.3112.113 Safari/537.36 - USERNAME : safari
SYSTEM LOG -- DATE :2017-09-19 15:32:15 - CLASS : data - FUNCTION : kelurahan - URL : localhost:8080/golkar/index.php/ajax/data/kelurahan - USER ID : 340 - USER IP : ::1 - USER ROLE : 1 - BROWSER : Mozilla/5.0 (Windows NT 10.0; Win64; x64) AppleWebKit/537.36 (KHTML, like Gecko) Chrome/60.0.3112.113 Safari/537.36 - USERNAME : safari
SYSTEM LOG -- DATE :2017-09-19 15:32:16 - CLASS : cek_kesiapan_data - FUNCTION : search - URL : localhost:8080/golkar/index.php/verifikasi/cek_kesiapan_data/search - USER ID : 340 - USER IP : ::1 - USER ROLE : 1 - BROWSER : Mozilla/5.0 (Windows NT 10.0; Win64; x64) AppleWebKit/537.36 (KHTML, like Gecko) Chrome/60.0.3112.113 Safari/537.36 - USERNAME : safari
SYSTEM LOG -- DATE :2017-09-19 15:32:17 - CLASS : data - FUNCTION : kabupaten - URL : localhost:8080/golkar/index.php/ajax/data/kabupaten - USER ID : 340 - USER IP : ::1 - USER ROLE : 1 - BROWSER : Mozilla/5.0 (Windows NT 10.0; Win64; x64) AppleWebKit/537.36 (KHTML, like Gecko) Chrome/60.0.3112.113 Safari/537.36 - USERNAME : safari
SYSTEM LOG -- DATE :2017-09-19 15:32:17 - CLASS : data - FUNCTION : kecamatan - URL : localhost:8080/golkar/index.php/ajax/data/kecamatan - USER ID : 340 - USER IP : ::1 - USER ROLE : 1 - BROWSER : Mozilla/5.0 (Windows NT 10.0; Win64; x64) AppleWebKit/537.36 (KHTML, like Gecko) Chrome/60.0.3112.113 Safari/537.36 - USERNAME : safari
SYSTEM LOG -- DATE :2017-09-19 15:32:17 - CLASS : data - FUNCTION : kelurahan - URL : localhost:8080/golkar/index.php/ajax/data/kelurahan - USER ID : 340 - USER IP : ::1 - USER ROLE : 1 - BROWSER : Mozilla/5.0 (Windows NT 10.0; Win64; x64) AppleWebKit/537.36 (KHTML, like Gecko) Chrome/60.0.3112.113 Safari/537.36 - USERNAME : safari
SYSTEM LOG -- DATE :2017-09-19 15:32:18 - CLASS : data - FUNCTION : check_login - URL : localhost:8080/golkar/index.php/ajax/data/check_login - USER ID : 340 - USER IP : ::1 - USER ROLE : 1 - BROWSER : Mozilla/5.0 (Windows NT 10.0; Win64; x64) AppleWebKit/537.36 (KHTML, like Gecko) Chrome/60.0.3112.113 Safari/537.36 - USERNAME : safari
SYSTEM LOG -- DATE :2017-09-19 15:32:25 - CLASS : data - FUNCTION : kecamatan - URL : localhost:8080/golkar/index.php/ajax/data/kecamatan - USER ID : 340 - USER IP : ::1 - USER ROLE : 1 - BROWSER : Mozilla/5.0 (Windows NT 10.0; Win64; x64) AppleWebKit/537.36 (KHTML, like Gecko) Chrome/60.0.3112.113 Safari/537.36 - USERNAME : safari
SYSTEM LOG -- DATE :2017-09-19 15:32:26 - CLASS : cek_kesiapan_data - FUNCTION : search - URL : localhost:8080/golkar/index.php/verifikasi/cek_kesiapan_data/search - USER ID : 340 - USER IP : ::1 - USER ROLE : 1 - BROWSER : Mozilla/5.0 (Windows NT 10.0; Win64; x64) AppleWebKit/537.36 (KHTML, like Gecko) Chrome/60.0.3112.113 Safari/537.36 - USERNAME : safari
SYSTEM LOG -- DATE :2017-09-19 15:32:31 - CLASS : data - FUNCTION : check_login - URL : localhost:8080/golkar/index.php/ajax/data/check_login - USER ID : 340 - USER IP : ::1 - USER ROLE : 1 - BROWSER : Mozilla/5.0 (Windows NT 10.0; Win64; x64) AppleWebKit/537.36 (KHTML, like Gecko) Chrome/60.0.3112.113 Safari/537.36 - USERNAME : safari
SYSTEM LOG -- DATE :2017-09-19 15:32:35 - CLASS : data - FUNCTION : kabupaten - URL : localhost:8080/golkar/index.php/ajax/data/kabupaten - USER ID : 340 - USER IP : ::1 - USER ROLE : 1 - BROWSER : Mozilla/5.0 (Windows NT 10.0; Win64; x64) AppleWebKit/537.36 (KHTML, like Gecko) Chrome/60.0.3112.113 Safari/537.36 - USERNAME : safari
SYSTEM LOG -- DATE :2017-09-19 15:32:35 - CLASS : data - FUNCTION : kecamatan - URL : localhost:8080/golkar/index.php/ajax/data/kecamatan - USER ID : 340 - USER IP : ::1 - USER ROLE : 1 - BROWSER : Mozilla/5.0 (Windows NT 10.0; Win64; x64) AppleWebKit/537.36 (KHTML, like Gecko) Chrome/60.0.3112.113 Safari/537.36 - USERNAME : safari
SYSTEM LOG -- DATE :2017-09-19 15:32:38 - CLASS : data - FUNCTION : check_login - URL : localhost:8080/golkar/index.php/ajax/data/check_login - USER ID : 340 - USER IP : ::1 - USER ROLE : 1 - BROWSER : Mozilla/5.0 (Windows NT 10.0; Win64; x64) AppleWebKit/537.36 (KHTML, like Gecko) Chrome/60.0.3112.113 Safari/537.36 - USERNAME : safari
