SYSTEM LOG -- DATE :2018-12-17 16:52:34 - CLASS : me - FUNCTION : index - URL : localhost:8080/dpt/index.php/meme/me - USER ID : 340 - USER IP : ::1 - USER ROLE : 1 - BROWSER : Mozilla/5.0 (Windows NT 10.0; Win64; x64) AppleWebKit/537.36 (KHTML, like Gecko) Chrome/71.0.3578.98 Safari/537.36 - USERNAME : safari
SYSTEM LOG -- DATE :2018-12-17 16:52:36 - CLASS : master_anggota - FUNCTION : index - URL : localhost:8080/dpt/index.php/master/master_anggota - USER ID : 340 - USER IP : ::1 - USER ROLE : 1 - BROWSER : Mozilla/5.0 (Windows NT 10.0; Win64; x64) AppleWebKit/537.36 (KHTML, like Gecko) Chrome/71.0.3578.98 Safari/537.36 - USERNAME : safari
SYSTEM LOG -- DATE :2018-12-17 16:52:37 - CLASS : master_anggota - FUNCTION : ajax_list - URL : localhost:8080/dpt/index.php/master/master_anggota/ajax_list - USER ID : 340 - USER IP : ::1 - USER ROLE : 1 - BROWSER : Mozilla/5.0 (Windows NT 10.0; Win64; x64) AppleWebKit/537.36 (KHTML, like Gecko) Chrome/71.0.3578.98 Safari/537.36 - USERNAME : safari
SYSTEM LOG -- DATE :2018-12-17 16:53:30 - CLASS : me - FUNCTION : index - URL : localhost:8080/dpt/index.php/meme/me - USER ID : 340 - USER IP : ::1 - USER ROLE : 1 - BROWSER : Mozilla/5.0 (Windows NT 10.0; Win64; x64; rv:63.0) Gecko/20100101 Firefox/63.0 - USERNAME : safari
SYSTEM LOG -- DATE :2018-12-17 16:53:34 - CLASS : master_anggota - FUNCTION : index - URL : localhost:8080/dpt/index.php/master/master_anggota - USER ID : 340 - USER IP : ::1 - USER ROLE : 1 - BROWSER : Mozilla/5.0 (Windows NT 10.0; Win64; x64; rv:63.0) Gecko/20100101 Firefox/63.0 - USERNAME : safari
SYSTEM LOG -- DATE :2018-12-17 16:53:35 - CLASS : master_anggota - FUNCTION : ajax_list - URL : localhost:8080/dpt/index.php/master/master_anggota/ajax_list - USER ID : 340 - USER IP : ::1 - USER ROLE : 1 - BROWSER : Mozilla/5.0 (Windows NT 10.0; Win64; x64; rv:63.0) Gecko/20100101 Firefox/63.0 - USERNAME : safari
SYSTEM LOG -- DATE :2018-12-17 16:56:07 - CLASS : me - FUNCTION : index - URL : localhost:8080/dpt/index.php/meme/me - USER ID : 340 - USER IP : ::1 - USER ROLE : 1 - BROWSER : Mozilla/5.0 (Windows NT 10.0; Win64; x64; rv:63.0) Gecko/20100101 Firefox/63.0 - USERNAME : safari
SYSTEM LOG -- DATE :2018-12-17 16:58:35 - CLASS : master_anggota - FUNCTION : index - URL : localhost:8080/dpt/index.php/master/master_anggota - USER ID : 340 - USER IP : ::1 - USER ROLE : 1 - BROWSER : Mozilla/5.0 (Windows NT 10.0; Win64; x64; rv:63.0) Gecko/20100101 Firefox/63.0 - USERNAME : safari
SYSTEM LOG -- DATE :2018-12-17 16:58:37 - CLASS : master_anggota - FUNCTION : ajax_list - URL : localhost:8080/dpt/index.php/master/master_anggota/ajax_list - USER ID : 340 - USER IP : ::1 - USER ROLE : 1 - BROWSER : Mozilla/5.0 (Windows NT 10.0; Win64; x64; rv:63.0) Gecko/20100101 Firefox/63.0 - USERNAME : safari
SYSTEM LOG -- DATE :2018-12-17 17:00:29 - CLASS : master_anggota - FUNCTION : index - URL : localhost:8080/dpt/index.php/master/master_anggota - USER ID : 340 - USER IP : ::1 - USER ROLE : 1 - BROWSER : Mozilla/5.0 (Windows NT 10.0; Win64; x64; rv:63.0) Gecko/20100101 Firefox/63.0 - USERNAME : safari
SYSTEM LOG -- DATE :2018-12-17 17:00:31 - CLASS : master_anggota - FUNCTION : ajax_list - URL : localhost:8080/dpt/index.php/master/master_anggota/ajax_list - USER ID : 340 - USER IP : ::1 - USER ROLE : 1 - BROWSER : Mozilla/5.0 (Windows NT 10.0; Win64; x64; rv:63.0) Gecko/20100101 Firefox/63.0 - USERNAME : safari
SYSTEM LOG -- DATE :2018-12-17 17:01:18 - CLASS : master_anggota - FUNCTION : index - URL : localhost:8080/dpt/index.php/master/master_anggota - USER ID : 340 - USER IP : ::1 - USER ROLE : 1 - BROWSER : Mozilla/5.0 (Windows NT 10.0; Win64; x64; rv:63.0) Gecko/20100101 Firefox/63.0 - USERNAME : safari
SYSTEM LOG -- DATE :2018-12-17 17:01:20 - CLASS : master_anggota - FUNCTION : ajax_list - URL : localhost:8080/dpt/index.php/master/master_anggota/ajax_list - USER ID : 340 - USER IP : ::1 - USER ROLE : 1 - BROWSER : Mozilla/5.0 (Windows NT 10.0; Win64; x64; rv:63.0) Gecko/20100101 Firefox/63.0 - USERNAME : safari
SYSTEM LOG -- DATE :2018-12-17 17:02:20 - CLASS : master_anggota - FUNCTION : index - URL : localhost:8080/dpt/index.php/master/master_anggota - USER ID : 340 - USER IP : ::1 - USER ROLE : 1 - BROWSER : Mozilla/5.0 (Windows NT 10.0; Win64; x64; rv:63.0) Gecko/20100101 Firefox/63.0 - USERNAME : safari
SYSTEM LOG -- DATE :2018-12-17 17:02:22 - CLASS : master_anggota - FUNCTION : ajax_list - URL : localhost:8080/dpt/index.php/master/master_anggota/ajax_list - USER ID : 340 - USER IP : ::1 - USER ROLE : 1 - BROWSER : Mozilla/5.0 (Windows NT 10.0; Win64; x64; rv:63.0) Gecko/20100101 Firefox/63.0 - USERNAME : safari
SYSTEM LOG -- DATE :2018-12-17 17:02:46 - CLASS : master_anggota - FUNCTION : index - URL : localhost:8080/dpt/index.php/master/master_anggota - USER ID : 340 - USER IP : ::1 - USER ROLE : 1 - BROWSER : Mozilla/5.0 (Windows NT 10.0; Win64; x64; rv:63.0) Gecko/20100101 Firefox/63.0 - USERNAME : safari
SYSTEM LOG -- DATE :2018-12-17 17:02:48 - CLASS : master_anggota - FUNCTION : ajax_list - URL : localhost:8080/dpt/index.php/master/master_anggota/ajax_list - USER ID : 340 - USER IP : ::1 - USER ROLE : 1 - BROWSER : Mozilla/5.0 (Windows NT 10.0; Win64; x64; rv:63.0) Gecko/20100101 Firefox/63.0 - USERNAME : safari
SYSTEM LOG -- DATE :2018-12-17 17:05:36 - CLASS : me - FUNCTION : index - URL : localhost:8080/dpt/index.php/meme/me - USER ID : 340 - USER IP : ::1 - USER ROLE : 1 - BROWSER : Mozilla/5.0 (Windows NT 10.0; Win64; x64; rv:64.0) Gecko/20100101 Firefox/64.0 - USERNAME : safari
SYSTEM LOG -- DATE :2018-12-17 17:05:45 - CLASS : master_anggota - FUNCTION : index - URL : localhost:8080/dpt/index.php/master/master_anggota - USER ID : 340 - USER IP : ::1 - USER ROLE : 1 - BROWSER : Mozilla/5.0 (Windows NT 10.0; Win64; x64; rv:64.0) Gecko/20100101 Firefox/64.0 - USERNAME : safari
SYSTEM LOG -- DATE :2018-12-17 17:05:48 - CLASS : master_anggota - FUNCTION : ajax_list - URL : localhost:8080/dpt/index.php/master/master_anggota/ajax_list - USER ID : 340 - USER IP : ::1 - USER ROLE : 1 - BROWSER : Mozilla/5.0 (Windows NT 10.0; Win64; x64; rv:64.0) Gecko/20100101 Firefox/64.0 - USERNAME : safari
SYSTEM LOG -- DATE :2018-12-17 17:46:03 - CLASS : me - FUNCTION : index - URL : localhost:8080/dpt/ - USER ID : 340 - USER IP : ::1 - USER ROLE : 1 - BROWSER : Mozilla/5.0 (Windows NT 10.0; Win64; x64; rv:63.0) Gecko/20100101 Firefox/63.0 - USERNAME : safari
SYSTEM LOG -- DATE :2018-12-17 22:11:04 - CLASS : auth - FUNCTION : index - URL : localhost:8080/dpt/index.php/auth?login_username=safari&login_pass=safari123&btn_login= - USER ID : 340 - USER IP : ::1 - USER ROLE : 1 - BROWSER : Mozilla/5.0 (Windows NT 10.0; Win64; x64; rv:64.0) Gecko/20100101 Firefox/64.0 - USERNAME : safari
SYSTEM LOG -- DATE :2018-12-17 22:11:05 - CLASS : me - FUNCTION : index - URL : localhost:8080/dpt/index.php/meme/me - USER ID : 340 - USER IP : ::1 - USER ROLE : 1 - BROWSER : Mozilla/5.0 (Windows NT 10.0; Win64; x64; rv:64.0) Gecko/20100101 Firefox/64.0 - USERNAME : safari
SYSTEM LOG -- DATE :2018-12-17 22:45:26 - CLASS : me - FUNCTION : index - URL : localhost:8080/dpt/index.php/meme/me - USER ID : 340 - USER IP : ::1 - USER ROLE : 1 - BROWSER : Mozilla/5.0 (Windows NT 10.0; Win64; x64; rv:64.0) Gecko/20100101 Firefox/64.0 - USERNAME : safari
SYSTEM LOG -- DATE :2018-12-17 22:47:52 - CLASS : me - FUNCTION : change_password - URL : localhost:8080/dpt/index.php/meme/me/change_password - USER ID : 340 - USER IP : ::1 - USER ROLE : 1 - BROWSER : Mozilla/5.0 (Windows NT 10.0; Win64; x64; rv:64.0) Gecko/20100101 Firefox/64.0 - USERNAME : safari
SYSTEM LOG -- DATE :2018-12-17 22:47:59 - CLASS : auth - FUNCTION : out - URL : localhost:8080/dpt/index.php/auth/out - USER ID : 340 - USER IP : ::1 - USER ROLE : 1 - BROWSER : Mozilla/5.0 (Windows NT 10.0; Win64; x64; rv:64.0) Gecko/20100101 Firefox/64.0 - USERNAME : safari
SYSTEM LOG -- DATE :2018-12-17 22:48:06 - CLASS : me - FUNCTION : index - URL : localhost:8080/dpt/index.php/meme/me - USER ID : 340 - USER IP : ::1 - USER ROLE : 1 - BROWSER : Mozilla/5.0 (Windows NT 10.0; Win64; x64; rv:64.0) Gecko/20100101 Firefox/64.0 - USERNAME : safari
