SYSTEM LOG -- DATE :2017-10-05 22:16:32 - CLASS : me - FUNCTION : index - URL : localhost:8080/golkar/index.php/meme/me - USER ID : 340 - USER IP : ::1 - USER ROLE : 1 - BROWSER : Mozilla/5.0 (Windows NT 10.0; WOW64; rv:55.0) Gecko/20100101 Firefox/55.0 - USERNAME : safari
SYSTEM LOG -- DATE :2017-10-05 22:16:34 - CLASS : data - FUNCTION : check_login - URL : localhost:8080/golkar/index.php/ajax/data/check_login - USER ID : 340 - USER IP : ::1 - USER ROLE : 1 - BROWSER : Mozilla/5.0 (Windows NT 10.0; WOW64; rv:55.0) Gecko/20100101 Firefox/55.0 - USERNAME : safari
SYSTEM LOG -- DATE :2017-10-05 22:16:48 - CLASS : report_data_sipol_perwilayah - FUNCTION : index - URL : localhost:8080/golkar/index.php/report/report_data_sipol_perwilayah - USER ID : 340 - USER IP : ::1 - USER ROLE : 1 - BROWSER : Mozilla/5.0 (Windows NT 10.0; WOW64; rv:55.0) Gecko/20100101 Firefox/55.0 - USERNAME : safari
SYSTEM LOG -- DATE :2017-10-05 22:16:49 - CLASS : data - FUNCTION : check_login - URL : localhost:8080/golkar/index.php/ajax/data/check_login - USER ID : 340 - USER IP : ::1 - USER ROLE : 1 - BROWSER : Mozilla/5.0 (Windows NT 10.0; WOW64; rv:55.0) Gecko/20100101 Firefox/55.0 - USERNAME : safari
SYSTEM LOG -- DATE :2017-10-05 22:16:50 - CLASS : data - FUNCTION : kabupaten - URL : localhost:8080/golkar/index.php/ajax/data/kabupaten - USER ID : 340 - USER IP : ::1 - USER ROLE : 1 - BROWSER : Mozilla/5.0 (Windows NT 10.0; WOW64; rv:55.0) Gecko/20100101 Firefox/55.0 - USERNAME : safari
SYSTEM LOG -- DATE :2017-10-05 22:16:51 - CLASS : report_data_sipol_perwilayah - FUNCTION : search - URL : localhost:8080/golkar/index.php/report/report_data_sipol_perwilayah/search - USER ID : 340 - USER IP : ::1 - USER ROLE : 1 - BROWSER : Mozilla/5.0 (Windows NT 10.0; WOW64; rv:55.0) Gecko/20100101 Firefox/55.0 - USERNAME : safari
SYSTEM LOG -- DATE :2017-10-05 22:16:52 - CLASS : data - FUNCTION : kabupaten - URL : localhost:8080/golkar/index.php/ajax/data/kabupaten - USER ID : 340 - USER IP : ::1 - USER ROLE : 1 - BROWSER : Mozilla/5.0 (Windows NT 10.0; WOW64; rv:55.0) Gecko/20100101 Firefox/55.0 - USERNAME : safari
SYSTEM LOG -- DATE :2017-10-05 22:16:52 - CLASS : data - FUNCTION : check_login - URL : localhost:8080/golkar/index.php/ajax/data/check_login - USER ID : 340 - USER IP : ::1 - USER ROLE : 1 - BROWSER : Mozilla/5.0 (Windows NT 10.0; WOW64; rv:55.0) Gecko/20100101 Firefox/55.0 - USERNAME : safari
