SYSTEM LOG -- DATE :2017-09-21 22:09:25 - CLASS : me - FUNCTION : index - URL : localhost:8080/golkar/index.php/meme/me - USER ID : 340 - USER IP : ::1 - USER ROLE : 1 - BROWSER : Mozilla/5.0 (Windows NT 10.0; Win64; x64) AppleWebKit/537.36 (KHTML, like Gecko) Chrome/60.0.3112.113 Safari/537.36 - USERNAME : safari
SYSTEM LOG -- DATE :2017-09-21 22:09:26 - CLASS : data - FUNCTION : check_login - URL : localhost:8080/golkar/index.php/ajax/data/check_login - USER ID : 340 - USER IP : ::1 - USER ROLE : 1 - BROWSER : Mozilla/5.0 (Windows NT 10.0; Win64; x64) AppleWebKit/537.36 (KHTML, like Gecko) Chrome/60.0.3112.113 Safari/537.36 - USERNAME : safari
SYSTEM LOG -- DATE :2017-09-21 22:09:33 - CLASS : min_verifikasi - FUNCTION : index - URL : localhost:8080/golkar/index.php/master/min_verifikasi - USER ID : 340 - USER IP : ::1 - USER ROLE : 1 - BROWSER : Mozilla/5.0 (Windows NT 10.0; Win64; x64) AppleWebKit/537.36 (KHTML, like Gecko) Chrome/60.0.3112.113 Safari/537.36 - USERNAME : safari
SYSTEM LOG -- DATE :2017-09-21 22:09:34 - CLASS : data - FUNCTION : check_login - URL : localhost:8080/golkar/index.php/ajax/data/check_login - USER ID : 340 - USER IP : ::1 - USER ROLE : 1 - BROWSER : Mozilla/5.0 (Windows NT 10.0; Win64; x64) AppleWebKit/537.36 (KHTML, like Gecko) Chrome/60.0.3112.113 Safari/537.36 - USERNAME : safari
SYSTEM LOG -- DATE :2017-09-21 22:09:40 - CLASS : min_verifikasi - FUNCTION : edit - URL : localhost:8080/golkar/index.php/master/min_verifikasi/edit/?_id=d%2BR7JZlFBx1hCKJYPx5eahWOLtWnTcIhXPU0sUfVOpNMXeLxz%2BbKg%2BY4grR5jbxqwjKD15Zfr6uoYvexBmZ2hA%3D%3D - USER ID : 340 - USER IP : ::1 - USER ROLE : 1 - BROWSER : Mozilla/5.0 (Windows NT 10.0; Win64; x64) AppleWebKit/537.36 (KHTML, like Gecko) Chrome/60.0.3112.113 Safari/537.36 - USERNAME : safari
SYSTEM LOG -- DATE :2017-09-21 22:09:41 - CLASS : data - FUNCTION : check_login - URL : localhost:8080/golkar/index.php/ajax/data/check_login - USER ID : 340 - USER IP : ::1 - USER ROLE : 1 - BROWSER : Mozilla/5.0 (Windows NT 10.0; Win64; x64) AppleWebKit/537.36 (KHTML, like Gecko) Chrome/60.0.3112.113 Safari/537.36 - USERNAME : safari
SYSTEM LOG -- DATE :2017-09-21 22:10:53 - CLASS : min_verifikasi - FUNCTION : save - URL : localhost:8080/golkar/index.php/master/min_verifikasi/save - USER ID : 340 - USER IP : ::1 - USER ROLE : 1 - BROWSER : Mozilla/5.0 (Windows NT 10.0; Win64; x64) AppleWebKit/537.36 (KHTML, like Gecko) Chrome/60.0.3112.113 Safari/537.36 - USERNAME : safari
SYSTEM LOG -- DATE :2017-09-21 22:10:53 - CLASS : min_verifikasi - FUNCTION : edit - URL : localhost:8080/golkar/index.php/master/min_verifikasi/edit/?_id=pBJa8jPZJWGLoh6xFV5YeboTxzk7uBd9%2FOZooRbtbLqKBRF1emNsDMSPe%2BPO4Fd4BJOz4gJnGFngxsZCSMgN6g%3D%3D&msg=Tabulasi%20Jumlah%20KTA%20Per%20Kabupaten%20telah%20diupdate.&type_msg=success - USER ID : 340 - USER IP : ::1 - USER ROLE : 1 - BROWSER : Mozilla/5.0 (Windows NT 10.0; Win64; x64) AppleWebKit/537.36 (KHTML, like Gecko) Chrome/60.0.3112.113 Safari/537.36 - USERNAME : safari
SYSTEM LOG -- DATE :2017-09-21 22:10:54 - CLASS : data - FUNCTION : check_login - URL : localhost:8080/golkar/index.php/ajax/data/check_login - USER ID : 340 - USER IP : ::1 - USER ROLE : 1 - BROWSER : Mozilla/5.0 (Windows NT 10.0; Win64; x64) AppleWebKit/537.36 (KHTML, like Gecko) Chrome/60.0.3112.113 Safari/537.36 - USERNAME : safari
SYSTEM LOG -- DATE :2017-09-21 22:13:17 - CLASS : min_verifikasi - FUNCTION : edit - URL : localhost:8080/golkar/index.php/master/min_verifikasi/edit/?_id=pBJa8jPZJWGLoh6xFV5YeboTxzk7uBd9%2FOZooRbtbLqKBRF1emNsDMSPe%2BPO4Fd4BJOz4gJnGFngxsZCSMgN6g%3D%3D&msg=Tabulasi%20Jumlah%20KTA%20Per%20Kabupaten%20telah%20diupdate.&type_msg=success - USER ID : 340 - USER IP : ::1 - USER ROLE : 1 - BROWSER : Mozilla/5.0 (Windows NT 10.0; Win64; x64) AppleWebKit/537.36 (KHTML, like Gecko) Chrome/60.0.3112.113 Safari/537.36 - USERNAME : safari
SYSTEM LOG -- DATE :2017-09-21 22:13:17 - CLASS : data - FUNCTION : check_login - URL : localhost:8080/golkar/index.php/ajax/data/check_login - USER ID : 340 - USER IP : ::1 - USER ROLE : 1 - BROWSER : Mozilla/5.0 (Windows NT 10.0; Win64; x64) AppleWebKit/537.36 (KHTML, like Gecko) Chrome/60.0.3112.113 Safari/537.36 - USERNAME : safari
SYSTEM LOG -- DATE :2017-09-21 22:16:00 - CLASS : min_verifikasi - FUNCTION : edit - URL : localhost:8080/golkar/index.php/master/min_verifikasi/edit/?_id=pBJa8jPZJWGLoh6xFV5YeboTxzk7uBd9%2FOZooRbtbLqKBRF1emNsDMSPe%2BPO4Fd4BJOz4gJnGFngxsZCSMgN6g%3D%3D&msg=Tabulasi%20Jumlah%20KTA%20Per%20Kabupaten%20telah%20diupdate.&type_msg=success - USER ID : 340 - USER IP : ::1 - USER ROLE : 1 - BROWSER : Mozilla/5.0 (Windows NT 10.0; Win64; x64) AppleWebKit/537.36 (KHTML, like Gecko) Chrome/60.0.3112.113 Safari/537.36 - USERNAME : safari
SYSTEM LOG -- DATE :2017-09-21 22:16:00 - CLASS : data - FUNCTION : check_login - URL : localhost:8080/golkar/index.php/ajax/data/check_login - USER ID : 340 - USER IP : ::1 - USER ROLE : 1 - BROWSER : Mozilla/5.0 (Windows NT 10.0; Win64; x64) AppleWebKit/537.36 (KHTML, like Gecko) Chrome/60.0.3112.113 Safari/537.36 - USERNAME : safari
SYSTEM LOG -- DATE :2017-09-21 22:16:02 - CLASS : min_verifikasi - FUNCTION : save - URL : localhost:8080/golkar/index.php/master/min_verifikasi/save - USER ID : 340 - USER IP : ::1 - USER ROLE : 1 - BROWSER : Mozilla/5.0 (Windows NT 10.0; Win64; x64) AppleWebKit/537.36 (KHTML, like Gecko) Chrome/60.0.3112.113 Safari/537.36 - USERNAME : safari
SYSTEM LOG -- DATE :2017-09-21 22:16:02 - CLASS : min_verifikasi - FUNCTION : edit - URL : localhost:8080/golkar/index.php/master/min_verifikasi/edit/?_id=L5HtpeFWz7r9BjALzvMFjRqEISGEDhGzUozSAHqs%2BHu5S7QOfD%2F13WuL%2FnLp0aXP26vCDR8v2FltVOoMBEh6Kg%3D%3D&msg=Tabulasi%20Jumlah%20KTA%20Per%20Kabupaten%20telah%20diupdate.&type_msg=success - USER ID : 340 - USER IP : ::1 - USER ROLE : 1 - BROWSER : Mozilla/5.0 (Windows NT 10.0; Win64; x64) AppleWebKit/537.36 (KHTML, like Gecko) Chrome/60.0.3112.113 Safari/537.36 - USERNAME : safari
SYSTEM LOG -- DATE :2017-09-21 22:16:02 - CLASS : data - FUNCTION : check_login - URL : localhost:8080/golkar/index.php/ajax/data/check_login - USER ID : 340 - USER IP : ::1 - USER ROLE : 1 - BROWSER : Mozilla/5.0 (Windows NT 10.0; Win64; x64) AppleWebKit/537.36 (KHTML, like Gecko) Chrome/60.0.3112.113 Safari/537.36 - USERNAME : safari
SYSTEM LOG -- DATE :2017-09-21 22:16:21 - CLASS : min_verifikasi - FUNCTION : edit - URL : localhost:8080/golkar/index.php/master/min_verifikasi/edit/?_id=L5HtpeFWz7r9BjALzvMFjRqEISGEDhGzUozSAHqs%2BHu5S7QOfD%2F13WuL%2FnLp0aXP26vCDR8v2FltVOoMBEh6Kg%3D%3D&msg=Tabulasi%20Jumlah%20KTA%20Per%20Kabupaten%20telah%20diupdate.&type_msg=success - USER ID : 340 - USER IP : ::1 - USER ROLE : 1 - BROWSER : Mozilla/5.0 (Windows NT 10.0; Win64; x64) AppleWebKit/537.36 (KHTML, like Gecko) Chrome/60.0.3112.113 Safari/537.36 - USERNAME : safari
SYSTEM LOG -- DATE :2017-09-21 22:16:22 - CLASS : data - FUNCTION : check_login - URL : localhost:8080/golkar/index.php/ajax/data/check_login - USER ID : 340 - USER IP : ::1 - USER ROLE : 1 - BROWSER : Mozilla/5.0 (Windows NT 10.0; Win64; x64) AppleWebKit/537.36 (KHTML, like Gecko) Chrome/60.0.3112.113 Safari/537.36 - USERNAME : safari
SYSTEM LOG -- DATE :2017-09-21 22:16:23 - CLASS : min_verifikasi - FUNCTION : save - URL : localhost:8080/golkar/index.php/master/min_verifikasi/save - USER ID : 340 - USER IP : ::1 - USER ROLE : 1 - BROWSER : Mozilla/5.0 (Windows NT 10.0; Win64; x64) AppleWebKit/537.36 (KHTML, like Gecko) Chrome/60.0.3112.113 Safari/537.36 - USERNAME : safari
SYSTEM LOG -- DATE :2017-09-21 22:16:23 - CLASS : min_verifikasi - FUNCTION : edit - URL : localhost:8080/golkar/index.php/master/min_verifikasi/edit/?_id=p%2B48D09U6c7CUSjkLJPLpDXiiVFc9ss2yidxb1OF7tBM%2BuMBXtY0VosMWEj%2BwMNBG6qY%2B4D%2FSmWImTI9yE77PQ%3D%3D&msg=Tabulasi%20Jumlah%20KTA%20Per%20Kabupaten%20telah%20diupdate.&type_msg=success - USER ID : 340 - USER IP : ::1 - USER ROLE : 1 - BROWSER : Mozilla/5.0 (Windows NT 10.0; Win64; x64) AppleWebKit/537.36 (KHTML, like Gecko) Chrome/60.0.3112.113 Safari/537.36 - USERNAME : safari
SYSTEM LOG -- DATE :2017-09-21 22:16:24 - CLASS : data - FUNCTION : check_login - URL : localhost:8080/golkar/index.php/ajax/data/check_login - USER ID : 340 - USER IP : ::1 - USER ROLE : 1 - BROWSER : Mozilla/5.0 (Windows NT 10.0; Win64; x64) AppleWebKit/537.36 (KHTML, like Gecko) Chrome/60.0.3112.113 Safari/537.36 - USERNAME : safari
SYSTEM LOG -- DATE :2017-09-21 22:17:07 - CLASS : min_verifikasi - FUNCTION : edit - URL : localhost:8080/golkar/index.php/master/min_verifikasi/edit/?_id=p%2B48D09U6c7CUSjkLJPLpDXiiVFc9ss2yidxb1OF7tBM%2BuMBXtY0VosMWEj%2BwMNBG6qY%2B4D%2FSmWImTI9yE77PQ%3D%3D&msg=Tabulasi%20Jumlah%20KTA%20Per%20Kabupaten%20telah%20diupdate.&type_msg=success - USER ID : 340 - USER IP : ::1 - USER ROLE : 1 - BROWSER : Mozilla/5.0 (Windows NT 10.0; Win64; x64) AppleWebKit/537.36 (KHTML, like Gecko) Chrome/60.0.3112.113 Safari/537.36 - USERNAME : safari
SYSTEM LOG -- DATE :2017-09-21 22:17:08 - CLASS : data - FUNCTION : check_login - URL : localhost:8080/golkar/index.php/ajax/data/check_login - USER ID : 340 - USER IP : ::1 - USER ROLE : 1 - BROWSER : Mozilla/5.0 (Windows NT 10.0; Win64; x64) AppleWebKit/537.36 (KHTML, like Gecko) Chrome/60.0.3112.113 Safari/537.36 - USERNAME : safari
SYSTEM LOG -- DATE :2017-09-21 22:18:11 - CLASS : min_verifikasi - FUNCTION : edit - URL : localhost:8080/golkar/index.php/master/min_verifikasi/edit/?_id=p%2B48D09U6c7CUSjkLJPLpDXiiVFc9ss2yidxb1OF7tBM%2BuMBXtY0VosMWEj%2BwMNBG6qY%2B4D%2FSmWImTI9yE77PQ%3D%3D&msg=Tabulasi%20Jumlah%20KTA%20Per%20Kabupaten%20telah%20diupdate.&type_msg=success - USER ID : 340 - USER IP : ::1 - USER ROLE : 1 - BROWSER : Mozilla/5.0 (Windows NT 10.0; Win64; x64) AppleWebKit/537.36 (KHTML, like Gecko) Chrome/60.0.3112.113 Safari/537.36 - USERNAME : safari
SYSTEM LOG -- DATE :2017-09-21 22:18:11 - CLASS : data - FUNCTION : check_login - URL : localhost:8080/golkar/index.php/ajax/data/check_login - USER ID : 340 - USER IP : ::1 - USER ROLE : 1 - BROWSER : Mozilla/5.0 (Windows NT 10.0; Win64; x64) AppleWebKit/537.36 (KHTML, like Gecko) Chrome/60.0.3112.113 Safari/537.36 - USERNAME : safari
SYSTEM LOG -- DATE :2017-09-21 22:19:03 - CLASS : min_verifikasi - FUNCTION : edit - URL : localhost:8080/golkar/index.php/master/min_verifikasi/edit/?_id=p%2B48D09U6c7CUSjkLJPLpDXiiVFc9ss2yidxb1OF7tBM%2BuMBXtY0VosMWEj%2BwMNBG6qY%2B4D%2FSmWImTI9yE77PQ%3D%3D&msg=Tabulasi%20Jumlah%20KTA%20Per%20Kabupaten%20telah%20diupdate.&type_msg=success - USER ID : 340 - USER IP : ::1 - USER ROLE : 1 - BROWSER : Mozilla/5.0 (Windows NT 10.0; Win64; x64) AppleWebKit/537.36 (KHTML, like Gecko) Chrome/60.0.3112.113 Safari/537.36 - USERNAME : safari
SYSTEM LOG -- DATE :2017-09-21 22:19:33 - CLASS : data - FUNCTION : check_login - URL : localhost:8080/golkar/index.php/ajax/data/check_login - USER ID : 340 - USER IP : ::1 - USER ROLE : 1 - BROWSER : Mozilla/5.0 (Windows NT 10.0; Win64; x64) AppleWebKit/537.36 (KHTML, like Gecko) Chrome/60.0.3112.113 Safari/537.36 - USERNAME : safari
SYSTEM LOG -- DATE :2017-09-21 22:19:37 - CLASS : min_verifikasi - FUNCTION : edit - URL : localhost:8080/golkar/index.php/master/min_verifikasi/edit/?_id=p%2B48D09U6c7CUSjkLJPLpDXiiVFc9ss2yidxb1OF7tBM%2BuMBXtY0VosMWEj%2BwMNBG6qY%2B4D%2FSmWImTI9yE77PQ%3D%3D&msg=Tabulasi%20Jumlah%20KTA%20Per%20Kabupaten%20telah%20diupdate.&type_msg=success - USER ID : 340 - USER IP : ::1 - USER ROLE : 1 - BROWSER : Mozilla/5.0 (Windows NT 10.0; Win64; x64) AppleWebKit/537.36 (KHTML, like Gecko) Chrome/60.0.3112.113 Safari/537.36 - USERNAME : safari
SYSTEM LOG -- DATE :2017-09-21 22:19:38 - CLASS : data - FUNCTION : check_login - URL : localhost:8080/golkar/index.php/ajax/data/check_login - USER ID : 340 - USER IP : ::1 - USER ROLE : 1 - BROWSER : Mozilla/5.0 (Windows NT 10.0; Win64; x64) AppleWebKit/537.36 (KHTML, like Gecko) Chrome/60.0.3112.113 Safari/537.36 - USERNAME : safari
SYSTEM LOG -- DATE :2017-09-21 22:19:43 - CLASS : min_verifikasi - FUNCTION : save - URL : localhost:8080/golkar/index.php/master/min_verifikasi/save - USER ID : 340 - USER IP : ::1 - USER ROLE : 1 - BROWSER : Mozilla/5.0 (Windows NT 10.0; Win64; x64) AppleWebKit/537.36 (KHTML, like Gecko) Chrome/60.0.3112.113 Safari/537.36 - USERNAME : safari
SYSTEM LOG -- DATE :2017-09-21 22:19:43 - CLASS : min_verifikasi - FUNCTION : edit - URL : localhost:8080/golkar/index.php/master/min_verifikasi/edit/?_id=mfgy%2BrzlIij6%2BHS9gOH6DPJoa1jVRC%2FrT8so5DMPyRTKQT47hPJ9%2B4m%2Br6wYvEZsBQU32aPvK%2FjkpmOPbWlDLw%3D%3D&msg=Tabulasi%20Jumlah%20KTA%20Per%20Kabupaten%20telah%20diupdate.&type_msg=success - USER ID : 340 - USER IP : ::1 - USER ROLE : 1 - BROWSER : Mozilla/5.0 (Windows NT 10.0; Win64; x64) AppleWebKit/537.36 (KHTML, like Gecko) Chrome/60.0.3112.113 Safari/537.36 - USERNAME : safari
SYSTEM LOG -- DATE :2017-09-21 22:19:44 - CLASS : data - FUNCTION : check_login - URL : localhost:8080/golkar/index.php/ajax/data/check_login - USER ID : 340 - USER IP : ::1 - USER ROLE : 1 - BROWSER : Mozilla/5.0 (Windows NT 10.0; Win64; x64) AppleWebKit/537.36 (KHTML, like Gecko) Chrome/60.0.3112.113 Safari/537.36 - USERNAME : safari
SYSTEM LOG -- DATE :2017-09-21 22:19:44 - CLASS : min_verifikasi - FUNCTION : index - URL : localhost:8080/golkar/index.php/master/min_verifikasi/index - USER ID : 340 - USER IP : ::1 - USER ROLE : 1 - BROWSER : Mozilla/5.0 (Windows NT 10.0; Win64; x64) AppleWebKit/537.36 (KHTML, like Gecko) Chrome/60.0.3112.113 Safari/537.36 - USERNAME : safari
SYSTEM LOG -- DATE :2017-09-21 22:19:45 - CLASS : data - FUNCTION : check_login - URL : localhost:8080/golkar/index.php/ajax/data/check_login - USER ID : 340 - USER IP : ::1 - USER ROLE : 1 - BROWSER : Mozilla/5.0 (Windows NT 10.0; Win64; x64) AppleWebKit/537.36 (KHTML, like Gecko) Chrome/60.0.3112.113 Safari/537.36 - USERNAME : safari
SYSTEM LOG -- DATE :2017-09-21 22:20:01 - CLASS : min_verifikasi - FUNCTION : edit - URL : localhost:8080/golkar/index.php/master/min_verifikasi/edit/?_id=Z3QczAPJp2fWhp5aajs02saQfQnLGkYRABTM8Zxs5FrQwrtxEPzvLjKU%2BNW4k%2FoPIRwq9AttCOTaAuKYlnppmA%3D%3D - USER ID : 340 - USER IP : ::1 - USER ROLE : 1 - BROWSER : Mozilla/5.0 (Windows NT 10.0; Win64; x64) AppleWebKit/537.36 (KHTML, like Gecko) Chrome/60.0.3112.113 Safari/537.36 - USERNAME : safari
SYSTEM LOG -- DATE :2017-09-21 22:20:02 - CLASS : data - FUNCTION : check_login - URL : localhost:8080/golkar/index.php/ajax/data/check_login - USER ID : 340 - USER IP : ::1 - USER ROLE : 1 - BROWSER : Mozilla/5.0 (Windows NT 10.0; Win64; x64) AppleWebKit/537.36 (KHTML, like Gecko) Chrome/60.0.3112.113 Safari/537.36 - USERNAME : safari
SYSTEM LOG -- DATE :2017-09-21 22:20:46 - CLASS : min_verifikasi - FUNCTION : save - URL : localhost:8080/golkar/index.php/master/min_verifikasi/save - USER ID : 340 - USER IP : ::1 - USER ROLE : 1 - BROWSER : Mozilla/5.0 (Windows NT 10.0; Win64; x64) AppleWebKit/537.36 (KHTML, like Gecko) Chrome/60.0.3112.113 Safari/537.36 - USERNAME : safari
SYSTEM LOG -- DATE :2017-09-21 22:20:46 - CLASS : min_verifikasi - FUNCTION : edit - URL : localhost:8080/golkar/index.php/master/min_verifikasi/edit/?_id=%2FQ8hOgLhcmhH1lpJm79NVEKEoOle%2B15zt50FMMGaqhQy328J%2FvzakjG25E%2BEBlTzc%2Fv0UCatF468v9uO8dX4ng%3D%3D&msg=Tabulasi%20Jumlah%20KTA%20Per%20Kabupaten%20telah%20diupdate.&type_msg=success - USER ID : 340 - USER IP : ::1 - USER ROLE : 1 - BROWSER : Mozilla/5.0 (Windows NT 10.0; Win64; x64) AppleWebKit/537.36 (KHTML, like Gecko) Chrome/60.0.3112.113 Safari/537.36 - USERNAME : safari
SYSTEM LOG -- DATE :2017-09-21 22:20:47 - CLASS : data - FUNCTION : check_login - URL : localhost:8080/golkar/index.php/ajax/data/check_login - USER ID : 340 - USER IP : ::1 - USER ROLE : 1 - BROWSER : Mozilla/5.0 (Windows NT 10.0; Win64; x64) AppleWebKit/537.36 (KHTML, like Gecko) Chrome/60.0.3112.113 Safari/537.36 - USERNAME : safari
SYSTEM LOG -- DATE :2017-09-21 22:21:57 - CLASS : min_verifikasi - FUNCTION : save - URL : localhost:8080/golkar/index.php/master/min_verifikasi/save - USER ID : 340 - USER IP : ::1 - USER ROLE : 1 - BROWSER : Mozilla/5.0 (Windows NT 10.0; Win64; x64) AppleWebKit/537.36 (KHTML, like Gecko) Chrome/60.0.3112.113 Safari/537.36 - USERNAME : safari
SYSTEM LOG -- DATE :2017-09-21 22:21:57 - CLASS : min_verifikasi - FUNCTION : edit - URL : localhost:8080/golkar/index.php/master/min_verifikasi/edit/?_id=8W8u4IrEmtNaSiRYzvLfBczEv1oUt3HjEGIR%2FdMVV7pR4jm1%2BBpCoIpn9k7M5FpTrWfZZYJ%2BFGrTcVfdGW3Fxg%3D%3D&msg=Tabulasi%20Jumlah%20KTA%20Per%20Kabupaten%20telah%20diupdate.&type_msg=success - USER ID : 340 - USER IP : ::1 - USER ROLE : 1 - BROWSER : Mozilla/5.0 (Windows NT 10.0; Win64; x64) AppleWebKit/537.36 (KHTML, like Gecko) Chrome/60.0.3112.113 Safari/537.36 - USERNAME : safari
SYSTEM LOG -- DATE :2017-09-21 22:21:58 - CLASS : data - FUNCTION : check_login - URL : localhost:8080/golkar/index.php/ajax/data/check_login - USER ID : 340 - USER IP : ::1 - USER ROLE : 1 - BROWSER : Mozilla/5.0 (Windows NT 10.0; Win64; x64) AppleWebKit/537.36 (KHTML, like Gecko) Chrome/60.0.3112.113 Safari/537.36 - USERNAME : safari
SYSTEM LOG -- DATE :2017-09-21 22:21:58 - CLASS : min_verifikasi - FUNCTION : index - URL : localhost:8080/golkar/index.php/master/min_verifikasi/index - USER ID : 340 - USER IP : ::1 - USER ROLE : 1 - BROWSER : Mozilla/5.0 (Windows NT 10.0; Win64; x64) AppleWebKit/537.36 (KHTML, like Gecko) Chrome/60.0.3112.113 Safari/537.36 - USERNAME : safari
SYSTEM LOG -- DATE :2017-09-21 22:21:59 - CLASS : data - FUNCTION : check_login - URL : localhost:8080/golkar/index.php/ajax/data/check_login - USER ID : 340 - USER IP : ::1 - USER ROLE : 1 - BROWSER : Mozilla/5.0 (Windows NT 10.0; Win64; x64) AppleWebKit/537.36 (KHTML, like Gecko) Chrome/60.0.3112.113 Safari/537.36 - USERNAME : safari
SYSTEM LOG -- DATE :2017-09-21 22:22:15 - CLASS : report_data_sipol_perwilayah - FUNCTION : index - URL : localhost:8080/golkar/index.php/report/report_data_sipol_perwilayah - USER ID : 340 - USER IP : ::1 - USER ROLE : 1 - BROWSER : Mozilla/5.0 (Windows NT 10.0; Win64; x64) AppleWebKit/537.36 (KHTML, like Gecko) Chrome/60.0.3112.113 Safari/537.36 - USERNAME : safari
SYSTEM LOG -- DATE :2017-09-21 22:22:16 - CLASS : data - FUNCTION : check_login - URL : localhost:8080/golkar/index.php/ajax/data/check_login - USER ID : 340 - USER IP : ::1 - USER ROLE : 1 - BROWSER : Mozilla/5.0 (Windows NT 10.0; Win64; x64) AppleWebKit/537.36 (KHTML, like Gecko) Chrome/60.0.3112.113 Safari/537.36 - USERNAME : safari
SYSTEM LOG -- DATE :2017-09-21 22:22:18 - CLASS : data - FUNCTION : kabupaten - URL : localhost:8080/golkar/index.php/ajax/data/kabupaten - USER ID : 340 - USER IP : ::1 - USER ROLE : 1 - BROWSER : Mozilla/5.0 (Windows NT 10.0; Win64; x64) AppleWebKit/537.36 (KHTML, like Gecko) Chrome/60.0.3112.113 Safari/537.36 - USERNAME : safari
SYSTEM LOG -- DATE :2017-09-21 22:22:20 - CLASS : data - FUNCTION : kecamatan - URL : localhost:8080/golkar/index.php/ajax/data/kecamatan - USER ID : 340 - USER IP : ::1 - USER ROLE : 1 - BROWSER : Mozilla/5.0 (Windows NT 10.0; Win64; x64) AppleWebKit/537.36 (KHTML, like Gecko) Chrome/60.0.3112.113 Safari/537.36 - USERNAME : safari
SYSTEM LOG -- DATE :2017-09-21 22:22:20 - CLASS : report_data_sipol_perwilayah - FUNCTION : search - URL : localhost:8080/golkar/index.php/report/report_data_sipol_perwilayah/search - USER ID : 340 - USER IP : ::1 - USER ROLE : 1 - BROWSER : Mozilla/5.0 (Windows NT 10.0; Win64; x64) AppleWebKit/537.36 (KHTML, like Gecko) Chrome/60.0.3112.113 Safari/537.36 - USERNAME : safari
SYSTEM LOG -- DATE :2017-09-21 22:22:20 - CLASS : data - FUNCTION : kabupaten - URL : localhost:8080/golkar/index.php/ajax/data/kabupaten - USER ID : 340 - USER IP : ::1 - USER ROLE : 1 - BROWSER : Mozilla/5.0 (Windows NT 10.0; Win64; x64) AppleWebKit/537.36 (KHTML, like Gecko) Chrome/60.0.3112.113 Safari/537.36 - USERNAME : safari
SYSTEM LOG -- DATE :2017-09-21 22:22:20 - CLASS : data - FUNCTION : kecamatan - URL : localhost:8080/golkar/index.php/ajax/data/kecamatan - USER ID : 340 - USER IP : ::1 - USER ROLE : 1 - BROWSER : Mozilla/5.0 (Windows NT 10.0; Win64; x64) AppleWebKit/537.36 (KHTML, like Gecko) Chrome/60.0.3112.113 Safari/537.36 - USERNAME : safari
SYSTEM LOG -- DATE :2017-09-21 22:22:21 - CLASS : data - FUNCTION : check_login - URL : localhost:8080/golkar/index.php/ajax/data/check_login - USER ID : 340 - USER IP : ::1 - USER ROLE : 1 - BROWSER : Mozilla/5.0 (Windows NT 10.0; Win64; x64) AppleWebKit/537.36 (KHTML, like Gecko) Chrome/60.0.3112.113 Safari/537.36 - USERNAME : safari
SYSTEM LOG -- DATE :2017-09-21 22:22:23 - CLASS : data - FUNCTION : kabupaten - URL : localhost:8080/golkar/index.php/ajax/data/kabupaten - USER ID : 340 - USER IP : ::1 - USER ROLE : 1 - BROWSER : Mozilla/5.0 (Windows NT 10.0; Win64; x64) AppleWebKit/537.36 (KHTML, like Gecko) Chrome/60.0.3112.113 Safari/537.36 - USERNAME : safari
SYSTEM LOG -- DATE :2017-09-21 22:22:24 - CLASS : data - FUNCTION : kecamatan - URL : localhost:8080/golkar/index.php/ajax/data/kecamatan - USER ID : 340 - USER IP : ::1 - USER ROLE : 1 - BROWSER : Mozilla/5.0 (Windows NT 10.0; Win64; x64) AppleWebKit/537.36 (KHTML, like Gecko) Chrome/60.0.3112.113 Safari/537.36 - USERNAME : safari
SYSTEM LOG -- DATE :2017-09-21 22:22:25 - CLASS : report_data_sipol_perwilayah - FUNCTION : search - URL : localhost:8080/golkar/index.php/report/report_data_sipol_perwilayah/search - USER ID : 340 - USER IP : ::1 - USER ROLE : 1 - BROWSER : Mozilla/5.0 (Windows NT 10.0; Win64; x64) AppleWebKit/537.36 (KHTML, like Gecko) Chrome/60.0.3112.113 Safari/537.36 - USERNAME : safari
SYSTEM LOG -- DATE :2017-09-21 22:22:26 - CLASS : data - FUNCTION : check_login - URL : localhost:8080/golkar/index.php/ajax/data/check_login - USER ID : 340 - USER IP : ::1 - USER ROLE : 1 - BROWSER : Mozilla/5.0 (Windows NT 10.0; Win64; x64) AppleWebKit/537.36 (KHTML, like Gecko) Chrome/60.0.3112.113 Safari/537.36 - USERNAME : safari
SYSTEM LOG -- DATE :2017-09-21 22:22:26 - CLASS : data - FUNCTION : kabupaten - URL : localhost:8080/golkar/index.php/ajax/data/kabupaten - USER ID : 340 - USER IP : ::1 - USER ROLE : 1 - BROWSER : Mozilla/5.0 (Windows NT 10.0; Win64; x64) AppleWebKit/537.36 (KHTML, like Gecko) Chrome/60.0.3112.113 Safari/537.36 - USERNAME : safari
SYSTEM LOG -- DATE :2017-09-21 22:22:27 - CLASS : data - FUNCTION : kecamatan - URL : localhost:8080/golkar/index.php/ajax/data/kecamatan - USER ID : 340 - USER IP : ::1 - USER ROLE : 1 - BROWSER : Mozilla/5.0 (Windows NT 10.0; Win64; x64) AppleWebKit/537.36 (KHTML, like Gecko) Chrome/60.0.3112.113 Safari/537.36 - USERNAME : safari
SYSTEM LOG -- DATE :2017-09-21 22:22:27 - CLASS : data - FUNCTION : check_login - URL : localhost:8080/golkar/index.php/ajax/data/check_login - USER ID : 340 - USER IP : ::1 - USER ROLE : 1 - BROWSER : Mozilla/5.0 (Windows NT 10.0; Win64; x64) AppleWebKit/537.36 (KHTML, like Gecko) Chrome/60.0.3112.113 Safari/537.36 - USERNAME : safari
SYSTEM LOG -- DATE :2017-09-21 22:22:30 - CLASS : report_data_sipol_perwilayah - FUNCTION : search - URL : localhost:8080/golkar/index.php/report/report_data_sipol_perwilayah/search - USER ID : 340 - USER IP : ::1 - USER ROLE : 1 - BROWSER : Mozilla/5.0 (Windows NT 10.0; Win64; x64) AppleWebKit/537.36 (KHTML, like Gecko) Chrome/60.0.3112.113 Safari/537.36 - USERNAME : safari
