SYSTEM LOG -- DATE :2018-12-30 22:37:10 - CLASS : me - FUNCTION : index - URL : localhost:8080/cv-atp/index.php/meme/me - USER ID : 340 - USER IP : ::1 - USER ROLE : 1 - BROWSER : Mozilla/5.0 (Windows NT 10.0; Win64; x64) AppleWebKit/537.36 (KHTML, like Gecko) Chrome/71.0.3578.98 Safari/537.36 - USERNAME : safari
SYSTEM LOG -- DATE :2018-12-30 22:37:17 - CLASS : armada - FUNCTION : index - URL : localhost:8080/cv-atp/index.php/master/armada - USER ID : 340 - USER IP : ::1 - USER ROLE : 1 - BROWSER : Mozilla/5.0 (Windows NT 10.0; Win64; x64) AppleWebKit/537.36 (KHTML, like Gecko) Chrome/71.0.3578.98 Safari/537.36 - USERNAME : safari
SYSTEM LOG -- DATE :2018-12-30 22:37:18 - CLASS : armada - FUNCTION : ajax_list - URL : localhost:8080/cv-atp/index.php/master/armada/ajax_list - USER ID : 340 - USER IP : ::1 - USER ROLE : 1 - BROWSER : Mozilla/5.0 (Windows NT 10.0; Win64; x64) AppleWebKit/537.36 (KHTML, like Gecko) Chrome/71.0.3578.98 Safari/537.36 - USERNAME : safari
SYSTEM LOG -- DATE :2018-12-30 22:37:40 - CLASS : armada - FUNCTION : detail - URL : localhost:8080/cv-atp/index.php/master/armada/detail/?_id=AfGZ4M2qcbVbB2K%2Fd9jccWYFNy5KZX1h6m8sR71UWtEfD%2BeYp257KX6WPggcZb524W69iAIgv84lu23Hy6NJiA%3D%3D - USER ID : 340 - USER IP : ::1 - USER ROLE : 1 - BROWSER : Mozilla/5.0 (Windows NT 10.0; Win64; x64) AppleWebKit/537.36 (KHTML, like Gecko) Chrome/71.0.3578.98 Safari/537.36 - USERNAME : safari
SYSTEM LOG -- DATE :2018-12-30 22:40:45 - CLASS : me - FUNCTION : index - URL : localhost:8080/cv-atp/index.php/meme/me - USER ID : 340 - USER IP : ::1 - USER ROLE : 1 - BROWSER : Mozilla/5.0 (Windows NT 10.0; Win64; x64) AppleWebKit/537.36 (KHTML, like Gecko) Chrome/71.0.3578.98 Safari/537.36 - USERNAME : safari
SYSTEM LOG -- DATE :2018-12-30 22:40:48 - CLASS : armada - FUNCTION : index - URL : localhost:8080/cv-atp/index.php/master/armada - USER ID : 340 - USER IP : ::1 - USER ROLE : 1 - BROWSER : Mozilla/5.0 (Windows NT 10.0; Win64; x64) AppleWebKit/537.36 (KHTML, like Gecko) Chrome/71.0.3578.98 Safari/537.36 - USERNAME : safari
SYSTEM LOG -- DATE :2018-12-30 22:40:48 - CLASS : armada - FUNCTION : ajax_list - URL : localhost:8080/cv-atp/index.php/master/armada/ajax_list - USER ID : 340 - USER IP : ::1 - USER ROLE : 1 - BROWSER : Mozilla/5.0 (Windows NT 10.0; Win64; x64) AppleWebKit/537.36 (KHTML, like Gecko) Chrome/71.0.3578.98 Safari/537.36 - USERNAME : safari
SYSTEM LOG -- DATE :2018-12-30 22:41:01 - CLASS : tujuan - FUNCTION : index - URL : localhost:8080/cv-atp/index.php/master/tujuan - USER ID : 340 - USER IP : ::1 - USER ROLE : 1 - BROWSER : Mozilla/5.0 (Windows NT 10.0; Win64; x64) AppleWebKit/537.36 (KHTML, like Gecko) Chrome/71.0.3578.98 Safari/537.36 - USERNAME : safari
SYSTEM LOG -- DATE :2018-12-30 22:41:57 - CLASS : tujuan - FUNCTION : ajax_list - URL : localhost:8080/cv-atp/index.php/master/tujuan/ajax_list - USER ID : 340 - USER IP : ::1 - USER ROLE : 1 - BROWSER : Mozilla/5.0 (Windows NT 10.0; Win64; x64) AppleWebKit/537.36 (KHTML, like Gecko) Chrome/71.0.3578.98 Safari/537.36 - USERNAME : safari
SYSTEM LOG -- DATE :2018-12-30 22:44:39 - CLASS : tujuan - FUNCTION : index - URL : localhost:8080/cv-atp/index.php/master/tujuan - USER ID : 340 - USER IP : ::1 - USER ROLE : 1 - BROWSER : Mozilla/5.0 (Windows NT 10.0; Win64; x64) AppleWebKit/537.36 (KHTML, like Gecko) Chrome/71.0.3578.98 Safari/537.36 - USERNAME : safari
SYSTEM LOG -- DATE :2018-12-30 22:45:16 - CLASS : me - FUNCTION : index - URL : localhost:8080/cv-atp/index.php/meme/me - USER ID : 340 - USER IP : ::1 - USER ROLE : 1 - BROWSER : Mozilla/5.0 (Windows NT 10.0; Win64; x64; rv:64.0) Gecko/20100101 Firefox/64.0 - USERNAME : safari
SYSTEM LOG -- DATE :2018-12-30 22:45:21 - CLASS : armada - FUNCTION : index - URL : localhost:8080/cv-atp/index.php/master/armada - USER ID : 340 - USER IP : ::1 - USER ROLE : 1 - BROWSER : Mozilla/5.0 (Windows NT 10.0; Win64; x64; rv:64.0) Gecko/20100101 Firefox/64.0 - USERNAME : safari
SYSTEM LOG -- DATE :2018-12-30 22:45:22 - CLASS : armada - FUNCTION : ajax_list - URL : localhost:8080/cv-atp/index.php/master/armada/ajax_list - USER ID : 340 - USER IP : ::1 - USER ROLE : 1 - BROWSER : Mozilla/5.0 (Windows NT 10.0; Win64; x64; rv:64.0) Gecko/20100101 Firefox/64.0 - USERNAME : safari
SYSTEM LOG -- DATE :2018-12-30 22:45:27 - CLASS : tujuan - FUNCTION : index - URL : localhost:8080/cv-atp/index.php/master/tujuan - USER ID : 340 - USER IP : ::1 - USER ROLE : 1 - BROWSER : Mozilla/5.0 (Windows NT 10.0; Win64; x64; rv:64.0) Gecko/20100101 Firefox/64.0 - USERNAME : safari
SYSTEM LOG -- DATE :2018-12-30 22:45:28 - CLASS : tujuan - FUNCTION : ajax_list - URL : localhost:8080/cv-atp/index.php/master/tujuan/ajax_list - USER ID : 340 - USER IP : ::1 - USER ROLE : 1 - BROWSER : Mozilla/5.0 (Windows NT 10.0; Win64; x64; rv:64.0) Gecko/20100101 Firefox/64.0 - USERNAME : safari
SYSTEM LOG -- DATE :2018-12-30 22:45:54 - CLASS : tujuan - FUNCTION : index - URL : localhost:8080/cv-atp/index.php/master/tujuan - USER ID : 340 - USER IP : ::1 - USER ROLE : 1 - BROWSER : Mozilla/5.0 (Windows NT 10.0; Win64; x64; rv:64.0) Gecko/20100101 Firefox/64.0 - USERNAME : safari
SYSTEM LOG -- DATE :2018-12-30 22:45:56 - CLASS : tujuan - FUNCTION : ajax_list - URL : localhost:8080/cv-atp/index.php/master/tujuan/ajax_list - USER ID : 340 - USER IP : ::1 - USER ROLE : 1 - BROWSER : Mozilla/5.0 (Windows NT 10.0; Win64; x64; rv:64.0) Gecko/20100101 Firefox/64.0 - USERNAME : safari
SYSTEM LOG -- DATE :2018-12-30 22:47:18 - CLASS : tujuan - FUNCTION : index - URL : localhost:8080/cv-atp/index.php/master/tujuan - USER ID : 340 - USER IP : ::1 - USER ROLE : 1 - BROWSER : Mozilla/5.0 (Windows NT 10.0; Win64; x64; rv:64.0) Gecko/20100101 Firefox/64.0 - USERNAME : safari
SYSTEM LOG -- DATE :2018-12-30 22:47:19 - CLASS : tujuan - FUNCTION : ajax_list - URL : localhost:8080/cv-atp/index.php/master/tujuan/ajax_list - USER ID : 340 - USER IP : ::1 - USER ROLE : 1 - BROWSER : Mozilla/5.0 (Windows NT 10.0; Win64; x64; rv:64.0) Gecko/20100101 Firefox/64.0 - USERNAME : safari
SYSTEM LOG -- DATE :2018-12-30 22:47:36 - CLASS : tujuan - FUNCTION : index - URL : localhost:8080/cv-atp/index.php/master/tujuan - USER ID : 340 - USER IP : ::1 - USER ROLE : 1 - BROWSER : Mozilla/5.0 (Windows NT 10.0; Win64; x64; rv:64.0) Gecko/20100101 Firefox/64.0 - USERNAME : safari
SYSTEM LOG -- DATE :2018-12-30 22:47:37 - CLASS : tujuan - FUNCTION : ajax_list - URL : localhost:8080/cv-atp/index.php/master/tujuan/ajax_list - USER ID : 340 - USER IP : ::1 - USER ROLE : 1 - BROWSER : Mozilla/5.0 (Windows NT 10.0; Win64; x64; rv:64.0) Gecko/20100101 Firefox/64.0 - USERNAME : safari
SYSTEM LOG -- DATE :2018-12-30 22:47:44 - CLASS : tujuan - FUNCTION : add - URL : localhost:8080/cv-atp/index.php/master/tujuan/add - USER ID : 340 - USER IP : ::1 - USER ROLE : 1 - BROWSER : Mozilla/5.0 (Windows NT 10.0; Win64; x64; rv:64.0) Gecko/20100101 Firefox/64.0 - USERNAME : safari
SYSTEM LOG -- DATE :2018-12-30 22:52:36 - CLASS : tujuan - FUNCTION : save - URL : localhost:8080/cv-atp/index.php/master/tujuan/save - USER ID : 340 - USER IP : ::1 - USER ROLE : 1 - BROWSER : Mozilla/5.0 (Windows NT 10.0; Win64; x64; rv:64.0) Gecko/20100101 Firefox/64.0 - USERNAME : safari
SYSTEM LOG -- DATE :2018-12-30 22:52:36 - CLASS : tujuan - FUNCTION : index - URL : localhost:8080/cv-atp/index.php/master/tujuan?msg=Success&type_msg=success - USER ID : 340 - USER IP : ::1 - USER ROLE : 1 - BROWSER : Mozilla/5.0 (Windows NT 10.0; Win64; x64; rv:64.0) Gecko/20100101 Firefox/64.0 - USERNAME : safari
SYSTEM LOG -- DATE :2018-12-30 22:52:37 - CLASS : tujuan - FUNCTION : ajax_list - URL : localhost:8080/cv-atp/index.php/master/tujuan/ajax_list - USER ID : 340 - USER IP : ::1 - USER ROLE : 1 - BROWSER : Mozilla/5.0 (Windows NT 10.0; Win64; x64; rv:64.0) Gecko/20100101 Firefox/64.0 - USERNAME : safari
SYSTEM LOG -- DATE :2018-12-30 22:52:52 - CLASS : tujuan - FUNCTION : edit - URL : localhost:8080/cv-atp/index.php/master/tujuan/edit/?_id=18BqutK%2F58fkT2PHemLvTnr9gt2lGsX%2FYk%2FZE8fscCokC2UKoqbo6oyaA%2FW9ea1%2BuLrEH0pRmFxwkeh6jgqksg%3D%3D - USER ID : 340 - USER IP : ::1 - USER ROLE : 1 - BROWSER : Mozilla/5.0 (Windows NT 10.0; Win64; x64; rv:64.0) Gecko/20100101 Firefox/64.0 - USERNAME : safari
SYSTEM LOG -- DATE :2018-12-30 22:52:58 - CLASS : tujuan - FUNCTION : save - URL : localhost:8080/cv-atp/index.php/master/tujuan/save - USER ID : 340 - USER IP : ::1 - USER ROLE : 1 - BROWSER : Mozilla/5.0 (Windows NT 10.0; Win64; x64; rv:64.0) Gecko/20100101 Firefox/64.0 - USERNAME : safari
SYSTEM LOG -- DATE :2018-12-30 22:52:58 - CLASS : tujuan - FUNCTION : index - URL : localhost:8080/cv-atp/index.php/master/tujuan?msg=Success&type_msg=success - USER ID : 340 - USER IP : ::1 - USER ROLE : 1 - BROWSER : Mozilla/5.0 (Windows NT 10.0; Win64; x64; rv:64.0) Gecko/20100101 Firefox/64.0 - USERNAME : safari
SYSTEM LOG -- DATE :2018-12-30 22:53:00 - CLASS : tujuan - FUNCTION : ajax_list - URL : localhost:8080/cv-atp/index.php/master/tujuan/ajax_list - USER ID : 340 - USER IP : ::1 - USER ROLE : 1 - BROWSER : Mozilla/5.0 (Windows NT 10.0; Win64; x64; rv:64.0) Gecko/20100101 Firefox/64.0 - USERNAME : safari
SYSTEM LOG -- DATE :2018-12-30 22:53:23 - CLASS : tujuan - FUNCTION : index - URL : localhost:8080/cv-atp/index.php/master/tujuan?msg=Success&type_msg=success - USER ID : 340 - USER IP : ::1 - USER ROLE : 1 - BROWSER : Mozilla/5.0 (Windows NT 10.0; Win64; x64; rv:64.0) Gecko/20100101 Firefox/64.0 - USERNAME : safari
SYSTEM LOG -- DATE :2018-12-30 22:53:24 - CLASS : tujuan - FUNCTION : ajax_list - URL : localhost:8080/cv-atp/index.php/master/tujuan/ajax_list - USER ID : 340 - USER IP : ::1 - USER ROLE : 1 - BROWSER : Mozilla/5.0 (Windows NT 10.0; Win64; x64; rv:64.0) Gecko/20100101 Firefox/64.0 - USERNAME : safari
SYSTEM LOG -- DATE :2018-12-30 22:53:42 - CLASS : tujuan - FUNCTION : index - URL : localhost:8080/cv-atp/index.php/master/tujuan?msg=Success&type_msg=success - USER ID : 340 - USER IP : ::1 - USER ROLE : 1 - BROWSER : Mozilla/5.0 (Windows NT 10.0; Win64; x64; rv:64.0) Gecko/20100101 Firefox/64.0 - USERNAME : safari
SYSTEM LOG -- DATE :2018-12-30 22:53:44 - CLASS : tujuan - FUNCTION : ajax_list - URL : localhost:8080/cv-atp/index.php/master/tujuan/ajax_list - USER ID : 340 - USER IP : ::1 - USER ROLE : 1 - BROWSER : Mozilla/5.0 (Windows NT 10.0; Win64; x64; rv:64.0) Gecko/20100101 Firefox/64.0 - USERNAME : safari
SYSTEM LOG -- DATE :2018-12-30 22:53:55 - CLASS : tujuan - FUNCTION : index - URL : localhost:8080/cv-atp/index.php/master/tujuan?msg=Success&type_msg=success - USER ID : 340 - USER IP : ::1 - USER ROLE : 1 - BROWSER : Mozilla/5.0 (Windows NT 10.0; Win64; x64; rv:64.0) Gecko/20100101 Firefox/64.0 - USERNAME : safari
SYSTEM LOG -- DATE :2018-12-30 22:53:57 - CLASS : tujuan - FUNCTION : ajax_list - URL : localhost:8080/cv-atp/index.php/master/tujuan/ajax_list - USER ID : 340 - USER IP : ::1 - USER ROLE : 1 - BROWSER : Mozilla/5.0 (Windows NT 10.0; Win64; x64; rv:64.0) Gecko/20100101 Firefox/64.0 - USERNAME : safari
SYSTEM LOG -- DATE :2018-12-30 22:54:03 - CLASS : tujuan - FUNCTION : add - URL : localhost:8080/cv-atp/index.php/master/tujuan/add - USER ID : 340 - USER IP : ::1 - USER ROLE : 1 - BROWSER : Mozilla/5.0 (Windows NT 10.0; Win64; x64; rv:64.0) Gecko/20100101 Firefox/64.0 - USERNAME : safari
SYSTEM LOG -- DATE :2018-12-30 22:54:14 - CLASS : tujuan - FUNCTION : save - URL : localhost:8080/cv-atp/index.php/master/tujuan/save - USER ID : 340 - USER IP : ::1 - USER ROLE : 1 - BROWSER : Mozilla/5.0 (Windows NT 10.0; Win64; x64; rv:64.0) Gecko/20100101 Firefox/64.0 - USERNAME : safari
SYSTEM LOG -- DATE :2018-12-30 22:54:14 - CLASS : tujuan - FUNCTION : index - URL : localhost:8080/cv-atp/index.php/master/tujuan?msg=Success&type_msg=success - USER ID : 340 - USER IP : ::1 - USER ROLE : 1 - BROWSER : Mozilla/5.0 (Windows NT 10.0; Win64; x64; rv:64.0) Gecko/20100101 Firefox/64.0 - USERNAME : safari
SYSTEM LOG -- DATE :2018-12-30 22:54:16 - CLASS : tujuan - FUNCTION : ajax_list - URL : localhost:8080/cv-atp/index.php/master/tujuan/ajax_list - USER ID : 340 - USER IP : ::1 - USER ROLE : 1 - BROWSER : Mozilla/5.0 (Windows NT 10.0; Win64; x64; rv:64.0) Gecko/20100101 Firefox/64.0 - USERNAME : safari
