SYSTEM LOG -- DATE :2018-12-12 21:18:27 - CLASS : entry_formulir - FUNCTION : index - URL : localhost:8080/dpt/index.php/master/entry_formulir - USER ID : 340 - USER IP : ::1 - USER ROLE : 1 - BROWSER : Mozilla/5.0 (Windows NT 10.0; Win64; x64) AppleWebKit/537.36 (KHTML, like Gecko) Chrome/71.0.3578.80 Safari/537.36 - USERNAME : safari
SYSTEM LOG -- DATE :2018-12-12 21:19:03 - CLASS : me - FUNCTION : index - URL : localhost:8080/dpt/?msg=Access%20denied%20&type=error - USER ID : 340 - USER IP : ::1 - USER ROLE : 1 - BROWSER : Mozilla/5.0 (Windows NT 10.0; Win64; x64) AppleWebKit/537.36 (KHTML, like Gecko) Chrome/71.0.3578.80 Safari/537.36 - USERNAME : safari
SYSTEM LOG -- DATE :2018-12-12 21:19:07 - CLASS : master_anggota - FUNCTION : index - URL : localhost:8080/dpt/index.php/master/master_anggota - USER ID : 340 - USER IP : ::1 - USER ROLE : 1 - BROWSER : Mozilla/5.0 (Windows NT 10.0; Win64; x64) AppleWebKit/537.36 (KHTML, like Gecko) Chrome/71.0.3578.80 Safari/537.36 - USERNAME : safari
SYSTEM LOG -- DATE :2018-12-12 21:40:09 - CLASS : master_anggota - FUNCTION : ajax_list - URL : localhost:8080/dpt/index.php/master/master_anggota/ajax_list - USER ID : 340 - USER IP : ::1 - USER ROLE : 1 - BROWSER : Mozilla/5.0 (Windows NT 10.0; Win64; x64) AppleWebKit/537.36 (KHTML, like Gecko) Chrome/71.0.3578.80 Safari/537.36 - USERNAME : safari
SYSTEM LOG -- DATE :2018-12-12 21:44:25 - CLASS : me - FUNCTION : index - URL : localhost:8080/dpt/index.php/meme/me - USER ID : 340 - USER IP : ::1 - USER ROLE : 1 - BROWSER : Mozilla/5.0 (Windows NT 10.0; Win64; x64; rv:63.0) Gecko/20100101 Firefox/63.0 - USERNAME : safari
SYSTEM LOG -- DATE :2018-12-12 21:44:30 - CLASS : master_anggota - FUNCTION : index - URL : localhost:8080/dpt/index.php/master/master_anggota - USER ID : 340 - USER IP : ::1 - USER ROLE : 1 - BROWSER : Mozilla/5.0 (Windows NT 10.0; Win64; x64; rv:63.0) Gecko/20100101 Firefox/63.0 - USERNAME : safari
SYSTEM LOG -- DATE :2018-12-12 21:44:31 - CLASS : master_anggota - FUNCTION : ajax_list - URL : localhost:8080/dpt/index.php/master/master_anggota/ajax_list - USER ID : 340 - USER IP : ::1 - USER ROLE : 1 - BROWSER : Mozilla/5.0 (Windows NT 10.0; Win64; x64; rv:63.0) Gecko/20100101 Firefox/63.0 - USERNAME : safari
SYSTEM LOG -- DATE :2018-12-12 21:55:39 - CLASS : me - FUNCTION : index - URL : localhost:8080/dpt/index.php/meme/me - USER ID : 340 - USER IP : ::1 - USER ROLE : 1 - BROWSER : Mozilla/5.0 (Windows NT 10.0; Win64; x64; rv:63.0) Gecko/20100101 Firefox/63.0 - USERNAME : safari
SYSTEM LOG -- DATE :2018-12-12 21:56:10 - CLASS : master_anggota - FUNCTION : index - URL : localhost:8080/dpt/index.php/master/master_anggota - USER ID : 340 - USER IP : ::1 - USER ROLE : 1 - BROWSER : Mozilla/5.0 (Windows NT 10.0; Win64; x64; rv:63.0) Gecko/20100101 Firefox/63.0 - USERNAME : safari
SYSTEM LOG -- DATE :2018-12-12 21:56:12 - CLASS : master_anggota - FUNCTION : ajax_list - URL : localhost:8080/dpt/index.php/master/master_anggota/ajax_list - USER ID : 340 - USER IP : ::1 - USER ROLE : 1 - BROWSER : Mozilla/5.0 (Windows NT 10.0; Win64; x64; rv:63.0) Gecko/20100101 Firefox/63.0 - USERNAME : safari
SYSTEM LOG -- DATE :2018-12-12 22:44:50 - CLASS : master_anggota - FUNCTION : index - URL : localhost:8080/dpt/index.php/master/master_anggota - USER ID : 340 - USER IP : ::1 - USER ROLE : 1 - BROWSER : Mozilla/5.0 (Windows NT 10.0; Win64; x64) AppleWebKit/537.36 (KHTML, like Gecko) Chrome/71.0.3578.80 Safari/537.36 - USERNAME : safari
SYSTEM LOG -- DATE :2018-12-12 22:49:58 - CLASS : master_anggota - FUNCTION : index - URL : localhost:8080/dpt/index.php/master/master_anggota - USER ID : 340 - USER IP : ::1 - USER ROLE : 1 - BROWSER : Mozilla/5.0 (Windows NT 10.0; Win64; x64; rv:63.0) Gecko/20100101 Firefox/63.0 - USERNAME : safari
SYSTEM LOG -- DATE :2018-12-12 22:57:51 - CLASS : master_anggota - FUNCTION : index - URL : localhost:8080/dpt/index.php/master/master_anggota - USER ID : 340 - USER IP : ::1 - USER ROLE : 1 - BROWSER : Mozilla/5.0 (Windows NT 10.0; Win64; x64; rv:63.0) Gecko/20100101 Firefox/63.0 - USERNAME : safari
SYSTEM LOG -- DATE :2018-12-12 22:57:52 - CLASS : master_anggota - FUNCTION : ajax_list - URL : localhost:8080/dpt/index.php/master/master_anggota/ajax_list - USER ID : 340 - USER IP : ::1 - USER ROLE : 1 - BROWSER : Mozilla/5.0 (Windows NT 10.0; Win64; x64; rv:63.0) Gecko/20100101 Firefox/63.0 - USERNAME : safari
SYSTEM LOG -- DATE :2018-12-12 23:13:45 - CLASS : me - FUNCTION : index - URL : localhost:8080/dpt/index.php/meme/me - USER ID : 340 - USER IP : ::1 - USER ROLE : 1 - BROWSER : Mozilla/5.0 (Windows NT 10.0; Win64; x64; rv:63.0) Gecko/20100101 Firefox/63.0 - USERNAME : safari
SYSTEM LOG -- DATE :2018-12-12 23:13:47 - CLASS : master_anggota - FUNCTION : index - URL : localhost:8080/dpt/index.php/master/master_anggota - USER ID : 340 - USER IP : ::1 - USER ROLE : 1 - BROWSER : Mozilla/5.0 (Windows NT 10.0; Win64; x64; rv:63.0) Gecko/20100101 Firefox/63.0 - USERNAME : safari
SYSTEM LOG -- DATE :2018-12-12 23:13:48 - CLASS : master_anggota - FUNCTION : ajax_list - URL : localhost:8080/dpt/index.php/master/master_anggota/ajax_list - USER ID : 340 - USER IP : ::1 - USER ROLE : 1 - BROWSER : Mozilla/5.0 (Windows NT 10.0; Win64; x64; rv:63.0) Gecko/20100101 Firefox/63.0 - USERNAME : safari
SYSTEM LOG -- DATE :2018-12-12 23:18:41 - CLASS : me - FUNCTION : index - URL : localhost:8080/dpt/index.php/meme/me - USER ID : 340 - USER IP : ::1 - USER ROLE : 1 - BROWSER : Mozilla/5.0 (Windows NT 10.0; Win64; x64) AppleWebKit/537.36 (KHTML, like Gecko) Chrome/71.0.3578.80 Safari/537.36 - USERNAME : safari
SYSTEM LOG -- DATE :2018-12-12 23:18:44 - CLASS : master_anggota - FUNCTION : index - URL : localhost:8080/dpt/index.php/master/master_anggota - USER ID : 340 - USER IP : ::1 - USER ROLE : 1 - BROWSER : Mozilla/5.0 (Windows NT 10.0; Win64; x64) AppleWebKit/537.36 (KHTML, like Gecko) Chrome/71.0.3578.80 Safari/537.36 - USERNAME : safari
SYSTEM LOG -- DATE :2018-12-12 23:18:44 - CLASS : master_anggota - FUNCTION : ajax_list - URL : localhost:8080/dpt/index.php/master/master_anggota/ajax_list - USER ID : 340 - USER IP : ::1 - USER ROLE : 1 - BROWSER : Mozilla/5.0 (Windows NT 10.0; Win64; x64) AppleWebKit/537.36 (KHTML, like Gecko) Chrome/71.0.3578.80 Safari/537.36 - USERNAME : safari
SYSTEM LOG -- DATE :2018-12-12 23:19:33 - CLASS : me - FUNCTION : index - URL : localhost:8080/dpt/index.php/meme/me - USER ID : 340 - USER IP : ::1 - USER ROLE : 1 - BROWSER : Mozilla/5.0 (Windows NT 10.0; Win64; x64; rv:63.0) Gecko/20100101 Firefox/63.0 - USERNAME : safari
SYSTEM LOG -- DATE :2018-12-12 23:19:44 - CLASS : master_anggota - FUNCTION : ajax_list - URL : localhost:8080/dpt/index.php/master/master_anggota/ajax_list - USER ID : 340 - USER IP : ::1 - USER ROLE : 1 - BROWSER : Mozilla/5.0 (Windows NT 10.0; Win64; x64; rv:63.0) Gecko/20100101 Firefox/63.0 - USERNAME : safari
SYSTEM LOG -- DATE :2018-12-12 23:23:52 - CLASS : me - FUNCTION : index - URL : localhost:8080/dpt/index.php/meme/me - USER ID : 340 - USER IP : ::1 - USER ROLE : 1 - BROWSER : Mozilla/5.0 (Windows NT 10.0; Win64; x64; rv:63.0) Gecko/20100101 Firefox/63.0 - USERNAME : safari
SYSTEM LOG -- DATE :2018-12-12 23:24:00 - CLASS : master_anggota - FUNCTION : index - URL : localhost:8080/dpt/index.php/master/master_anggota - USER ID : 340 - USER IP : ::1 - USER ROLE : 1 - BROWSER : Mozilla/5.0 (Windows NT 10.0; Win64; x64; rv:63.0) Gecko/20100101 Firefox/63.0 - USERNAME : safari
SYSTEM LOG -- DATE :2018-12-12 23:24:02 - CLASS : master_anggota - FUNCTION : ajax_list - URL : localhost:8080/dpt/index.php/master/master_anggota/ajax_list - USER ID : 340 - USER IP : ::1 - USER ROLE : 1 - BROWSER : Mozilla/5.0 (Windows NT 10.0; Win64; x64; rv:63.0) Gecko/20100101 Firefox/63.0 - USERNAME : safari
SYSTEM LOG -- DATE :2018-12-12 23:25:25 - CLASS : master_anggota - FUNCTION : index - URL : localhost:8080/dpt/index.php/master/master_anggota - USER ID : 340 - USER IP : ::1 - USER ROLE : 1 - BROWSER : Mozilla/5.0 (Windows NT 10.0; Win64; x64; rv:63.0) Gecko/20100101 Firefox/63.0 - USERNAME : safari
SYSTEM LOG -- DATE :2018-12-12 23:25:26 - CLASS : master_anggota - FUNCTION : ajax_list - URL : localhost:8080/dpt/index.php/master/master_anggota/ajax_list - USER ID : 340 - USER IP : ::1 - USER ROLE : 1 - BROWSER : Mozilla/5.0 (Windows NT 10.0; Win64; x64; rv:63.0) Gecko/20100101 Firefox/63.0 - USERNAME : safari
SYSTEM LOG -- DATE :2018-12-12 23:27:24 - CLASS : me - FUNCTION : index - URL : localhost:8080/dpt/index.php/meme/me - USER ID : 340 - USER IP : ::1 - USER ROLE : 1 - BROWSER : Mozilla/5.0 (Windows NT 10.0; Win64; x64; rv:63.0) Gecko/20100101 Firefox/63.0 - USERNAME : safari
SYSTEM LOG -- DATE :2018-12-12 23:27:33 - CLASS : master_anggota - FUNCTION : index - URL : localhost:8080/dpt/index.php/master/master_anggota - USER ID : 340 - USER IP : ::1 - USER ROLE : 1 - BROWSER : Mozilla/5.0 (Windows NT 10.0; Win64; x64; rv:63.0) Gecko/20100101 Firefox/63.0 - USERNAME : safari
SYSTEM LOG -- DATE :2018-12-12 23:27:36 - CLASS : master_anggota - FUNCTION : ajax_list - URL : localhost:8080/dpt/index.php/master/master_anggota/ajax_list - USER ID : 340 - USER IP : ::1 - USER ROLE : 1 - BROWSER : Mozilla/5.0 (Windows NT 10.0; Win64; x64; rv:63.0) Gecko/20100101 Firefox/63.0 - USERNAME : safari
SYSTEM LOG -- DATE :2018-12-12 23:33:47 - CLASS : me - FUNCTION : index - URL : localhost:8080/dpt/index.php/meme/me - USER ID : 340 - USER IP : ::1 - USER ROLE : 1 - BROWSER : Mozilla/5.0 (Windows NT 10.0; Win64; x64; rv:63.0) Gecko/20100101 Firefox/63.0 - USERNAME : safari
SYSTEM LOG -- DATE :2018-12-12 23:34:00 - CLASS : master_anggota - FUNCTION : index - URL : localhost:8080/dpt/index.php/master/master_anggota - USER ID : 340 - USER IP : ::1 - USER ROLE : 1 - BROWSER : Mozilla/5.0 (Windows NT 10.0; Win64; x64; rv:63.0) Gecko/20100101 Firefox/63.0 - USERNAME : safari
SYSTEM LOG -- DATE :2018-12-12 23:34:09 - CLASS : master_anggota - FUNCTION : ajax_list - URL : localhost:8080/dpt/index.php/master/master_anggota/ajax_list - USER ID : 340 - USER IP : ::1 - USER ROLE : 1 - BROWSER : Mozilla/5.0 (Windows NT 10.0; Win64; x64; rv:63.0) Gecko/20100101 Firefox/63.0 - USERNAME : safari
