SYSTEM LOG -- DATE :2019-07-01 23:17:21 - CLASS : me - FUNCTION : index - URL : localhost/cv-atp/index.php/meme/me - USER ID : 340 - USER IP : ::1 - USER ROLE : 1 - BROWSER : Mozilla/5.0 (Windows NT 10.0; Win64; x64; rv:67.0) Gecko/20100101 Firefox/67.0 - USERNAME : safari
SYSTEM LOG -- DATE :2019-07-01 23:17:27 - CLASS : laporan_order - FUNCTION : index - URL : localhost/cv-atp/index.php/report/laporan_order - USER ID : 340 - USER IP : ::1 - USER ROLE : 1 - BROWSER : Mozilla/5.0 (Windows NT 10.0; Win64; x64; rv:67.0) Gecko/20100101 Firefox/67.0 - USERNAME : safari
SYSTEM LOG -- DATE :2019-07-01 23:17:31 - CLASS : laporan_order - FUNCTION : search - URL : localhost/cv-atp/index.php/report/laporan_order/search - USER ID : 340 - USER IP : ::1 - USER ROLE : 1 - BROWSER : Mozilla/5.0 (Windows NT 10.0; Win64; x64; rv:67.0) Gecko/20100101 Firefox/67.0 - USERNAME : safari
SYSTEM LOG -- DATE :2019-07-01 23:17:39 - CLASS : group - FUNCTION : index - URL : localhost/cv-atp/index.php/meme/group - USER ID : 340 - USER IP : ::1 - USER ROLE : 1 - BROWSER : Mozilla/5.0 (Windows NT 10.0; Win64; x64; rv:67.0) Gecko/20100101 Firefox/67.0 - USERNAME : safari
SYSTEM LOG -- DATE :2019-07-01 23:17:44 - CLASS : armada - FUNCTION : index - URL : localhost/cv-atp/index.php/master/armada - USER ID : 340 - USER IP : ::1 - USER ROLE : 1 - BROWSER : Mozilla/5.0 (Windows NT 10.0; Win64; x64; rv:67.0) Gecko/20100101 Firefox/67.0 - USERNAME : safari
SYSTEM LOG -- DATE :2019-07-01 23:17:45 - CLASS : armada - FUNCTION : ajax_list - URL : localhost/cv-atp/index.php/master/armada/ajax_list - USER ID : 340 - USER IP : ::1 - USER ROLE : 1 - BROWSER : Mozilla/5.0 (Windows NT 10.0; Win64; x64; rv:67.0) Gecko/20100101 Firefox/67.0 - USERNAME : safari
