SYSTEM LOG -- DATE :2017-09-05 01:24:09 - CLASS : me - FUNCTION : index - URL : localhost:8080/golkar/ - USER ID : 340 - USER IP : ::1 - USER ROLE : 1 - BROWSER : Mozilla/5.0 (Windows NT 10.0; Win64; x64) AppleWebKit/537.36 (KHTML, like Gecko) Chrome/60.0.3112.113 Safari/537.36 - USERNAME : safari - VAR GET: [] - VAR POST: []
SYSTEM LOG -- DATE :2017-09-05 01:24:14 - CLASS : master_anggota - FUNCTION : index - URL : localhost:8080/golkar/index.php/master/master_anggota - USER ID : 340 - USER IP : ::1 - USER ROLE : 1 - BROWSER : Mozilla/5.0 (Windows NT 10.0; Win64; x64) AppleWebKit/537.36 (KHTML, like Gecko) Chrome/60.0.3112.113 Safari/537.36 - USERNAME : safari - VAR GET: [] - VAR POST: []
SYSTEM LOG -- DATE :2017-09-05 01:30:53 - CLASS : me - FUNCTION : index - URL : localhost:8080/golkar/ - USER ID : 340 - USER IP : ::1 - USER ROLE : 1 - BROWSER : Mozilla/5.0 (Windows NT 10.0; Win64; x64) AppleWebKit/537.36 (KHTML, like Gecko) Chrome/60.0.3112.113 Safari/537.36 - USERNAME : safari - VAR GET: [] - VAR POST: []
SYSTEM LOG -- DATE :2017-09-05 01:31:00 - CLASS : upload_formulir - FUNCTION : index - URL : localhost:8080/golkar/index.php/master/upload_formulir - USER ID : 340 - USER IP : ::1 - USER ROLE : 1 - BROWSER : Mozilla/5.0 (Windows NT 10.0; Win64; x64) AppleWebKit/537.36 (KHTML, like Gecko) Chrome/60.0.3112.113 Safari/537.36 - USERNAME : safari - VAR GET: [] - VAR POST: []
SYSTEM LOG -- DATE :2017-09-05 01:31:06 - CLASS : me - FUNCTION : index - URL : localhost:8080/golkar/index.php/meme/me - USER ID : 340 - USER IP : ::1 - USER ROLE : 1 - BROWSER : Mozilla/5.0 (Windows NT 10.0; Win64; x64) AppleWebKit/537.36 (KHTML, like Gecko) Chrome/60.0.3112.113 Safari/537.36 - USERNAME : safari - VAR GET: [] - VAR POST: []
SYSTEM LOG -- DATE :2017-09-05 01:31:12 - CLASS : master_anggota - FUNCTION : index - URL : localhost:8080/golkar/index.php/master/master_anggota - USER ID : 340 - USER IP : ::1 - USER ROLE : 1 - BROWSER : Mozilla/5.0 (Windows NT 10.0; Win64; x64) AppleWebKit/537.36 (KHTML, like Gecko) Chrome/60.0.3112.113 Safari/537.36 - USERNAME : safari - VAR GET: [] - VAR POST: []
SYSTEM LOG -- DATE :2017-09-05 01:31:19 - CLASS : master_anggota - FUNCTION : search - URL : localhost:8080/golkar/index.php/master/master_anggota/search - USER ID : 340 - USER IP : ::1 - USER ROLE : 1 - BROWSER : Mozilla/5.0 (Windows NT 10.0; Win64; x64) AppleWebKit/537.36 (KHTML, like Gecko) Chrome/60.0.3112.113 Safari/537.36 - USERNAME : safari - VAR GET: [] - VAR POST: {"propinsi":"","kabupaten":"","kecamatan":"","kelurahan":"","pengusul":"4","nama":"","status":"","jabatan":"","btn_search":"Search!"}
SYSTEM LOG -- DATE :2017-09-05 01:36:19 - CLASS : me - FUNCTION : index - URL : localhost:8080/golkar/ - USER ID : 340 - USER IP : ::1 - USER ROLE : 1 - BROWSER : Mozilla/5.0 (Windows NT 10.0; Win64; x64) AppleWebKit/537.36 (KHTML, like Gecko) Chrome/60.0.3112.113 Safari/537.36 - USERNAME : safari - VAR GET: [] - VAR POST: []
SYSTEM LOG -- DATE :2017-09-05 01:36:41 - CLASS : me - FUNCTION : verifikasi - URL : localhost:8080/golkar/index.php/meme/me/verifikasi - USER ID : 340 - USER IP : ::1 - USER ROLE : 1 - BROWSER : Mozilla/5.0 (Windows NT 10.0; Win64; x64) AppleWebKit/537.36 (KHTML, like Gecko) Chrome/60.0.3112.113 Safari/537.36 - USERNAME : safari - VAR GET: [] - VAR POST: []
SYSTEM LOG -- DATE :2017-09-05 01:36:45 - CLASS : data - FUNCTION : get_verification_data - URL : localhost:8080/golkar/index.php/ajax/data/get_verification_data - USER ID : 340 - USER IP : ::1 - USER ROLE : 1 - BROWSER : Mozilla/5.0 (Windows NT 10.0; Win64; x64) AppleWebKit/537.36 (KHTML, like Gecko) Chrome/60.0.3112.113 Safari/537.36 - USERNAME : safari - VAR GET: [] - VAR POST: {"verifikasi":"nurul astria"}
SYSTEM LOG -- DATE :2017-09-05 01:36:50 - CLASS : me - FUNCTION : verifikasi - URL : localhost:8080/golkar/index.php/meme/me/verifikasi/?_id=2dp66pQFc%2BqlOffklgM8CnAOU4AS7wltBt%2Be0oDN42JbnDGmXaRmIhCd3%2F%2Bm79iEek0orTxqC2QD7zDnPH%2BbhA%3D%3D - USER ID : 340 - USER IP : ::1 - USER ROLE : 1 - BROWSER : Mozilla/5.0 (Windows NT 10.0; Win64; x64) AppleWebKit/537.36 (KHTML, like Gecko) Chrome/60.0.3112.113 Safari/537.36 - USERNAME : safari - VAR GET: {"_id":"2dp66pQFc+qlOffklgM8CnAOU4AS7wltBt+e0oDN42JbnDGmXaRmIhCd3\/+m79iEek0orTxqC2QD7zDnPH+bhA=="} - VAR POST: []
SYSTEM LOG -- DATE :2017-09-05 11:16:09 - CLASS : me - FUNCTION : index - URL : localhost:8080/golkar/index.php/meme/me - USER ID : 340 - USER IP : ::1 - USER ROLE : 1 - BROWSER : Mozilla/5.0 (Windows NT 10.0; Win64; x64) AppleWebKit/537.36 (KHTML, like Gecko) Chrome/60.0.3112.113 Safari/537.36 - USERNAME : safari - VAR GET: [] - VAR POST: []
SYSTEM LOG -- DATE :2017-09-05 11:19:14 - CLASS : group - FUNCTION : index - URL : localhost:8080/golkar/index.php/meme/group - USER ID : 340 - USER IP : ::1 - USER ROLE : 1 - BROWSER : Mozilla/5.0 (Windows NT 10.0; Win64; x64) AppleWebKit/537.36 (KHTML, like Gecko) Chrome/60.0.3112.113 Safari/537.36 - USERNAME : safari - VAR GET: [] - VAR POST: []
SYSTEM LOG -- DATE :2017-09-05 11:19:17 - CLASS : group - FUNCTION : access - URL : localhost:8080/golkar/index.php/meme/group/access/?_id=YSyoTL0Do6TipX8WHWUtmjOnhBHHww1lH7PIVTEkSVGnGfXRsFQEu4HrDZKv71iuuBki4PqYW1%2BWdLRYIEec4w%3D%3D - USER ID : 340 - USER IP : ::1 - USER ROLE : 1 - BROWSER : Mozilla/5.0 (Windows NT 10.0; Win64; x64) AppleWebKit/537.36 (KHTML, like Gecko) Chrome/60.0.3112.113 Safari/537.36 - USERNAME : safari - VAR GET: {"_id":"YSyoTL0Do6TipX8WHWUtmjOnhBHHww1lH7PIVTEkSVGnGfXRsFQEu4HrDZKv71iuuBki4PqYW1+WdLRYIEec4w=="} - VAR POST: []
SYSTEM LOG -- DATE :2017-09-05 11:20:49 - CLASS : group - FUNCTION : index - URL : localhost:8080/golkar/index.php/meme/group?msg=Update+for+Access+Control+List+Success&type_msg=success - USER ID : 340 - USER IP : ::1 - USER ROLE : 1 - BROWSER : Mozilla/5.0 (Windows NT 10.0; Win64; x64) AppleWebKit/537.36 (KHTML, like Gecko) Chrome/60.0.3112.113 Safari/537.36 - USERNAME : safari - VAR GET: {"msg":"Update for Access Control List Success","type_msg":"success"} - VAR POST: []
SYSTEM LOG -- DATE :2017-09-05 14:35:34 - CLASS : excel_report - FUNCTION : index - URL : localhost:8080/golkar/index.php/report/excel_report - USER ID : 340 - USER IP : ::1 - USER ROLE : 1 - BROWSER : Mozilla/5.0 (Windows NT 10.0; Win64; x64) AppleWebKit/537.36 (KHTML, like Gecko) Chrome/60.0.3112.113 Safari/537.36 - USERNAME : safari - VAR GET: [] - VAR POST: []
SYSTEM LOG -- DATE :2017-09-05 15:27:53 - CLASS : master_anggota - FUNCTION : index - URL : localhost:8080/golkar/index.php/master/master_anggota - USER ID : 340 - USER IP : ::1 - USER ROLE : 1 - BROWSER : Mozilla/5.0 (Windows NT 10.0; Win64; x64) AppleWebKit/537.36 (KHTML, like Gecko) Chrome/60.0.3112.113 Safari/537.36 - USERNAME : safari - VAR GET: [] - VAR POST: []
SYSTEM LOG -- DATE :2017-09-05 15:27:57 - CLASS : excel_report - FUNCTION : index - URL : localhost:8080/golkar/index.php/report/excel_report - USER ID : 340 - USER IP : ::1 - USER ROLE : 1 - BROWSER : Mozilla/5.0 (Windows NT 10.0; Win64; x64) AppleWebKit/537.36 (KHTML, like Gecko) Chrome/60.0.3112.113 Safari/537.36 - USERNAME : safari - VAR GET: [] - VAR POST: []
SYSTEM LOG -- DATE :2017-09-05 16:16:16 - CLASS : excel_report - FUNCTION : search - URL : localhost:8080/golkar/index.php/report/excel_report/search - USER ID : 340 - USER IP : ::1 - USER ROLE : 1 - BROWSER : Mozilla/5.0 (Windows NT 10.0; Win64; x64) AppleWebKit/537.36 (KHTML, like Gecko) Chrome/60.0.3112.113 Safari/537.36 - USERNAME : safari - VAR GET: [] - VAR POST: {"propinsi":"","date_from":"","date_to":"","btn_search":"Search"}
SYSTEM LOG -- DATE :2017-09-05 16:19:04 - CLASS : excel_report - FUNCTION : index - URL : localhost:8080/golkar/index.php/report/excel_report - USER ID : 340 - USER IP : ::1 - USER ROLE : 1 - BROWSER : Mozilla/5.0 (Windows NT 10.0; Win64; x64) AppleWebKit/537.36 (KHTML, like Gecko) Chrome/60.0.3112.113 Safari/537.36 - USERNAME : safari - VAR GET: [] - VAR POST: []
SYSTEM LOG -- DATE :2017-09-05 16:19:55 - CLASS : excel_report - FUNCTION : search - URL : localhost:8080/golkar/index.php/report/excel_report/search - USER ID : 340 - USER IP : ::1 - USER ROLE : 1 - BROWSER : Mozilla/5.0 (Windows NT 10.0; Win64; x64) AppleWebKit/537.36 (KHTML, like Gecko) Chrome/60.0.3112.113 Safari/537.36 - USERNAME : safari - VAR GET: [] - VAR POST: {"tipe":"SIPOL","propinsi":"","date_from":"","date_to":"","btn_search":"Search"}
SYSTEM LOG -- DATE :2017-09-05 16:20:09 - CLASS : excel_report - FUNCTION : index - URL : localhost:8080/golkar/index.php/report/excel_report - USER ID : 340 - USER IP : ::1 - USER ROLE : 1 - BROWSER : Mozilla/5.0 (Windows NT 10.0; Win64; x64) AppleWebKit/537.36 (KHTML, like Gecko) Chrome/60.0.3112.113 Safari/537.36 - USERNAME : safari - VAR GET: [] - VAR POST: []
SYSTEM LOG -- DATE :2017-09-05 16:21:26 - CLASS : excel_report - FUNCTION : search - URL : localhost:8080/golkar/index.php/report/excel_report/search - USER ID : 340 - USER IP : ::1 - USER ROLE : 1 - BROWSER : Mozilla/5.0 (Windows NT 10.0; Win64; x64) AppleWebKit/537.36 (KHTML, like Gecko) Chrome/60.0.3112.113 Safari/537.36 - USERNAME : safari - VAR GET: [] - VAR POST: {"tipe":"SIPOL","propinsi":"","date_from":"","date_to":"","btn_search":"Search"}
SYSTEM LOG -- DATE :2017-09-05 16:23:28 - CLASS : excel_report - FUNCTION : index - URL : localhost:8080/golkar/index.php/report/excel_report - USER ID : 340 - USER IP : ::1 - USER ROLE : 1 - BROWSER : Mozilla/5.0 (Windows NT 10.0; Win64; x64) AppleWebKit/537.36 (KHTML, like Gecko) Chrome/60.0.3112.113 Safari/537.36 - USERNAME : safari - VAR GET: [] - VAR POST: []
SYSTEM LOG -- DATE :2017-09-05 16:43:56 - CLASS : excel_report - FUNCTION : search - URL : localhost:8080/golkar/index.php/report/excel_report/search - USER ID : 340 - USER IP : ::1 - USER ROLE : 1 - BROWSER : Mozilla/5.0 (Windows NT 10.0; Win64; x64) AppleWebKit/537.36 (KHTML, like Gecko) Chrome/60.0.3112.113 Safari/537.36 - USERNAME : safari - VAR GET: [] - VAR POST: {"tipe":"SIPOL","propinsi":"","date_from":"","date_to":"","btn_search":"Search"}
