SYSTEM LOG -- DATE :2018-05-05 19:30:34 - CLASS : me - FUNCTION : index - URL : localhost:8080/kaderisasi/index.php/meme/me - USER ID : 340 - USER IP : ::1 - USER ROLE : 1 - BROWSER : Mozilla/5.0 (Windows NT 10.0; Win64; x64) AppleWebKit/537.36 (KHTML, like Gecko) Chrome/66.0.3359.139 Safari/537.36 - USERNAME : safari
SYSTEM LOG -- DATE :2018-05-05 19:30:38 - CLASS : master_anggota - FUNCTION : index - URL : localhost:8080/kaderisasi/index.php/master/master_anggota - USER ID : 340 - USER IP : ::1 - USER ROLE : 1 - BROWSER : Mozilla/5.0 (Windows NT 10.0; Win64; x64) AppleWebKit/537.36 (KHTML, like Gecko) Chrome/66.0.3359.139 Safari/537.36 - USERNAME : safari
SYSTEM LOG -- DATE :2018-05-05 19:30:57 - CLASS : tanda_terima - FUNCTION : index - URL : localhost:8080/kaderisasi/index.php/report/tanda_terima - USER ID : 340 - USER IP : ::1 - USER ROLE : 1 - BROWSER : Mozilla/5.0 (Windows NT 10.0; Win64; x64) AppleWebKit/537.36 (KHTML, like Gecko) Chrome/66.0.3359.139 Safari/537.36 - USERNAME : safari
SYSTEM LOG -- DATE :2018-05-05 19:31:01 - CLASS : tanda_terima - FUNCTION : edit - URL : localhost:8080/kaderisasi/index.php/report/tanda_terima/edit/?_id=atEQiOM3SKqNqNd2UZNPAJeAI02g5YJkVNoHJEcw6B8XIS7et6XbVjbaruoxZGa3e2Eos0FoCAss4prRe9hhaA%3D%3D - USER ID : 340 - USER IP : ::1 - USER ROLE : 1 - BROWSER : Mozilla/5.0 (Windows NT 10.0; Win64; x64) AppleWebKit/537.36 (KHTML, like Gecko) Chrome/66.0.3359.139 Safari/537.36 - USERNAME : safari
SYSTEM LOG -- DATE :2018-05-05 19:31:01 - CLASS : data - FUNCTION : kabupaten - URL : localhost:8080/kaderisasi/index.php/ajax/data/kabupaten - USER ID : 340 - USER IP : ::1 - USER ROLE : 1 - BROWSER : Mozilla/5.0 (Windows NT 10.0; Win64; x64) AppleWebKit/537.36 (KHTML, like Gecko) Chrome/66.0.3359.139 Safari/537.36 - USERNAME : safari
SYSTEM LOG -- DATE :2018-05-05 19:31:01 - CLASS : data - FUNCTION : kecamatan - URL : localhost:8080/kaderisasi/index.php/ajax/data/kecamatan - USER ID : 340 - USER IP : ::1 - USER ROLE : 1 - BROWSER : Mozilla/5.0 (Windows NT 10.0; Win64; x64) AppleWebKit/537.36 (KHTML, like Gecko) Chrome/66.0.3359.139 Safari/537.36 - USERNAME : safari
SYSTEM LOG -- DATE :2018-05-05 19:31:01 - CLASS : tanda_terima - FUNCTION : edit - URL : localhost:8080/kaderisasi/index.php/report/tanda_terima/edit/favicon.ico - USER ID : 340 - USER IP : ::1 - USER ROLE : 1 - BROWSER : Mozilla/5.0 (Windows NT 10.0; Win64; x64) AppleWebKit/537.36 (KHTML, like Gecko) Chrome/66.0.3359.139 Safari/537.36 - USERNAME : safari
SYSTEM LOG -- DATE :2018-05-05 19:31:02 - CLASS : tanda_terima - FUNCTION : index - URL : localhost:8080/kaderisasi/index.php/report/tanda_terima?msg=Error%20Parse&type_msg=error - USER ID : 340 - USER IP : ::1 - USER ROLE : 1 - BROWSER : Mozilla/5.0 (Windows NT 10.0; Win64; x64) AppleWebKit/537.36 (KHTML, like Gecko) Chrome/66.0.3359.139 Safari/537.36 - USERNAME : safari
SYSTEM LOG -- DATE :2018-05-05 19:33:41 - CLASS : me - FUNCTION : index - URL : localhost:8080/kaderisasi/index.php/meme/me - USER ID : 340 - USER IP : ::1 - USER ROLE : 1 - BROWSER : Mozilla/5.0 (Windows NT 10.0; Win64; x64) AppleWebKit/537.36 (KHTML, like Gecko) Chrome/66.0.3359.139 Safari/537.36 - USERNAME : safari
SYSTEM LOG -- DATE :2018-05-05 19:33:47 - CLASS : master_anggota - FUNCTION : index - URL : localhost:8080/kaderisasi/index.php/master/master_anggota - USER ID : 340 - USER IP : ::1 - USER ROLE : 1 - BROWSER : Mozilla/5.0 (Windows NT 10.0; Win64; x64) AppleWebKit/537.36 (KHTML, like Gecko) Chrome/66.0.3359.139 Safari/537.36 - USERNAME : safari
SYSTEM LOG -- DATE :2018-05-05 19:35:48 - CLASS : tanda_terima - FUNCTION : index - URL : localhost:8080/kaderisasi/index.php/report/tanda_terima - USER ID : 340 - USER IP : ::1 - USER ROLE : 1 - BROWSER : Mozilla/5.0 (Windows NT 10.0; Win64; x64) AppleWebKit/537.36 (KHTML, like Gecko) Chrome/66.0.3359.139 Safari/537.36 - USERNAME : safari
SYSTEM LOG -- DATE :2018-05-05 19:35:53 - CLASS : tanda_terima - FUNCTION : add - URL : localhost:8080/kaderisasi/index.php/report/tanda_terima/add - USER ID : 340 - USER IP : ::1 - USER ROLE : 1 - BROWSER : Mozilla/5.0 (Windows NT 10.0; Win64; x64) AppleWebKit/537.36 (KHTML, like Gecko) Chrome/66.0.3359.139 Safari/537.36 - USERNAME : safari
SYSTEM LOG -- DATE :2018-05-05 19:35:54 - CLASS : tanda_terima - FUNCTION : favicon.ico - URL : localhost:8080/kaderisasi/index.php/report/tanda_terima/favicon.ico - USER ID : 340 - USER IP : ::1 - USER ROLE : 1 - BROWSER : Mozilla/5.0 (Windows NT 10.0; Win64; x64) AppleWebKit/537.36 (KHTML, like Gecko) Chrome/66.0.3359.139 Safari/537.36 - USERNAME : safari
SYSTEM LOG -- DATE :2018-05-05 19:39:42 - CLASS : master_anggota - FUNCTION : index - URL : localhost:8080/kaderisasi/index.php/master/master_anggota - USER ID : 340 - USER IP : ::1 - USER ROLE : 1 - BROWSER : Mozilla/5.0 (Windows NT 10.0; Win64; x64) AppleWebKit/537.36 (KHTML, like Gecko) Chrome/66.0.3359.139 Safari/537.36 - USERNAME : safari
SYSTEM LOG -- DATE :2018-05-05 19:40:19 - CLASS : tanda_terima - FUNCTION : index - URL : localhost:8080/kaderisasi/index.php/report/tanda_terima - USER ID : 340 - USER IP : ::1 - USER ROLE : 1 - BROWSER : Mozilla/5.0 (Windows NT 10.0; Win64; x64) AppleWebKit/537.36 (KHTML, like Gecko) Chrome/66.0.3359.139 Safari/537.36 - USERNAME : safari
SYSTEM LOG -- DATE :2018-05-05 19:40:24 - CLASS : tanda_terima - FUNCTION : add - URL : localhost:8080/kaderisasi/index.php/report/tanda_terima/add - USER ID : 340 - USER IP : ::1 - USER ROLE : 1 - BROWSER : Mozilla/5.0 (Windows NT 10.0; Win64; x64) AppleWebKit/537.36 (KHTML, like Gecko) Chrome/66.0.3359.139 Safari/537.36 - USERNAME : safari
SYSTEM LOG -- DATE :2018-05-05 19:42:08 - CLASS : master_anggota - FUNCTION : index - URL : localhost:8080/kaderisasi/index.php/master/master_anggota - USER ID : 340 - USER IP : ::1 - USER ROLE : 1 - BROWSER : Mozilla/5.0 (Windows NT 10.0; Win64; x64) AppleWebKit/537.36 (KHTML, like Gecko) Chrome/66.0.3359.139 Safari/537.36 - USERNAME : safari
SYSTEM LOG -- DATE :2018-05-05 19:43:52 - CLASS : master_anggota - FUNCTION : edit - URL : localhost:8080/kaderisasi/index.php/master/master_anggota/edit/?_id=0oeQlxP82vmID9563PHv7TboQhaXLMG%2Bp5XNg7qxWLjirk%2F77UlTfM03piFZAUzXQLFOD1k4pxrjY7xyWBBFGA%3D%3D - USER ID : 340 - USER IP : ::1 - USER ROLE : 1 - BROWSER : Mozilla/5.0 (Windows NT 10.0; Win64; x64) AppleWebKit/537.36 (KHTML, like Gecko) Chrome/66.0.3359.139 Safari/537.36 - USERNAME : safari
SYSTEM LOG -- DATE :2018-05-05 19:43:53 - CLASS : data - FUNCTION : kabupaten - URL : localhost:8080/kaderisasi/index.php/ajax/data/kabupaten - USER ID : 340 - USER IP : ::1 - USER ROLE : 1 - BROWSER : Mozilla/5.0 (Windows NT 10.0; Win64; x64) AppleWebKit/537.36 (KHTML, like Gecko) Chrome/66.0.3359.139 Safari/537.36 - USERNAME : safari
SYSTEM LOG -- DATE :2018-05-05 19:43:53 - CLASS : data - FUNCTION : kecamatan - URL : localhost:8080/kaderisasi/index.php/ajax/data/kecamatan - USER ID : 340 - USER IP : ::1 - USER ROLE : 1 - BROWSER : Mozilla/5.0 (Windows NT 10.0; Win64; x64) AppleWebKit/537.36 (KHTML, like Gecko) Chrome/66.0.3359.139 Safari/537.36 - USERNAME : safari
SYSTEM LOG -- DATE :2018-05-05 19:43:53 - CLASS : data - FUNCTION : kelurahan - URL : localhost:8080/kaderisasi/index.php/ajax/data/kelurahan - USER ID : 340 - USER IP : ::1 - USER ROLE : 1 - BROWSER : Mozilla/5.0 (Windows NT 10.0; Win64; x64) AppleWebKit/537.36 (KHTML, like Gecko) Chrome/66.0.3359.139 Safari/537.36 - USERNAME : safari
SYSTEM LOG -- DATE :2018-05-05 19:43:53 - CLASS : master_anggota - FUNCTION : edit - URL : localhost:8080/kaderisasi/index.php/master/master_anggota/edit/favicon.ico - USER ID : 340 - USER IP : ::1 - USER ROLE : 1 - BROWSER : Mozilla/5.0 (Windows NT 10.0; Win64; x64) AppleWebKit/537.36 (KHTML, like Gecko) Chrome/66.0.3359.139 Safari/537.36 - USERNAME : safari
SYSTEM LOG -- DATE :2018-05-05 19:43:53 - CLASS : master_anggota - FUNCTION : index - URL : localhost:8080/kaderisasi/index.php/master/master_anggota?msg=Error%20Parse&type_msg=error - USER ID : 340 - USER IP : ::1 - USER ROLE : 1 - BROWSER : Mozilla/5.0 (Windows NT 10.0; Win64; x64) AppleWebKit/537.36 (KHTML, like Gecko) Chrome/66.0.3359.139 Safari/537.36 - USERNAME : safari
SYSTEM LOG -- DATE :2018-05-05 19:43:56 - CLASS : master_anggota - FUNCTION : save_upload - URL : localhost:8080/kaderisasi/index.php/master/master_anggota/save_upload - USER ID : 340 - USER IP : ::1 - USER ROLE : 1 - BROWSER : Mozilla/5.0 (Windows NT 10.0; Win64; x64) AppleWebKit/537.36 (KHTML, like Gecko) Chrome/66.0.3359.139 Safari/537.36 - USERNAME : safari
SYSTEM LOG -- DATE :2018-05-05 19:44:57 - CLASS : master_anggota - FUNCTION : edit - URL : localhost:8080/kaderisasi/index.php/master/master_anggota/edit/?_id=0oeQlxP82vmID9563PHv7TboQhaXLMG%2Bp5XNg7qxWLjirk%2F77UlTfM03piFZAUzXQLFOD1k4pxrjY7xyWBBFGA%3D%3D - USER ID : 340 - USER IP : ::1 - USER ROLE : 1 - BROWSER : Mozilla/5.0 (Windows NT 10.0; Win64; x64) AppleWebKit/537.36 (KHTML, like Gecko) Chrome/66.0.3359.139 Safari/537.36 - USERNAME : safari
SYSTEM LOG -- DATE :2018-05-05 19:44:58 - CLASS : data - FUNCTION : kabupaten - URL : localhost:8080/kaderisasi/index.php/ajax/data/kabupaten - USER ID : 340 - USER IP : ::1 - USER ROLE : 1 - BROWSER : Mozilla/5.0 (Windows NT 10.0; Win64; x64) AppleWebKit/537.36 (KHTML, like Gecko) Chrome/66.0.3359.139 Safari/537.36 - USERNAME : safari
SYSTEM LOG -- DATE :2018-05-05 19:44:58 - CLASS : data - FUNCTION : kecamatan - URL : localhost:8080/kaderisasi/index.php/ajax/data/kecamatan - USER ID : 340 - USER IP : ::1 - USER ROLE : 1 - BROWSER : Mozilla/5.0 (Windows NT 10.0; Win64; x64) AppleWebKit/537.36 (KHTML, like Gecko) Chrome/66.0.3359.139 Safari/537.36 - USERNAME : safari
SYSTEM LOG -- DATE :2018-05-05 19:44:58 - CLASS : data - FUNCTION : kelurahan - URL : localhost:8080/kaderisasi/index.php/ajax/data/kelurahan - USER ID : 340 - USER IP : ::1 - USER ROLE : 1 - BROWSER : Mozilla/5.0 (Windows NT 10.0; Win64; x64) AppleWebKit/537.36 (KHTML, like Gecko) Chrome/66.0.3359.139 Safari/537.36 - USERNAME : safari
SYSTEM LOG -- DATE :2018-05-05 19:44:58 - CLASS : master_anggota - FUNCTION : edit - URL : localhost:8080/kaderisasi/index.php/master/master_anggota/edit/favicon.ico - USER ID : 340 - USER IP : ::1 - USER ROLE : 1 - BROWSER : Mozilla/5.0 (Windows NT 10.0; Win64; x64) AppleWebKit/537.36 (KHTML, like Gecko) Chrome/66.0.3359.139 Safari/537.36 - USERNAME : safari
SYSTEM LOG -- DATE :2018-05-05 19:44:58 - CLASS : master_anggota - FUNCTION : index - URL : localhost:8080/kaderisasi/index.php/master/master_anggota?msg=Error%20Parse&type_msg=error - USER ID : 340 - USER IP : ::1 - USER ROLE : 1 - BROWSER : Mozilla/5.0 (Windows NT 10.0; Win64; x64) AppleWebKit/537.36 (KHTML, like Gecko) Chrome/66.0.3359.139 Safari/537.36 - USERNAME : safari
SYSTEM LOG -- DATE :2018-05-05 19:45:00 - CLASS : cetak_idcard - FUNCTION : index - URL : localhost:8080/kaderisasi/index.php/report/cetak_idcard - USER ID : 340 - USER IP : ::1 - USER ROLE : 1 - BROWSER : Mozilla/5.0 (Windows NT 10.0; Win64; x64) AppleWebKit/537.36 (KHTML, like Gecko) Chrome/66.0.3359.139 Safari/537.36 - USERNAME : safari
SYSTEM LOG -- DATE :2018-05-05 19:47:02 - CLASS : cetak_idcard - FUNCTION : print_preview - URL : localhost:8080/kaderisasi/index.php/report/cetak_idcard/print_preview/?type=data&id=967&nama=H.R.%20KHOTIBI%20ACHYAR.%20S.IP&dapil=PP%20INDONESIA%202&foto=5aeae5b8cbbd93173072105620005_wajah.png&no_urut=JK012&u=aHR0cDovL2xvY2FsaG9zdDo4MDgwL2thZGVyaXNhc2kvaW5kZXgucGhwL3JlcG9ydC9jZXRha19pZGNhcmQvdXBkYXRl - USER ID : 340 - USER IP : ::1 - USER ROLE : 1 - BROWSER : Mozilla/5.0 (Windows NT 10.0; Win64; x64) AppleWebKit/537.36 (KHTML, like Gecko) Chrome/66.0.3359.139 Safari/537.36 - USERNAME : safari
SYSTEM LOG -- DATE :2018-05-05 19:47:10 - CLASS : cetak_idcard - FUNCTION : absen - URL : localhost:8080/kaderisasi/index.php/report/cetak_idcard/absen - USER ID : 340 - USER IP : ::1 - USER ROLE : 1 - BROWSER : Mozilla/5.0 (Windows NT 10.0; Win64; x64) AppleWebKit/537.36 (KHTML, like Gecko) Chrome/66.0.3359.139 Safari/537.36 - USERNAME : safari
SYSTEM LOG -- DATE :2018-05-05 19:52:33 - CLASS : cetak_idcard - FUNCTION : index - URL : localhost:8080/kaderisasi/index.php/report/cetak_idcard - USER ID : 340 - USER IP : ::1 - USER ROLE : 1 - BROWSER : Mozilla/5.0 (Windows NT 10.0; Win64; x64) AppleWebKit/537.36 (KHTML, like Gecko) Chrome/66.0.3359.139 Safari/537.36 - USERNAME : safari
SYSTEM LOG -- DATE :2018-05-05 19:52:35 - CLASS : cetak_idcard - FUNCTION : data_export - URL : localhost:8080/kaderisasi/index.php/report/cetak_idcard/data_export - USER ID : 340 - USER IP : ::1 - USER ROLE : 1 - BROWSER : Mozilla/5.0 (Windows NT 10.0; Win64; x64) AppleWebKit/537.36 (KHTML, like Gecko) Chrome/66.0.3359.139 Safari/537.36 - USERNAME : safari
SYSTEM LOG -- DATE :2018-05-05 19:54:53 - CLASS : cetak_idcard - FUNCTION : index - URL : localhost:8080/kaderisasi/index.php/report/cetak_idcard - USER ID : 340 - USER IP : ::1 - USER ROLE : 1 - BROWSER : Mozilla/5.0 (Windows NT 10.0; Win64; x64) AppleWebKit/537.36 (KHTML, like Gecko) Chrome/66.0.3359.139 Safari/537.36 - USERNAME : safari
SYSTEM LOG -- DATE :2018-05-05 19:54:57 - CLASS : cetak_idcard - FUNCTION : print_satu - URL : localhost:8080/kaderisasi/index.php/report/cetak_idcard/print_satu/?_id=jdhRPgi8KGmN4G62gzk0udPJb%2FVAi8v0LRRnFbS392os5fXlVrQQsPMnCVIw85i7HPUqG%2BS%2FhUrTbaArahbKyw%3D%3D - USER ID : 340 - USER IP : ::1 - USER ROLE : 1 - BROWSER : Mozilla/5.0 (Windows NT 10.0; Win64; x64) AppleWebKit/537.36 (KHTML, like Gecko) Chrome/66.0.3359.139 Safari/537.36 - USERNAME : safari
SYSTEM LOG -- DATE :2018-05-05 19:55:41 - CLASS : cetak_idcard - FUNCTION : index - URL : localhost:8080/kaderisasi/index.php/report/cetak_idcard - USER ID : 340 - USER IP : ::1 - USER ROLE : 1 - BROWSER : Mozilla/5.0 (Windows NT 10.0; Win64; x64) AppleWebKit/537.36 (KHTML, like Gecko) Chrome/66.0.3359.139 Safari/537.36 - USERNAME : safari
SYSTEM LOG -- DATE :2018-05-05 19:55:44 - CLASS : cetak_idcard - FUNCTION : data_export - URL : localhost:8080/kaderisasi/index.php/report/cetak_idcard/data_export - USER ID : 340 - USER IP : ::1 - USER ROLE : 1 - BROWSER : Mozilla/5.0 (Windows NT 10.0; Win64; x64) AppleWebKit/537.36 (KHTML, like Gecko) Chrome/66.0.3359.139 Safari/537.36 - USERNAME : safari
SYSTEM LOG -- DATE :2018-05-05 19:58:55 - CLASS : cetak_idcard - FUNCTION : index - URL : localhost:8080/kaderisasi/index.php/report/cetak_idcard - USER ID : 340 - USER IP : ::1 - USER ROLE : 1 - BROWSER : Mozilla/5.0 (Windows NT 10.0; Win64; x64) AppleWebKit/537.36 (KHTML, like Gecko) Chrome/66.0.3359.139 Safari/537.36 - USERNAME : safari
SYSTEM LOG -- DATE :2018-05-05 19:58:57 - CLASS : cetak_idcard - FUNCTION : data_export - URL : localhost:8080/kaderisasi/index.php/report/cetak_idcard/data_export - USER ID : 340 - USER IP : ::1 - USER ROLE : 1 - BROWSER : Mozilla/5.0 (Windows NT 10.0; Win64; x64) AppleWebKit/537.36 (KHTML, like Gecko) Chrome/66.0.3359.139 Safari/537.36 - USERNAME : safari
SYSTEM LOG -- DATE :2018-05-05 20:02:19 - CLASS : tanda_terima - FUNCTION : index - URL : localhost:8080/kaderisasi/index.php/report/tanda_terima - USER ID : 340 - USER IP : ::1 - USER ROLE : 1 - BROWSER : Mozilla/5.0 (Windows NT 10.0; Win64; x64) AppleWebKit/537.36 (KHTML, like Gecko) Chrome/66.0.3359.139 Safari/537.36 - USERNAME : safari
SYSTEM LOG -- DATE :2018-05-05 20:02:19 - CLASS : me - FUNCTION : index - URL : localhost:8080/kaderisasi/ - USER ID : 340 - USER IP : ::1 - USER ROLE : 1 - BROWSER : Mozilla/5.0 (Windows NT 10.0; Win64; x64) AppleWebKit/537.36 (KHTML, like Gecko) Chrome/66.0.3359.139 Safari/537.36 - USERNAME : safari
SYSTEM LOG -- DATE :2018-05-05 20:03:13 - CLASS : tanda_terima - FUNCTION : index - URL : localhost:8080/kaderisasi/index.php/report/tanda_terima - USER ID : 340 - USER IP : ::1 - USER ROLE : 1 - BROWSER : Mozilla/5.0 (Windows NT 10.0; Win64; x64) AppleWebKit/537.36 (KHTML, like Gecko) Chrome/66.0.3359.139 Safari/537.36 - USERNAME : safari
SYSTEM LOG -- DATE :2018-05-05 20:03:22 - CLASS : cetak_idcard - FUNCTION : index - URL : localhost:8080/kaderisasi/index.php/report/cetak_idcard - USER ID : 340 - USER IP : ::1 - USER ROLE : 1 - BROWSER : Mozilla/5.0 (Windows NT 10.0; Win64; x64) AppleWebKit/537.36 (KHTML, like Gecko) Chrome/66.0.3359.139 Safari/537.36 - USERNAME : safari
SYSTEM LOG -- DATE :2018-05-05 20:03:24 - CLASS : cetak_idcard - FUNCTION : data_export - URL : localhost:8080/kaderisasi/index.php/report/cetak_idcard/data_export - USER ID : 340 - USER IP : ::1 - USER ROLE : 1 - BROWSER : Mozilla/5.0 (Windows NT 10.0; Win64; x64) AppleWebKit/537.36 (KHTML, like Gecko) Chrome/66.0.3359.139 Safari/537.36 - USERNAME : safari
SYSTEM LOG -- DATE :2018-05-05 20:18:09 - CLASS : cetak_idcard - FUNCTION : print_ - URL : localhost:8080/kaderisasi/index.php/report/cetak_idcard/print_ - USER ID : 340 - USER IP : ::1 - USER ROLE : 1 - BROWSER : Mozilla/5.0 (Windows NT 10.0; Win64; x64) AppleWebKit/537.36 (KHTML, like Gecko) Chrome/66.0.3359.139 Safari/537.36 - USERNAME : safari
SYSTEM LOG -- DATE :2018-05-05 20:18:09 - CLASS : cetak_idcard - FUNCTION : index - URL : localhost:8080/kaderisasi/index.php/report/cetak_idcard?msg=Error%20Parse&type_msg=error - USER ID : 340 - USER IP : ::1 - USER ROLE : 1 - BROWSER : Mozilla/5.0 (Windows NT 10.0; Win64; x64) AppleWebKit/537.36 (KHTML, like Gecko) Chrome/66.0.3359.139 Safari/537.36 - USERNAME : safari
SYSTEM LOG -- DATE :2018-05-05 20:18:12 - CLASS : cetak_idcard - FUNCTION : print_ - URL : localhost:8080/kaderisasi/index.php/report/cetak_idcard/print_ - USER ID : 340 - USER IP : ::1 - USER ROLE : 1 - BROWSER : Mozilla/5.0 (Windows NT 10.0; Win64; x64) AppleWebKit/537.36 (KHTML, like Gecko) Chrome/66.0.3359.139 Safari/537.36 - USERNAME : safari
SYSTEM LOG -- DATE :2018-05-05 20:18:12 - CLASS : cetak_idcard - FUNCTION : index - URL : localhost:8080/kaderisasi/index.php/report/cetak_idcard?msg=Error%20Parse&type_msg=error - USER ID : 340 - USER IP : ::1 - USER ROLE : 1 - BROWSER : Mozilla/5.0 (Windows NT 10.0; Win64; x64) AppleWebKit/537.36 (KHTML, like Gecko) Chrome/66.0.3359.139 Safari/537.36 - USERNAME : safari
SYSTEM LOG -- DATE :2018-05-05 20:20:01 - CLASS : cetak_idcard - FUNCTION : print_ - URL : localhost:8080/kaderisasi/index.php/report/cetak_idcard/print_ - USER ID : 340 - USER IP : ::1 - USER ROLE : 1 - BROWSER : Mozilla/5.0 (Windows NT 10.0; Win64; x64) AppleWebKit/537.36 (KHTML, like Gecko) Chrome/66.0.3359.139 Safari/537.36 - USERNAME : safari
SYSTEM LOG -- DATE :2018-05-05 20:20:01 - CLASS : cetak_idcard - FUNCTION : index - URL : localhost:8080/kaderisasi/index.php/report/cetak_idcard?msg=Error%20Parse&type_msg=error - USER ID : 340 - USER IP : ::1 - USER ROLE : 1 - BROWSER : Mozilla/5.0 (Windows NT 10.0; Win64; x64) AppleWebKit/537.36 (KHTML, like Gecko) Chrome/66.0.3359.139 Safari/537.36 - USERNAME : safari
SYSTEM LOG -- DATE :2018-05-05 20:20:04 - CLASS : cetak_idcard - FUNCTION : print_ - URL : localhost:8080/kaderisasi/index.php/report/cetak_idcard/print_ - USER ID : 340 - USER IP : ::1 - USER ROLE : 1 - BROWSER : Mozilla/5.0 (Windows NT 10.0; Win64; x64) AppleWebKit/537.36 (KHTML, like Gecko) Chrome/66.0.3359.139 Safari/537.36 - USERNAME : safari
SYSTEM LOG -- DATE :2018-05-05 20:20:04 - CLASS : cetak_idcard - FUNCTION : index - URL : localhost:8080/kaderisasi/index.php/report/cetak_idcard?msg=Error%20Parse&type_msg=error - USER ID : 340 - USER IP : ::1 - USER ROLE : 1 - BROWSER : Mozilla/5.0 (Windows NT 10.0; Win64; x64) AppleWebKit/537.36 (KHTML, like Gecko) Chrome/66.0.3359.139 Safari/537.36 - USERNAME : safari
SYSTEM LOG -- DATE :2018-05-05 20:20:06 - CLASS : cetak_idcard - FUNCTION : print_ - URL : localhost:8080/kaderisasi/index.php/report/cetak_idcard/print_ - USER ID : 340 - USER IP : ::1 - USER ROLE : 1 - BROWSER : Mozilla/5.0 (Windows NT 10.0; Win64; x64) AppleWebKit/537.36 (KHTML, like Gecko) Chrome/66.0.3359.139 Safari/537.36 - USERNAME : safari
SYSTEM LOG -- DATE :2018-05-05 20:20:06 - CLASS : cetak_idcard - FUNCTION : index - URL : localhost:8080/kaderisasi/index.php/report/cetak_idcard?msg=Error%20Parse&type_msg=error - USER ID : 340 - USER IP : ::1 - USER ROLE : 1 - BROWSER : Mozilla/5.0 (Windows NT 10.0; Win64; x64) AppleWebKit/537.36 (KHTML, like Gecko) Chrome/66.0.3359.139 Safari/537.36 - USERNAME : safari
SYSTEM LOG -- DATE :2018-05-05 20:20:07 - CLASS : cetak_idcard - FUNCTION : print_ - URL : localhost:8080/kaderisasi/index.php/report/cetak_idcard/print_ - USER ID : 340 - USER IP : ::1 - USER ROLE : 1 - BROWSER : Mozilla/5.0 (Windows NT 10.0; Win64; x64) AppleWebKit/537.36 (KHTML, like Gecko) Chrome/66.0.3359.139 Safari/537.36 - USERNAME : safari
SYSTEM LOG -- DATE :2018-05-05 20:20:07 - CLASS : cetak_idcard - FUNCTION : index - URL : localhost:8080/kaderisasi/index.php/report/cetak_idcard?msg=Error%20Parse&type_msg=error - USER ID : 340 - USER IP : ::1 - USER ROLE : 1 - BROWSER : Mozilla/5.0 (Windows NT 10.0; Win64; x64) AppleWebKit/537.36 (KHTML, like Gecko) Chrome/66.0.3359.139 Safari/537.36 - USERNAME : safari
SYSTEM LOG -- DATE :2018-05-05 20:20:09 - CLASS : cetak_idcard - FUNCTION : print_ - URL : localhost:8080/kaderisasi/index.php/report/cetak_idcard/print_ - USER ID : 340 - USER IP : ::1 - USER ROLE : 1 - BROWSER : Mozilla/5.0 (Windows NT 10.0; Win64; x64) AppleWebKit/537.36 (KHTML, like Gecko) Chrome/66.0.3359.139 Safari/537.36 - USERNAME : safari
SYSTEM LOG -- DATE :2018-05-05 20:20:09 - CLASS : cetak_idcard - FUNCTION : index - URL : localhost:8080/kaderisasi/index.php/report/cetak_idcard?msg=Error%20Parse&type_msg=error - USER ID : 340 - USER IP : ::1 - USER ROLE : 1 - BROWSER : Mozilla/5.0 (Windows NT 10.0; Win64; x64) AppleWebKit/537.36 (KHTML, like Gecko) Chrome/66.0.3359.139 Safari/537.36 - USERNAME : safari
SYSTEM LOG -- DATE :2018-05-05 20:20:10 - CLASS : cetak_idcard - FUNCTION : print_ - URL : localhost:8080/kaderisasi/index.php/report/cetak_idcard/print_ - USER ID : 340 - USER IP : ::1 - USER ROLE : 1 - BROWSER : Mozilla/5.0 (Windows NT 10.0; Win64; x64) AppleWebKit/537.36 (KHTML, like Gecko) Chrome/66.0.3359.139 Safari/537.36 - USERNAME : safari
SYSTEM LOG -- DATE :2018-05-05 20:20:10 - CLASS : cetak_idcard - FUNCTION : index - URL : localhost:8080/kaderisasi/index.php/report/cetak_idcard?msg=Error%20Parse&type_msg=error - USER ID : 340 - USER IP : ::1 - USER ROLE : 1 - BROWSER : Mozilla/5.0 (Windows NT 10.0; Win64; x64) AppleWebKit/537.36 (KHTML, like Gecko) Chrome/66.0.3359.139 Safari/537.36 - USERNAME : safari
SYSTEM LOG -- DATE :2018-05-05 20:20:19 - CLASS : cetak_idcard - FUNCTION : print_ - URL : localhost:8080/kaderisasi/index.php/report/cetak_idcard/print_ - USER ID : 340 - USER IP : ::1 - USER ROLE : 1 - BROWSER : Mozilla/5.0 (Windows NT 10.0; Win64; x64) AppleWebKit/537.36 (KHTML, like Gecko) Chrome/66.0.3359.139 Safari/537.36 - USERNAME : safari
SYSTEM LOG -- DATE :2018-05-05 20:20:19 - CLASS : cetak_idcard - FUNCTION : index - URL : localhost:8080/kaderisasi/index.php/report/cetak_idcard?msg=Error%20Parse&type_msg=error - USER ID : 340 - USER IP : ::1 - USER ROLE : 1 - BROWSER : Mozilla/5.0 (Windows NT 10.0; Win64; x64) AppleWebKit/537.36 (KHTML, like Gecko) Chrome/66.0.3359.139 Safari/537.36 - USERNAME : safari
SYSTEM LOG -- DATE :2018-05-05 20:20:20 - CLASS : cetak_idcard - FUNCTION : print_ - URL : localhost:8080/kaderisasi/index.php/report/cetak_idcard/print_ - USER ID : 340 - USER IP : ::1 - USER ROLE : 1 - BROWSER : Mozilla/5.0 (Windows NT 10.0; Win64; x64) AppleWebKit/537.36 (KHTML, like Gecko) Chrome/66.0.3359.139 Safari/537.36 - USERNAME : safari
SYSTEM LOG -- DATE :2018-05-05 20:20:20 - CLASS : cetak_idcard - FUNCTION : index - URL : localhost:8080/kaderisasi/index.php/report/cetak_idcard?msg=Error%20Parse&type_msg=error - USER ID : 340 - USER IP : ::1 - USER ROLE : 1 - BROWSER : Mozilla/5.0 (Windows NT 10.0; Win64; x64) AppleWebKit/537.36 (KHTML, like Gecko) Chrome/66.0.3359.139 Safari/537.36 - USERNAME : safari
SYSTEM LOG -- DATE :2018-05-05 20:20:29 - CLASS : cetak_idcard - FUNCTION : print_ - URL : localhost:8080/kaderisasi/index.php/report/cetak_idcard/print_ - USER ID : 340 - USER IP : ::1 - USER ROLE : 1 - BROWSER : Mozilla/5.0 (Windows NT 10.0; Win64; x64) AppleWebKit/537.36 (KHTML, like Gecko) Chrome/66.0.3359.139 Safari/537.36 - USERNAME : safari
SYSTEM LOG -- DATE :2018-05-05 20:36:36 - CLASS : me - FUNCTION : index - URL : localhost:8080/kaderisasi/index.php/meme/me - USER ID : 340 - USER IP : ::1 - USER ROLE : 1 - BROWSER : Mozilla/5.0 (Windows NT 10.0; Win64; x64) AppleWebKit/537.36 (KHTML, like Gecko) Chrome/66.0.3359.139 Safari/537.36 - USERNAME : safari
