SYSTEM LOG -- DATE :2017-10-07 11:55:33 - CLASS : me - FUNCTION : index - URL : localhost:8080/golkar/ - USER ID : 340 - USER IP : ::1 - USER ROLE : 1 - BROWSER : Mozilla/5.0 (Windows NT 10.0; WOW64; rv:56.0) Gecko/20100101 Firefox/56.0 - USERNAME : safari
SYSTEM LOG -- DATE :2017-10-07 11:55:35 - CLASS : data - FUNCTION : check_login - URL : localhost:8080/golkar/index.php/ajax/data/check_login - USER ID : 340 - USER IP : ::1 - USER ROLE : 1 - BROWSER : Mozilla/5.0 (Windows NT 10.0; WOW64; rv:56.0) Gecko/20100101 Firefox/56.0 - USERNAME : safari
SYSTEM LOG -- DATE :2017-10-07 11:55:51 - CLASS : report_perbandingan_kta - FUNCTION : index - URL : localhost:8080/golkar/index.php/report/report_perbandingan_kta - USER ID : 340 - USER IP : ::1 - USER ROLE : 1 - BROWSER : Mozilla/5.0 (Windows NT 10.0; WOW64; rv:56.0) Gecko/20100101 Firefox/56.0 - USERNAME : safari
SYSTEM LOG -- DATE :2017-10-07 11:55:53 - CLASS : data - FUNCTION : check_login - URL : localhost:8080/golkar/index.php/ajax/data/check_login - USER ID : 340 - USER IP : ::1 - USER ROLE : 1 - BROWSER : Mozilla/5.0 (Windows NT 10.0; WOW64; rv:56.0) Gecko/20100101 Firefox/56.0 - USERNAME : safari
SYSTEM LOG -- DATE :2017-10-07 11:55:55 - CLASS : excel_report - FUNCTION : index - URL : localhost:8080/golkar/index.php/report/excel_report - USER ID : 340 - USER IP : ::1 - USER ROLE : 1 - BROWSER : Mozilla/5.0 (Windows NT 10.0; WOW64; rv:56.0) Gecko/20100101 Firefox/56.0 - USERNAME : safari
SYSTEM LOG -- DATE :2017-10-07 11:55:56 - CLASS : data - FUNCTION : check_login - URL : localhost:8080/golkar/index.php/ajax/data/check_login - USER ID : 340 - USER IP : ::1 - USER ROLE : 1 - BROWSER : Mozilla/5.0 (Windows NT 10.0; WOW64; rv:56.0) Gecko/20100101 Firefox/56.0 - USERNAME : safari
SYSTEM LOG -- DATE :2017-10-07 11:57:44 - CLASS : excel_report - FUNCTION : index - URL : localhost:8080/golkar/index.php/report/excel_report - USER ID : 340 - USER IP : ::1 - USER ROLE : 1 - BROWSER : Mozilla/5.0 (Windows NT 10.0; WOW64; rv:56.0) Gecko/20100101 Firefox/56.0 - USERNAME : safari
SYSTEM LOG -- DATE :2017-10-07 11:57:45 - CLASS : data - FUNCTION : check_login - URL : localhost:8080/golkar/index.php/ajax/data/check_login - USER ID : 340 - USER IP : ::1 - USER ROLE : 1 - BROWSER : Mozilla/5.0 (Windows NT 10.0; WOW64; rv:56.0) Gecko/20100101 Firefox/56.0 - USERNAME : safari
SYSTEM LOG -- DATE :2017-10-07 11:57:50 - CLASS : excel_report - FUNCTION : search - URL : localhost:8080/golkar/index.php/report/excel_report/search - USER ID : 340 - USER IP : ::1 - USER ROLE : 1 - BROWSER : Mozilla/5.0 (Windows NT 10.0; WOW64; rv:56.0) Gecko/20100101 Firefox/56.0 - USERNAME : safari
SYSTEM LOG -- DATE :2017-10-07 11:58:35 - CLASS : data - FUNCTION : check_login - URL : localhost:8080/golkar/index.php/ajax/data/check_login - USER ID : 340 - USER IP : ::1 - USER ROLE : 1 - BROWSER : Mozilla/5.0 (Windows NT 10.0; WOW64; rv:56.0) Gecko/20100101 Firefox/56.0 - USERNAME : safari
SYSTEM LOG -- DATE :2017-10-07 12:00:35 - CLASS : excel_report - FUNCTION : search - URL : localhost:8080/golkar/index.php/report/excel_report/search - USER ID : 340 - USER IP : ::1 - USER ROLE : 1 - BROWSER : Mozilla/5.0 (Windows NT 10.0; WOW64; rv:56.0) Gecko/20100101 Firefox/56.0 - USERNAME : safari
SYSTEM LOG -- DATE :2017-10-07 12:01:20 - CLASS : data - FUNCTION : check_login - URL : localhost:8080/golkar/index.php/ajax/data/check_login - USER ID : 340 - USER IP : ::1 - USER ROLE : 1 - BROWSER : Mozilla/5.0 (Windows NT 10.0; WOW64; rv:56.0) Gecko/20100101 Firefox/56.0 - USERNAME : safari
SYSTEM LOG -- DATE :2017-10-07 12:04:58 - CLASS : excel_report - FUNCTION : search - URL : localhost:8080/golkar/index.php/report/excel_report/search - USER ID : 340 - USER IP : ::1 - USER ROLE : 1 - BROWSER : Mozilla/5.0 (Windows NT 10.0; WOW64; rv:56.0) Gecko/20100101 Firefox/56.0 - USERNAME : safari
SYSTEM LOG -- DATE :2017-10-07 12:05:44 - CLASS : data - FUNCTION : check_login - URL : localhost:8080/golkar/index.php/ajax/data/check_login - USER ID : 340 - USER IP : ::1 - USER ROLE : 1 - BROWSER : Mozilla/5.0 (Windows NT 10.0; WOW64; rv:56.0) Gecko/20100101 Firefox/56.0 - USERNAME : safari
SYSTEM LOG -- DATE :2017-10-07 12:05:59 - CLASS : excel_report - FUNCTION : search - URL : localhost:8080/golkar/index.php/report/excel_report/search - USER ID : 340 - USER IP : ::1 - USER ROLE : 1 - BROWSER : Mozilla/5.0 (Windows NT 10.0; WOW64; rv:56.0) Gecko/20100101 Firefox/56.0 - USERNAME : safari
SYSTEM LOG -- DATE :2017-10-07 12:06:05 - CLASS : data - FUNCTION : check_login - URL : localhost:8080/golkar/index.php/ajax/data/check_login - USER ID : 340 - USER IP : ::1 - USER ROLE : 1 - BROWSER : Mozilla/5.0 (Windows NT 10.0; WOW64; rv:56.0) Gecko/20100101 Firefox/56.0 - USERNAME : safari
SYSTEM LOG -- DATE :2017-10-07 12:06:37 - CLASS : excel_report - FUNCTION : search - URL : localhost:8080/golkar/index.php/report/excel_report/search - USER ID : 340 - USER IP : ::1 - USER ROLE : 1 - BROWSER : Mozilla/5.0 (Windows NT 10.0; WOW64; rv:56.0) Gecko/20100101 Firefox/56.0 - USERNAME : safari
SYSTEM LOG -- DATE :2017-10-07 12:06:39 - CLASS : data - FUNCTION : check_login - URL : localhost:8080/golkar/index.php/ajax/data/check_login - USER ID : 340 - USER IP : ::1 - USER ROLE : 1 - BROWSER : Mozilla/5.0 (Windows NT 10.0; WOW64; rv:56.0) Gecko/20100101 Firefox/56.0 - USERNAME : safari
SYSTEM LOG -- DATE :2017-10-07 12:06:42 - CLASS : excel_report - FUNCTION : search - URL : localhost:8080/golkar/index.php/report/excel_report/search - USER ID : 340 - USER IP : ::1 - USER ROLE : 1 - BROWSER : Mozilla/5.0 (Windows NT 10.0; WOW64; rv:56.0) Gecko/20100101 Firefox/56.0 - USERNAME : safari
SYSTEM LOG -- DATE :2017-10-07 12:06:51 - CLASS : data - FUNCTION : check_login - URL : localhost:8080/golkar/index.php/ajax/data/check_login - USER ID : 340 - USER IP : ::1 - USER ROLE : 1 - BROWSER : Mozilla/5.0 (Windows NT 10.0; WOW64; rv:56.0) Gecko/20100101 Firefox/56.0 - USERNAME : safari
SYSTEM LOG -- DATE :2017-10-07 12:09:56 - CLASS : group - FUNCTION : index - URL : localhost:8080/golkar/index.php/meme/group - USER ID : 340 - USER IP : ::1 - USER ROLE : 1 - BROWSER : Mozilla/5.0 (Windows NT 10.0; WOW64; rv:56.0) Gecko/20100101 Firefox/56.0 - USERNAME : safari
SYSTEM LOG -- DATE :2017-10-07 12:09:57 - CLASS : data - FUNCTION : check_login - URL : localhost:8080/golkar/index.php/ajax/data/check_login - USER ID : 340 - USER IP : ::1 - USER ROLE : 1 - BROWSER : Mozilla/5.0 (Windows NT 10.0; WOW64; rv:56.0) Gecko/20100101 Firefox/56.0 - USERNAME : safari
SYSTEM LOG -- DATE :2017-10-07 12:09:58 - CLASS : user - FUNCTION : index - URL : localhost:8080/golkar/index.php/meme/user - USER ID : 340 - USER IP : ::1 - USER ROLE : 1 - BROWSER : Mozilla/5.0 (Windows NT 10.0; WOW64; rv:56.0) Gecko/20100101 Firefox/56.0 - USERNAME : safari
SYSTEM LOG -- DATE :2017-10-07 12:10:00 - CLASS : data - FUNCTION : check_login - URL : localhost:8080/golkar/index.php/ajax/data/check_login - USER ID : 340 - USER IP : ::1 - USER ROLE : 1 - BROWSER : Mozilla/5.0 (Windows NT 10.0; WOW64; rv:56.0) Gecko/20100101 Firefox/56.0 - USERNAME : safari
SYSTEM LOG -- DATE :2017-10-07 12:12:54 - CLASS : user - FUNCTION : edit - URL : localhost:8080/golkar/index.php/meme/user/edit/?_id=df6Q6uI94HwBz7pznoWOQv1HsUxD6zD8NeqJj0d0z%2FZoYaBzQOD%2BkItl%2FHOyTfeB0Ga00VDClWUoD3zxXykOsw%3D%3D - USER ID : 340 - USER IP : ::1 - USER ROLE : 1 - BROWSER : Mozilla/5.0 (Windows NT 10.0; WOW64; rv:56.0) Gecko/20100101 Firefox/56.0 - USERNAME : safari
SYSTEM LOG -- DATE :2017-10-07 12:12:54 - CLASS : data - FUNCTION : pengusul - URL : localhost:8080/golkar/index.php/ajax/data/pengusul - USER ID : 340 - USER IP : ::1 - USER ROLE : 1 - BROWSER : Mozilla/5.0 (Windows NT 10.0; WOW64; rv:56.0) Gecko/20100101 Firefox/56.0 - USERNAME : safari
SYSTEM LOG -- DATE :2017-10-07 12:12:55 - CLASS : data - FUNCTION : check_login - URL : localhost:8080/golkar/index.php/ajax/data/check_login - USER ID : 340 - USER IP : ::1 - USER ROLE : 1 - BROWSER : Mozilla/5.0 (Windows NT 10.0; WOW64; rv:56.0) Gecko/20100101 Firefox/56.0 - USERNAME : safari
SYSTEM LOG -- DATE :2017-10-07 12:13:03 - CLASS : user - FUNCTION : save - URL : localhost:8080/golkar/index.php/meme/user/save - USER ID : 340 - USER IP : ::1 - USER ROLE : 1 - BROWSER : Mozilla/5.0 (Windows NT 10.0; WOW64; rv:56.0) Gecko/20100101 Firefox/56.0 - USERNAME : safari
SYSTEM LOG -- DATE :2017-10-07 12:13:03 - CLASS : user - FUNCTION : index - URL : localhost:8080/golkar/index.php/meme/user?msg=Save%20data%20user%20success&type_msg=success - USER ID : 340 - USER IP : ::1 - USER ROLE : 1 - BROWSER : Mozilla/5.0 (Windows NT 10.0; WOW64; rv:56.0) Gecko/20100101 Firefox/56.0 - USERNAME : safari
SYSTEM LOG -- DATE :2017-10-07 12:13:05 - CLASS : data - FUNCTION : check_login - URL : localhost:8080/golkar/index.php/ajax/data/check_login - USER ID : 340 - USER IP : ::1 - USER ROLE : 1 - BROWSER : Mozilla/5.0 (Windows NT 10.0; WOW64; rv:56.0) Gecko/20100101 Firefox/56.0 - USERNAME : safari
SYSTEM LOG -- DATE :2017-10-07 12:13:09 - CLASS : auth - FUNCTION : out - URL : localhost:8080/golkar/index.php/auth/out - USER ID : 340 - USER IP : ::1 - USER ROLE : 1 - BROWSER : Mozilla/5.0 (Windows NT 10.0; WOW64; rv:56.0) Gecko/20100101 Firefox/56.0 - USERNAME : safari
SYSTEM LOG -- DATE :2017-10-07 12:13:20 - CLASS : me - FUNCTION : index - URL : localhost:8080/golkar/index.php/meme/me - USER ID : 566 - USER IP : ::1 - USER ROLE : 30 - BROWSER : Mozilla/5.0 (Windows NT 10.0; WOW64; rv:56.0) Gecko/20100101 Firefox/56.0 - USERNAME : pengusuljakarta
SYSTEM LOG -- DATE :2017-10-07 12:17:01 - CLASS : master_anggota - FUNCTION : index - URL : localhost:8080/golkar/index.php/master/master_anggota - USER ID : 566 - USER IP : ::1 - USER ROLE : 30 - BROWSER : Mozilla/5.0 (Windows NT 10.0; WOW64; rv:56.0) Gecko/20100101 Firefox/56.0 - USERNAME : pengusuljakarta
SYSTEM LOG -- DATE :2017-10-07 12:17:03 - CLASS : data - FUNCTION : check_login - URL : localhost:8080/golkar/index.php/ajax/data/check_login - USER ID : 566 - USER IP : ::1 - USER ROLE : 30 - BROWSER : Mozilla/5.0 (Windows NT 10.0; WOW64; rv:56.0) Gecko/20100101 Firefox/56.0 - USERNAME : pengusuljakarta
SYSTEM LOG -- DATE :2017-10-07 12:17:25 - CLASS : me - FUNCTION : index - URL : localhost:8080/golkar/index.php/meme/me - USER ID : 340 - USER IP : ::1 - USER ROLE : 1 - BROWSER : Mozilla/5.0 (Windows NT 10.0; Win64; x64) AppleWebKit/537.36 (KHTML, like Gecko) Chrome/61.0.3163.100 Safari/537.36 - USERNAME : safari
SYSTEM LOG -- DATE :2017-10-07 12:17:27 - CLASS : data - FUNCTION : check_login - URL : localhost:8080/golkar/index.php/ajax/data/check_login - USER ID : 340 - USER IP : ::1 - USER ROLE : 1 - BROWSER : Mozilla/5.0 (Windows NT 10.0; Win64; x64) AppleWebKit/537.36 (KHTML, like Gecko) Chrome/61.0.3163.100 Safari/537.36 - USERNAME : safari
SYSTEM LOG -- DATE :2017-10-07 12:17:29 - CLASS : group - FUNCTION : index - URL : localhost:8080/golkar/index.php/meme/group - USER ID : 340 - USER IP : ::1 - USER ROLE : 1 - BROWSER : Mozilla/5.0 (Windows NT 10.0; Win64; x64) AppleWebKit/537.36 (KHTML, like Gecko) Chrome/61.0.3163.100 Safari/537.36 - USERNAME : safari
SYSTEM LOG -- DATE :2017-10-07 12:17:30 - CLASS : data - FUNCTION : check_login - URL : localhost:8080/golkar/index.php/ajax/data/check_login - USER ID : 340 - USER IP : ::1 - USER ROLE : 1 - BROWSER : Mozilla/5.0 (Windows NT 10.0; Win64; x64) AppleWebKit/537.36 (KHTML, like Gecko) Chrome/61.0.3163.100 Safari/537.36 - USERNAME : safari
SYSTEM LOG -- DATE :2017-10-07 12:17:35 - CLASS : group - FUNCTION : access - URL : localhost:8080/golkar/index.php/meme/group/access/?_id=jBjKFIguDY2FXvZAbBcYQ6Xj6JZxN5JEuCuyKg6Rf91FhxY62E%2BOdUXIGwQ8cT0ddk1Jnmv6oLRI3nhR8TTbvQ%3D%3D - USER ID : 340 - USER IP : ::1 - USER ROLE : 1 - BROWSER : Mozilla/5.0 (Windows NT 10.0; Win64; x64) AppleWebKit/537.36 (KHTML, like Gecko) Chrome/61.0.3163.100 Safari/537.36 - USERNAME : safari
SYSTEM LOG -- DATE :2017-10-07 12:17:36 - CLASS : data - FUNCTION : check_login - URL : localhost:8080/golkar/index.php/ajax/data/check_login - USER ID : 340 - USER IP : ::1 - USER ROLE : 1 - BROWSER : Mozilla/5.0 (Windows NT 10.0; Win64; x64) AppleWebKit/537.36 (KHTML, like Gecko) Chrome/61.0.3163.100 Safari/537.36 - USERNAME : safari
SYSTEM LOG -- DATE :2017-10-07 12:17:42 - CLASS : group - FUNCTION : access - URL : localhost:8080/golkar/index.php/meme/group/access/?_id=jBjKFIguDY2FXvZAbBcYQ6Xj6JZxN5JEuCuyKg6Rf91FhxY62E%2BOdUXIGwQ8cT0ddk1Jnmv6oLRI3nhR8TTbvQ%3D%3D - USER ID : 340 - USER IP : ::1 - USER ROLE : 1 - BROWSER : Mozilla/5.0 (Windows NT 10.0; Win64; x64) AppleWebKit/537.36 (KHTML, like Gecko) Chrome/61.0.3163.100 Safari/537.36 - USERNAME : safari
SYSTEM LOG -- DATE :2017-10-07 12:17:42 - CLASS : group - FUNCTION : index - URL : localhost:8080/golkar/index.php/meme/group?msg=Update+for+Access+Control+List+Success&type_msg=success - USER ID : 340 - USER IP : ::1 - USER ROLE : 1 - BROWSER : Mozilla/5.0 (Windows NT 10.0; Win64; x64) AppleWebKit/537.36 (KHTML, like Gecko) Chrome/61.0.3163.100 Safari/537.36 - USERNAME : safari
SYSTEM LOG -- DATE :2017-10-07 12:17:42 - CLASS : data - FUNCTION : check_login - URL : localhost:8080/golkar/index.php/ajax/data/check_login - USER ID : 340 - USER IP : ::1 - USER ROLE : 1 - BROWSER : Mozilla/5.0 (Windows NT 10.0; Win64; x64) AppleWebKit/537.36 (KHTML, like Gecko) Chrome/61.0.3163.100 Safari/537.36 - USERNAME : safari
SYSTEM LOG -- DATE :2017-10-07 12:17:45 - CLASS : master_anggota - FUNCTION : index - URL : localhost:8080/golkar/index.php/master/master_anggota - USER ID : 566 - USER IP : ::1 - USER ROLE : 30 - BROWSER : Mozilla/5.0 (Windows NT 10.0; WOW64; rv:56.0) Gecko/20100101 Firefox/56.0 - USERNAME : pengusuljakarta
SYSTEM LOG -- DATE :2017-10-07 12:17:46 - CLASS : data - FUNCTION : check_login - URL : localhost:8080/golkar/index.php/ajax/data/check_login - USER ID : 566 - USER IP : ::1 - USER ROLE : 30 - BROWSER : Mozilla/5.0 (Windows NT 10.0; WOW64; rv:56.0) Gecko/20100101 Firefox/56.0 - USERNAME : pengusuljakarta
SYSTEM LOG -- DATE :2017-10-07 12:17:52 - CLASS : excel_report - FUNCTION : index - URL : localhost:8080/golkar/index.php/report/excel_report - USER ID : 566 - USER IP : ::1 - USER ROLE : 30 - BROWSER : Mozilla/5.0 (Windows NT 10.0; WOW64; rv:56.0) Gecko/20100101 Firefox/56.0 - USERNAME : pengusuljakarta
SYSTEM LOG -- DATE :2017-10-07 12:17:53 - CLASS : data - FUNCTION : check_login - URL : localhost:8080/golkar/index.php/ajax/data/check_login - USER ID : 566 - USER IP : ::1 - USER ROLE : 30 - BROWSER : Mozilla/5.0 (Windows NT 10.0; WOW64; rv:56.0) Gecko/20100101 Firefox/56.0 - USERNAME : pengusuljakarta
SYSTEM LOG -- DATE :2017-10-07 12:19:26 - CLASS : excel_report - FUNCTION : index - URL : localhost:8080/golkar/index.php/report/excel_report - USER ID : 566 - USER IP : ::1 - USER ROLE : 30 - BROWSER : Mozilla/5.0 (Windows NT 10.0; WOW64; rv:56.0) Gecko/20100101 Firefox/56.0 - USERNAME : pengusuljakarta
SYSTEM LOG -- DATE :2017-10-07 12:19:27 - CLASS : data - FUNCTION : check_login - URL : localhost:8080/golkar/index.php/ajax/data/check_login - USER ID : 566 - USER IP : ::1 - USER ROLE : 30 - BROWSER : Mozilla/5.0 (Windows NT 10.0; WOW64; rv:56.0) Gecko/20100101 Firefox/56.0 - USERNAME : pengusuljakarta
SYSTEM LOG -- DATE :2017-10-07 12:19:31 - CLASS : excel_report - FUNCTION : search - URL : localhost:8080/golkar/index.php/report/excel_report/search - USER ID : 566 - USER IP : ::1 - USER ROLE : 30 - BROWSER : Mozilla/5.0 (Windows NT 10.0; WOW64; rv:56.0) Gecko/20100101 Firefox/56.0 - USERNAME : pengusuljakarta
SYSTEM LOG -- DATE :2017-10-07 12:20:16 - CLASS : data - FUNCTION : check_login - URL : localhost:8080/golkar/index.php/ajax/data/check_login - USER ID : 566 - USER IP : ::1 - USER ROLE : 30 - BROWSER : Mozilla/5.0 (Windows NT 10.0; WOW64; rv:56.0) Gecko/20100101 Firefox/56.0 - USERNAME : pengusuljakarta
SYSTEM LOG -- DATE :2017-10-07 12:25:33 - CLASS : excel_report - FUNCTION : search - URL : localhost:8080/golkar/index.php/report/excel_report/search - USER ID : 566 - USER IP : ::1 - USER ROLE : 30 - BROWSER : Mozilla/5.0 (Windows NT 10.0; WOW64; rv:56.0) Gecko/20100101 Firefox/56.0 - USERNAME : pengusuljakarta
SYSTEM LOG -- DATE :2017-10-07 12:25:54 - CLASS : data - FUNCTION : check_login - URL : localhost:8080/golkar/index.php/ajax/data/check_login - USER ID : 566 - USER IP : ::1 - USER ROLE : 30 - BROWSER : Mozilla/5.0 (Windows NT 10.0; WOW64; rv:56.0) Gecko/20100101 Firefox/56.0 - USERNAME : pengusuljakarta
SYSTEM LOG -- DATE :2017-10-07 13:41:03 - CLASS : auth - FUNCTION : out - URL : localhost:8080/golkar/index.php/auth/out - USER ID : 566 - USER IP : ::1 - USER ROLE : 30 - BROWSER : Mozilla/5.0 (Windows NT 10.0; WOW64; rv:56.0) Gecko/20100101 Firefox/56.0 - USERNAME : pengusuljakarta
SYSTEM LOG -- DATE :2017-10-07 13:41:31 - CLASS : me - FUNCTION : index - URL : localhost:8080/golkar/index.php/meme/me - USER ID : 340 - USER IP : ::1 - USER ROLE : 1 - BROWSER : Mozilla/5.0 (Windows NT 10.0; WOW64; rv:56.0) Gecko/20100101 Firefox/56.0 - USERNAME : safari
SYSTEM LOG -- DATE :2017-10-07 13:41:32 - CLASS : data - FUNCTION : check_login - URL : localhost:8080/golkar/index.php/ajax/data/check_login - USER ID : 340 - USER IP : ::1 - USER ROLE : 1 - BROWSER : Mozilla/5.0 (Windows NT 10.0; WOW64; rv:56.0) Gecko/20100101 Firefox/56.0 - USERNAME : safari
SYSTEM LOG -- DATE :2017-10-07 13:41:39 - CLASS : report_perbandingan_kta - FUNCTION : index - URL : localhost:8080/golkar/index.php/report/report_perbandingan_kta - USER ID : 340 - USER IP : ::1 - USER ROLE : 1 - BROWSER : Mozilla/5.0 (Windows NT 10.0; WOW64; rv:56.0) Gecko/20100101 Firefox/56.0 - USERNAME : safari
SYSTEM LOG -- DATE :2017-10-07 13:41:40 - CLASS : data - FUNCTION : check_login - URL : localhost:8080/golkar/index.php/ajax/data/check_login - USER ID : 340 - USER IP : ::1 - USER ROLE : 1 - BROWSER : Mozilla/5.0 (Windows NT 10.0; WOW64; rv:56.0) Gecko/20100101 Firefox/56.0 - USERNAME : safari
SYSTEM LOG -- DATE :2017-10-07 13:41:41 - CLASS : data - FUNCTION : kabupaten - URL : localhost:8080/golkar/index.php/ajax/data/kabupaten - USER ID : 340 - USER IP : ::1 - USER ROLE : 1 - BROWSER : Mozilla/5.0 (Windows NT 10.0; WOW64; rv:56.0) Gecko/20100101 Firefox/56.0 - USERNAME : safari
SYSTEM LOG -- DATE :2017-10-07 13:41:43 - CLASS : data - FUNCTION : kecamatan - URL : localhost:8080/golkar/index.php/ajax/data/kecamatan - USER ID : 340 - USER IP : ::1 - USER ROLE : 1 - BROWSER : Mozilla/5.0 (Windows NT 10.0; WOW64; rv:56.0) Gecko/20100101 Firefox/56.0 - USERNAME : safari
SYSTEM LOG -- DATE :2017-10-07 13:41:44 - CLASS : data - FUNCTION : kabupaten - URL : localhost:8080/golkar/index.php/ajax/data/kabupaten - USER ID : 340 - USER IP : ::1 - USER ROLE : 1 - BROWSER : Mozilla/5.0 (Windows NT 10.0; WOW64; rv:56.0) Gecko/20100101 Firefox/56.0 - USERNAME : safari
SYSTEM LOG -- DATE :2017-10-07 13:41:45 - CLASS : data - FUNCTION : check_login - URL : localhost:8080/golkar/index.php/ajax/data/check_login - USER ID : 340 - USER IP : ::1 - USER ROLE : 1 - BROWSER : Mozilla/5.0 (Windows NT 10.0; WOW64; rv:56.0) Gecko/20100101 Firefox/56.0 - USERNAME : safari
SYSTEM LOG -- DATE :2017-10-07 13:41:46 - CLASS : data - FUNCTION : kecamatan - URL : localhost:8080/golkar/index.php/ajax/data/kecamatan - USER ID : 340 - USER IP : ::1 - USER ROLE : 1 - BROWSER : Mozilla/5.0 (Windows NT 10.0; WOW64; rv:56.0) Gecko/20100101 Firefox/56.0 - USERNAME : safari
SYSTEM LOG -- DATE :2017-10-07 13:41:47 - CLASS : data - FUNCTION : kelurahan - URL : localhost:8080/golkar/index.php/ajax/data/kelurahan - USER ID : 340 - USER IP : ::1 - USER ROLE : 1 - BROWSER : Mozilla/5.0 (Windows NT 10.0; WOW64; rv:56.0) Gecko/20100101 Firefox/56.0 - USERNAME : safari
SYSTEM LOG -- DATE :2017-10-07 13:41:47 - CLASS : report_perbandingan_kta - FUNCTION : search - URL : localhost:8080/golkar/index.php/report/report_perbandingan_kta/search - USER ID : 340 - USER IP : ::1 - USER ROLE : 1 - BROWSER : Mozilla/5.0 (Windows NT 10.0; WOW64; rv:56.0) Gecko/20100101 Firefox/56.0 - USERNAME : safari
SYSTEM LOG -- DATE :2017-10-07 13:41:49 - CLASS : data - FUNCTION : kabupaten - URL : localhost:8080/golkar/index.php/ajax/data/kabupaten - USER ID : 340 - USER IP : ::1 - USER ROLE : 1 - BROWSER : Mozilla/5.0 (Windows NT 10.0; WOW64; rv:56.0) Gecko/20100101 Firefox/56.0 - USERNAME : safari
SYSTEM LOG -- DATE :2017-10-07 13:41:49 - CLASS : data - FUNCTION : kecamatan - URL : localhost:8080/golkar/index.php/ajax/data/kecamatan - USER ID : 340 - USER IP : ::1 - USER ROLE : 1 - BROWSER : Mozilla/5.0 (Windows NT 10.0; WOW64; rv:56.0) Gecko/20100101 Firefox/56.0 - USERNAME : safari
SYSTEM LOG -- DATE :2017-10-07 13:41:49 - CLASS : data - FUNCTION : kelurahan - URL : localhost:8080/golkar/index.php/ajax/data/kelurahan - USER ID : 340 - USER IP : ::1 - USER ROLE : 1 - BROWSER : Mozilla/5.0 (Windows NT 10.0; WOW64; rv:56.0) Gecko/20100101 Firefox/56.0 - USERNAME : safari
SYSTEM LOG -- DATE :2017-10-07 13:41:49 - CLASS : data - FUNCTION : check_login - URL : localhost:8080/golkar/index.php/ajax/data/check_login - USER ID : 340 - USER IP : ::1 - USER ROLE : 1 - BROWSER : Mozilla/5.0 (Windows NT 10.0; WOW64; rv:56.0) Gecko/20100101 Firefox/56.0 - USERNAME : safari
SYSTEM LOG -- DATE :2017-10-07 13:41:52 - CLASS : report_perbandingan_kta - FUNCTION : search - URL : localhost:8080/golkar/index.php/report/report_perbandingan_kta/search - USER ID : 340 - USER IP : ::1 - USER ROLE : 1 - BROWSER : Mozilla/5.0 (Windows NT 10.0; WOW64; rv:56.0) Gecko/20100101 Firefox/56.0 - USERNAME : safari
SYSTEM LOG -- DATE :2017-10-07 13:41:54 - CLASS : data - FUNCTION : check_login - URL : localhost:8080/golkar/index.php/ajax/data/check_login - USER ID : 340 - USER IP : ::1 - USER ROLE : 1 - BROWSER : Mozilla/5.0 (Windows NT 10.0; WOW64; rv:56.0) Gecko/20100101 Firefox/56.0 - USERNAME : safari
SYSTEM LOG -- DATE :2017-10-07 17:39:39 - CLASS : excel_report - FUNCTION : index - URL : localhost:8080/golkar/index.php/report/excel_report - USER ID : 340 - USER IP : ::1 - USER ROLE : 1 - BROWSER : Mozilla/5.0 (Windows NT 10.0; WOW64; rv:56.0) Gecko/20100101 Firefox/56.0 - USERNAME : safari
SYSTEM LOG -- DATE :2017-10-07 17:39:40 - CLASS : data - FUNCTION : check_login - URL : localhost:8080/golkar/index.php/ajax/data/check_login - USER ID : 340 - USER IP : ::1 - USER ROLE : 1 - BROWSER : Mozilla/5.0 (Windows NT 10.0; WOW64; rv:56.0) Gecko/20100101 Firefox/56.0 - USERNAME : safari
SYSTEM LOG -- DATE :2017-10-07 17:40:49 - CLASS : excel_report - FUNCTION : index - URL : localhost:8080/golkar/index.php/report/excel_report - USER ID : 340 - USER IP : ::1 - USER ROLE : 1 - BROWSER : Mozilla/5.0 (Windows NT 10.0; WOW64; rv:56.0) Gecko/20100101 Firefox/56.0 - USERNAME : safari
SYSTEM LOG -- DATE :2017-10-07 17:40:50 - CLASS : data - FUNCTION : check_login - URL : localhost:8080/golkar/index.php/ajax/data/check_login - USER ID : 340 - USER IP : ::1 - USER ROLE : 1 - BROWSER : Mozilla/5.0 (Windows NT 10.0; WOW64; rv:56.0) Gecko/20100101 Firefox/56.0 - USERNAME : safari
SYSTEM LOG -- DATE :2017-10-07 17:41:31 - CLASS : excel_report - FUNCTION : index - URL : localhost:8080/golkar/index.php/report/excel_report - USER ID : 340 - USER IP : ::1 - USER ROLE : 1 - BROWSER : Mozilla/5.0 (Windows NT 10.0; WOW64; rv:56.0) Gecko/20100101 Firefox/56.0 - USERNAME : safari
SYSTEM LOG -- DATE :2017-10-07 17:41:33 - CLASS : data - FUNCTION : check_login - URL : localhost:8080/golkar/index.php/ajax/data/check_login - USER ID : 340 - USER IP : ::1 - USER ROLE : 1 - BROWSER : Mozilla/5.0 (Windows NT 10.0; WOW64; rv:56.0) Gecko/20100101 Firefox/56.0 - USERNAME : safari
SYSTEM LOG -- DATE :2017-10-07 17:41:43 - CLASS : excel_report - FUNCTION : index - URL : localhost:8080/golkar/index.php/report/excel_report - USER ID : 340 - USER IP : ::1 - USER ROLE : 1 - BROWSER : Mozilla/5.0 (Windows NT 10.0; WOW64; rv:56.0) Gecko/20100101 Firefox/56.0 - USERNAME : safari
SYSTEM LOG -- DATE :2017-10-07 17:41:43 - CLASS : data - FUNCTION : check_login - URL : localhost:8080/golkar/index.php/ajax/data/check_login - USER ID : 340 - USER IP : ::1 - USER ROLE : 1 - BROWSER : Mozilla/5.0 (Windows NT 10.0; WOW64; rv:56.0) Gecko/20100101 Firefox/56.0 - USERNAME : safari
SYSTEM LOG -- DATE :2017-10-07 17:41:51 - CLASS : excel_report - FUNCTION : index - URL : localhost:8080/golkar/index.php/report/excel_report - USER ID : 340 - USER IP : ::1 - USER ROLE : 1 - BROWSER : Mozilla/5.0 (Windows NT 10.0; WOW64; rv:56.0) Gecko/20100101 Firefox/56.0 - USERNAME : safari
SYSTEM LOG -- DATE :2017-10-07 17:41:52 - CLASS : data - FUNCTION : check_login - URL : localhost:8080/golkar/index.php/ajax/data/check_login - USER ID : 340 - USER IP : ::1 - USER ROLE : 1 - BROWSER : Mozilla/5.0 (Windows NT 10.0; WOW64; rv:56.0) Gecko/20100101 Firefox/56.0 - USERNAME : safari
