SYSTEM LOG -- DATE :2018-04-05 09:47:10 - CLASS : me - FUNCTION : index - URL : localhost:8080/kaderisasi/ - USER ID : 340 - USER IP : ::1 - USER ROLE : 1 - BROWSER : Mozilla/5.0 (Windows NT 10.0; Win64; x64) AppleWebKit/537.36 (KHTML, like Gecko) Chrome/65.0.3325.181 Safari/537.36 - USERNAME : safari
SYSTEM LOG -- DATE :2018-04-05 22:29:11 - CLASS : me - FUNCTION : index - URL : localhost:8080/kaderisasi/index.php/meme/me - USER ID : 340 - USER IP : ::1 - USER ROLE : 1 - BROWSER : Mozilla/5.0 (Windows NT 10.0; Win64; x64; rv:59.0) Gecko/20100101 Firefox/59.0 - USERNAME : safari
SYSTEM LOG -- DATE :2018-04-05 22:29:18 - CLASS : tanda_terima - FUNCTION : index - URL : localhost:8080/kaderisasi/index.php/report/tanda_terima - USER ID : 340 - USER IP : ::1 - USER ROLE : 1 - BROWSER : Mozilla/5.0 (Windows NT 10.0; Win64; x64; rv:59.0) Gecko/20100101 Firefox/59.0 - USERNAME : safari
SYSTEM LOG -- DATE :2018-04-05 22:29:20 - CLASS : me - FUNCTION : index - URL : localhost:8080/kaderisasi/index.php/meme/me - USER ID : 340 - USER IP : ::1 - USER ROLE : 1 - BROWSER : Mozilla/5.0 (Windows NT 10.0; Win64; x64; rv:59.0) Gecko/20100101 Firefox/59.0 - USERNAME : safari
SYSTEM LOG -- DATE :2018-04-05 22:29:23 - CLASS : cetak_idcard - FUNCTION : index - URL : localhost:8080/kaderisasi/index.php/report/cetak_idcard - USER ID : 340 - USER IP : ::1 - USER ROLE : 1 - BROWSER : Mozilla/5.0 (Windows NT 10.0; Win64; x64; rv:59.0) Gecko/20100101 Firefox/59.0 - USERNAME : safari
SYSTEM LOG -- DATE :2018-04-05 22:32:55 - CLASS : cetak_idcard - FUNCTION : print_preview - URL : localhost:8080/kaderisasi/index.php/report/cetak_idcard/print_preview/?type=data&id=413&nama=CAMELLIA%20PANDUWINATA%20LUBIS&dapil=PP%20INDONESIA%20I&foto=airlangga%20hartarto.jpg&no_urut=S001&u=aHR0cDovL2xvY2FsaG9zdDo4MDgwL2thZGVyaXNhc2kvaW5kZXgucGhwL3JlcG9ydC9jZXRha19pZGNhcmQvdXBkYXRl - USER ID : 340 - USER IP : ::1 - USER ROLE : 1 - BROWSER : Mozilla/5.0 (Windows NT 10.0; Win64; x64; rv:59.0) Gecko/20100101 Firefox/59.0 - USERNAME : safari
SYSTEM LOG -- DATE :2018-04-05 23:26:12 - CLASS : me - FUNCTION : index - URL : localhost:8080/kaderisasi/index.php/meme/me - USER ID : 340 - USER IP : ::1 - USER ROLE : 1 - BROWSER : Mozilla/5.0 (Windows NT 10.0; Win64; x64; rv:59.0) Gecko/20100101 Firefox/59.0 - USERNAME : safari
SYSTEM LOG -- DATE :2018-04-05 23:26:16 - CLASS : cetak_idcard - FUNCTION : index - URL : localhost:8080/kaderisasi/index.php/report/cetak_idcard - USER ID : 340 - USER IP : ::1 - USER ROLE : 1 - BROWSER : Mozilla/5.0 (Windows NT 10.0; Win64; x64; rv:59.0) Gecko/20100101 Firefox/59.0 - USERNAME : safari
SYSTEM LOG -- DATE :2018-04-05 23:26:25 - CLASS : cetak_idcard - FUNCTION : print_preview - URL : localhost:8080/kaderisasi/index.php/report/cetak_idcard/print_preview/?type=data&id=413&nama=CAMELLIA%20PANDUWINATA%20LUBIS&dapil=PP%20INDONESIA%20I&foto=airlangga%20hartarto.jpg&no_urut=S001&u=aHR0cDovL2xvY2FsaG9zdDo4MDgwL2thZGVyaXNhc2kvaW5kZXgucGhwL3JlcG9ydC9jZXRha19pZGNhcmQvdXBkYXRl - USER ID : 340 - USER IP : ::1 - USER ROLE : 1 - BROWSER : Mozilla/5.0 (Windows NT 10.0; Win64; x64; rv:59.0) Gecko/20100101 Firefox/59.0 - USERNAME : safari
SYSTEM LOG -- DATE :2018-04-05 23:26:30 - CLASS : cetak_idcard - FUNCTION : update - URL : localhost:8080/kaderisasi/index.php/report/cetak_idcard/update - USER ID : 340 - USER IP : ::1 - USER ROLE : 1 - BROWSER : Mozilla/5.0 (Windows NT 10.0; Win64; x64; rv:59.0) Gecko/20100101 Firefox/59.0 - USERNAME : safari
SYSTEM LOG -- DATE :2018-04-05 23:30:32 - CLASS : cetak_idcard - FUNCTION : index - URL : localhost:8080/kaderisasi/index.php/report/cetak_idcard - USER ID : 340 - USER IP : ::1 - USER ROLE : 1 - BROWSER : Mozilla/5.0 (Windows NT 10.0; Win64; x64; rv:59.0) Gecko/20100101 Firefox/59.0 - USERNAME : safari
SYSTEM LOG -- DATE :2018-04-05 23:30:41 - CLASS : cetak_idcard - FUNCTION : print_preview - URL : localhost:8080/kaderisasi/index.php/report/cetak_idcard/print_preview/?type=data&id=413&nama=CAMELLIA%20PANDUWINATA%20LUBIS&dapil=PP%20INDONESIA%20I&foto=airlangga%20hartarto.jpg&no_urut=S001&u=aHR0cDovL2xvY2FsaG9zdDo4MDgwL2thZGVyaXNhc2kvaW5kZXgucGhwL3JlcG9ydC9jZXRha19pZGNhcmQvdXBkYXRl - USER ID : 340 - USER IP : ::1 - USER ROLE : 1 - BROWSER : Mozilla/5.0 (Windows NT 10.0; Win64; x64; rv:59.0) Gecko/20100101 Firefox/59.0 - USERNAME : safari
SYSTEM LOG -- DATE :2018-04-05 23:30:55 - CLASS : cetak_idcard - FUNCTION : update - URL : localhost:8080/kaderisasi/index.php/report/cetak_idcard/update - USER ID : 340 - USER IP : ::1 - USER ROLE : 1 - BROWSER : Mozilla/5.0 (Windows NT 10.0; Win64; x64; rv:59.0) Gecko/20100101 Firefox/59.0 - USERNAME : safari
SYSTEM LOG -- DATE :2018-04-05 23:31:32 - CLASS : cetak_idcard - FUNCTION : print_preview - URL : localhost:8080/kaderisasi/index.php/report/cetak_idcard/print_preview/?type=data&id=413&nama=CAMELLIA%20PANDUWINATA%20LUBIS&dapil=PP%20INDONESIA%20I&foto=airlangga%20hartarto.jpg&no_urut=S001&u=aHR0cDovL2xvY2FsaG9zdDo4MDgwL2thZGVyaXNhc2kvaW5kZXgucGhwL3JlcG9ydC9jZXRha19pZGNhcmQvdXBkYXRl - USER ID : 340 - USER IP : ::1 - USER ROLE : 1 - BROWSER : Mozilla/5.0 (Windows NT 10.0; Win64; x64; rv:59.0) Gecko/20100101 Firefox/59.0 - USERNAME : safari
SYSTEM LOG -- DATE :2018-04-05 23:40:17 - CLASS : cetak_idcard - FUNCTION : index - URL : localhost:8080/kaderisasi/index.php/report/cetak_idcard - USER ID : 340 - USER IP : ::1 - USER ROLE : 1 - BROWSER : Mozilla/5.0 (Windows NT 10.0; Win64; x64; rv:59.0) Gecko/20100101 Firefox/59.0 - USERNAME : safari
SYSTEM LOG -- DATE :2018-04-05 23:40:25 - CLASS : cetak_idcard - FUNCTION : print_preview - URL : localhost:8080/kaderisasi/index.php/report/cetak_idcard/print_preview/?type=data&id=413&nama=CAMELLIA%20PANDUWINATA%20LUBIS&dapil=PP%20INDONESIA%20I&foto=airlangga%20hartarto.jpg&no_urut=S001&u=aHR0cDovL2xvY2FsaG9zdDo4MDgwL2thZGVyaXNhc2kvaW5kZXgucGhwL3JlcG9ydC9jZXRha19pZGNhcmQvdXBkYXRl - USER ID : 340 - USER IP : ::1 - USER ROLE : 1 - BROWSER : Mozilla/5.0 (Windows NT 10.0; Win64; x64; rv:59.0) Gecko/20100101 Firefox/59.0 - USERNAME : safari
SYSTEM LOG -- DATE :2018-04-05 23:40:28 - CLASS : cetak_idcard - FUNCTION : update - URL : localhost:8080/kaderisasi/index.php/report/cetak_idcard/update - USER ID : 340 - USER IP : ::1 - USER ROLE : 1 - BROWSER : Mozilla/5.0 (Windows NT 10.0; Win64; x64; rv:59.0) Gecko/20100101 Firefox/59.0 - USERNAME : safari
SYSTEM LOG -- DATE :2018-04-05 23:40:57 - CLASS : cetak_idcard - FUNCTION : print_preview - URL : localhost:8080/kaderisasi/index.php/report/cetak_idcard/print_preview/?type=data&id=413&nama=CAMELLIA%20PANDUWINATA%20LUBIS&dapil=PP%20INDONESIA%20I&foto=airlangga%20hartarto.jpg&no_urut=S001&u=aHR0cDovL2xvY2FsaG9zdDo4MDgwL2thZGVyaXNhc2kvaW5kZXgucGhwL3JlcG9ydC9jZXRha19pZGNhcmQvdXBkYXRl - USER ID : 340 - USER IP : ::1 - USER ROLE : 1 - BROWSER : Mozilla/5.0 (Windows NT 10.0; Win64; x64; rv:59.0) Gecko/20100101 Firefox/59.0 - USERNAME : safari
SYSTEM LOG -- DATE :2018-04-05 23:41:49 - CLASS : cetak_idcard - FUNCTION : update - URL : localhost:8080/kaderisasi/index.php/report/cetak_idcard/update - USER ID : 340 - USER IP : ::1 - USER ROLE : 1 - BROWSER : Mozilla/5.0 (Windows NT 10.0; Win64; x64; rv:59.0) Gecko/20100101 Firefox/59.0 - USERNAME : safari
SYSTEM LOG -- DATE :2018-04-05 23:42:48 - CLASS : cetak_idcard - FUNCTION : print_preview - URL : localhost:8080/kaderisasi/index.php/report/cetak_idcard/print_preview/?type=data&id=413&nama=CAMELLIA%20PANDUWINATA%20LUBIS&dapil=PP%20INDONESIA%20I&foto=airlangga%20hartarto.jpg&no_urut=S001&u=aHR0cDovL2xvY2FsaG9zdDo4MDgwL2thZGVyaXNhc2kvaW5kZXgucGhwL3JlcG9ydC9jZXRha19pZGNhcmQvdXBkYXRl - USER ID : 340 - USER IP : ::1 - USER ROLE : 1 - BROWSER : Mozilla/5.0 (Windows NT 10.0; Win64; x64; rv:59.0) Gecko/20100101 Firefox/59.0 - USERNAME : safari
SYSTEM LOG -- DATE :2018-04-05 23:42:53 - CLASS : cetak_idcard - FUNCTION : update - URL : localhost:8080/kaderisasi/index.php/report/cetak_idcard/update - USER ID : 340 - USER IP : ::1 - USER ROLE : 1 - BROWSER : Mozilla/5.0 (Windows NT 10.0; Win64; x64; rv:59.0) Gecko/20100101 Firefox/59.0 - USERNAME : safari
SYSTEM LOG -- DATE :2018-04-05 23:44:31 - CLASS : cetak_idcard - FUNCTION : print_preview - URL : localhost:8080/kaderisasi/index.php/report/cetak_idcard/print_preview/?type=data&id=413&nama=CAMELLIA%20PANDUWINATA%20LUBIS&dapil=PP%20INDONESIA%20I&foto=airlangga%20hartarto.jpg&no_urut=S001&u=aHR0cDovL2xvY2FsaG9zdDo4MDgwL2thZGVyaXNhc2kvaW5kZXgucGhwL3JlcG9ydC9jZXRha19pZGNhcmQvdXBkYXRl - USER ID : 340 - USER IP : ::1 - USER ROLE : 1 - BROWSER : Mozilla/5.0 (Windows NT 10.0; Win64; x64; rv:59.0) Gecko/20100101 Firefox/59.0 - USERNAME : safari
SYSTEM LOG -- DATE :2018-04-05 23:44:43 - CLASS : cetak_idcard - FUNCTION : update - URL : localhost:8080/kaderisasi/index.php/report/cetak_idcard/update - USER ID : 340 - USER IP : ::1 - USER ROLE : 1 - BROWSER : Mozilla/5.0 (Windows NT 10.0; Win64; x64; rv:59.0) Gecko/20100101 Firefox/59.0 - USERNAME : safari
SYSTEM LOG -- DATE :2018-04-05 23:45:35 - CLASS : cetak_idcard - FUNCTION : print_preview - URL : localhost:8080/kaderisasi/index.php/report/cetak_idcard/print_preview/?type=data&id=413&nama=CAMELLIA%20PANDUWINATA%20LUBIS&dapil=PP%20INDONESIA%20I&foto=airlangga%20hartarto.jpg&no_urut=S001&u=aHR0cDovL2xvY2FsaG9zdDo4MDgwL2thZGVyaXNhc2kvaW5kZXgucGhwL3JlcG9ydC9jZXRha19pZGNhcmQvdXBkYXRl - USER ID : 340 - USER IP : ::1 - USER ROLE : 1 - BROWSER : Mozilla/5.0 (Windows NT 10.0; Win64; x64; rv:59.0) Gecko/20100101 Firefox/59.0 - USERNAME : safari
SYSTEM LOG -- DATE :2018-04-05 23:45:53 - CLASS : cetak_idcard - FUNCTION : update - URL : localhost:8080/kaderisasi/index.php/report/cetak_idcard/update - USER ID : 340 - USER IP : ::1 - USER ROLE : 1 - BROWSER : Mozilla/5.0 (Windows NT 10.0; Win64; x64; rv:59.0) Gecko/20100101 Firefox/59.0 - USERNAME : safari
SYSTEM LOG -- DATE :2018-04-05 23:46:40 - CLASS : cetak_idcard - FUNCTION : print_preview - URL : localhost:8080/kaderisasi/index.php/report/cetak_idcard/print_preview/?type=data&id=413&nama=CAMELLIA%20PANDUWINATA%20LUBIS&dapil=PP%20INDONESIA%20I&foto=airlangga%20hartarto.jpg&no_urut=S001&u=aHR0cDovL2xvY2FsaG9zdDo4MDgwL2thZGVyaXNhc2kvaW5kZXgucGhwL3JlcG9ydC9jZXRha19pZGNhcmQvdXBkYXRl - USER ID : 340 - USER IP : ::1 - USER ROLE : 1 - BROWSER : Mozilla/5.0 (Windows NT 10.0; Win64; x64; rv:59.0) Gecko/20100101 Firefox/59.0 - USERNAME : safari
SYSTEM LOG -- DATE :2018-04-05 23:46:42 - CLASS : cetak_idcard - FUNCTION : update - URL : localhost:8080/kaderisasi/index.php/report/cetak_idcard/update - USER ID : 340 - USER IP : ::1 - USER ROLE : 1 - BROWSER : Mozilla/5.0 (Windows NT 10.0; Win64; x64; rv:59.0) Gecko/20100101 Firefox/59.0 - USERNAME : safari
SYSTEM LOG -- DATE :2018-04-05 23:53:20 - CLASS : cetak_idcard - FUNCTION : print_ - URL : localhost:8080/kaderisasi/index.php/report/cetak_idcard/print_/?_id=XzSNLs6pSi0NSP%2F4B4E9oSPbdyujztugbXIG3haWLXhUjr4f3n584b7ihia4hHIkzgkuoO9VYi1s3rxcuX17Yg%3D%3D - USER ID : 340 - USER IP : ::1 - USER ROLE : 1 - BROWSER : Mozilla/5.0 (Windows NT 10.0; Win64; x64; rv:59.0) Gecko/20100101 Firefox/59.0 - USERNAME : safari
