SYSTEM LOG -- DATE :2017-08-25 09:33:31 - CLASS : me - FUNCTION : index - URL : localhost:8080/golkar/index.php/meme/me - USER ID : 340 - USER IP : ::1 - USER ROLE : 1 - BROWSER : Mozilla/5.0 (Windows NT 10.0; Win64; x64) AppleWebKit/537.36 (KHTML, like Gecko) Chrome/60.0.3112.101 Safari/537.36 - USERNAME : safari - VAR GET: [] - VAR POST: []
SYSTEM LOG -- DATE :2017-08-25 10:50:18 - CLASS : assign_anggota - FUNCTION : index - URL : localhost:8080/golkar/index.php/master/assign_anggota - USER ID : 340 - USER IP : ::1 - USER ROLE : 1 - BROWSER : Mozilla/5.0 (Windows NT 10.0; Win64; x64) AppleWebKit/537.36 (KHTML, like Gecko) Chrome/60.0.3112.101 Safari/537.36 - USERNAME : safari - VAR GET: [] - VAR POST: []
SYSTEM LOG -- DATE :2017-08-25 10:50:21 - CLASS : assign_anggota - FUNCTION : search - URL : localhost:8080/golkar/index.php/master/assign_anggota/search - USER ID : 340 - USER IP : ::1 - USER ROLE : 1 - BROWSER : Mozilla/5.0 (Windows NT 10.0; Win64; x64) AppleWebKit/537.36 (KHTML, like Gecko) Chrome/60.0.3112.101 Safari/537.36 - USERNAME : safari - VAR GET: [] - VAR POST: {"koordata":"2","btn_search":""}
SYSTEM LOG -- DATE :2017-08-25 10:51:09 - CLASS : upload_formulir - FUNCTION : index - URL : localhost:8080/golkar/index.php/master/upload_formulir - USER ID : 340 - USER IP : ::1 - USER ROLE : 1 - BROWSER : Mozilla/5.0 (Windows NT 10.0; Win64; x64) AppleWebKit/537.36 (KHTML, like Gecko) Chrome/60.0.3112.101 Safari/537.36 - USERNAME : safari - VAR GET: [] - VAR POST: []
SYSTEM LOG -- DATE :2017-08-25 10:51:15 - CLASS : upload_formulir - FUNCTION : show_table - URL : localhost:8080/golkar/index.php/master/upload_formulir/show_table?_=1503633074746 - USER ID : 340 - USER IP : ::1 - USER ROLE : 1 - BROWSER : Mozilla/5.0 (Windows NT 10.0; Win64; x64) AppleWebKit/537.36 (KHTML, like Gecko) Chrome/60.0.3112.101 Safari/537.36 - USERNAME : safari - VAR GET: {"_":"1503633074746"} - VAR POST: []
SYSTEM LOG -- DATE :2017-08-25 10:51:47 - CLASS : pendaftaran_kartu - FUNCTION : index - URL : localhost:8080/golkar/index.php/master/pendaftaran_kartu - USER ID : 340 - USER IP : ::1 - USER ROLE : 1 - BROWSER : Mozilla/5.0 (Windows NT 10.0; Win64; x64) AppleWebKit/537.36 (KHTML, like Gecko) Chrome/60.0.3112.101 Safari/537.36 - USERNAME : safari - VAR GET: [] - VAR POST: []
SYSTEM LOG -- DATE :2017-08-25 10:57:16 - CLASS : report_pencapaian - FUNCTION : index - URL : localhost:8080/golkar/index.php/report/report_pencapaian - USER ID : 340 - USER IP : ::1 - USER ROLE : 1 - BROWSER : Mozilla/5.0 (Windows NT 10.0; Win64; x64) AppleWebKit/537.36 (KHTML, like Gecko) Chrome/60.0.3112.101 Safari/537.36 - USERNAME : safari - VAR GET: [] - VAR POST: []
SYSTEM LOG -- DATE :2017-08-25 10:57:20 - CLASS : report_pencapaian - FUNCTION : search - URL : localhost:8080/golkar/index.php/report/report_pencapaian/search - USER ID : 340 - USER IP : ::1 - USER ROLE : 1 - BROWSER : Mozilla/5.0 (Windows NT 10.0; Win64; x64) AppleWebKit/537.36 (KHTML, like Gecko) Chrome/60.0.3112.101 Safari/537.36 - USERNAME : safari - VAR GET: [] - VAR POST: {"propinsi":"","date_from":"","date_to":"","btn_search":"Search"}
SYSTEM LOG -- DATE :2017-08-25 13:49:26 - CLASS : me - FUNCTION : index - URL : localhost:8080/golkar/index.php/meme/me - USER ID : 340 - USER IP : ::1 - USER ROLE : 1 - BROWSER : Mozilla/5.0 (Windows NT 10.0; Win64; x64) AppleWebKit/537.36 (KHTML, like Gecko) Chrome/60.0.3112.101 Safari/537.36 - USERNAME : safari - VAR GET: [] - VAR POST: []
SYSTEM LOG -- DATE :2017-08-25 14:08:25 - CLASS : report_pencapaian - FUNCTION : index - URL : localhost:8080/golkar/index.php/report/report_pencapaian - USER ID : 340 - USER IP : ::1 - USER ROLE : 1 - BROWSER : Mozilla/5.0 (Windows NT 10.0; Win64; x64) AppleWebKit/537.36 (KHTML, like Gecko) Chrome/60.0.3112.101 Safari/537.36 - USERNAME : safari - VAR GET: [] - VAR POST: []
SYSTEM LOG -- DATE :2017-08-25 14:08:27 - CLASS : report_pencapaian - FUNCTION : search - URL : localhost:8080/golkar/index.php/report/report_pencapaian/search - USER ID : 340 - USER IP : ::1 - USER ROLE : 1 - BROWSER : Mozilla/5.0 (Windows NT 10.0; Win64; x64) AppleWebKit/537.36 (KHTML, like Gecko) Chrome/60.0.3112.101 Safari/537.36 - USERNAME : safari - VAR GET: [] - VAR POST: {"propinsi":"","date_from":"","date_to":"","btn_search":"Search"}
SYSTEM LOG -- DATE :2017-08-25 14:27:34 - CLASS : report_pencapaian - FUNCTION : index - URL : localhost:8080/golkar/index.php/report/report_pencapaian - USER ID : 340 - USER IP : ::1 - USER ROLE : 1 - BROWSER : Mozilla/5.0 (Windows NT 10.0; Win64; x64) AppleWebKit/537.36 (KHTML, like Gecko) Chrome/60.0.3112.101 Safari/537.36 - USERNAME : safari - VAR GET: [] - VAR POST: []
SYSTEM LOG -- DATE :2017-08-25 14:27:36 - CLASS : report_pencapaian - FUNCTION : search - URL : localhost:8080/golkar/index.php/report/report_pencapaian/search - USER ID : 340 - USER IP : ::1 - USER ROLE : 1 - BROWSER : Mozilla/5.0 (Windows NT 10.0; Win64; x64) AppleWebKit/537.36 (KHTML, like Gecko) Chrome/60.0.3112.101 Safari/537.36 - USERNAME : safari - VAR GET: [] - VAR POST: {"propinsi":"","date_from":"","date_to":"","btn_search":"Search"}
SYSTEM LOG -- DATE :2017-08-25 14:50:04 - CLASS : report_pencapaian - FUNCTION : index - URL : localhost:8080/golkar/index.php/report/report_pencapaian - USER ID : 340 - USER IP : ::1 - USER ROLE : 1 - BROWSER : Mozilla/5.0 (Windows NT 10.0; Win64; x64) AppleWebKit/537.36 (KHTML, like Gecko) Chrome/60.0.3112.101 Safari/537.36 - USERNAME : safari - VAR GET: [] - VAR POST: []
SYSTEM LOG -- DATE :2017-08-25 14:50:07 - CLASS : report_pencapaian - FUNCTION : search - URL : localhost:8080/golkar/index.php/report/report_pencapaian/search - USER ID : 340 - USER IP : ::1 - USER ROLE : 1 - BROWSER : Mozilla/5.0 (Windows NT 10.0; Win64; x64) AppleWebKit/537.36 (KHTML, like Gecko) Chrome/60.0.3112.101 Safari/537.36 - USERNAME : safari - VAR GET: [] - VAR POST: {"propinsi":"","date_from":"","date_to":"","btn_search":"Search"}
SYSTEM LOG -- DATE :2017-08-25 17:54:50 - CLASS : report_pencapaian - FUNCTION : index - URL : localhost:8080/golkar/index.php/report/report_pencapaian - USER ID : 340 - USER IP : ::1 - USER ROLE : 1 - BROWSER : Mozilla/5.0 (Windows NT 10.0; Win64; x64) AppleWebKit/537.36 (KHTML, like Gecko) Chrome/60.0.3112.101 Safari/537.36 - USERNAME : safari - VAR GET: [] - VAR POST: []
SYSTEM LOG -- DATE :2017-08-25 17:54:56 - CLASS : report_pencapaian - FUNCTION : search - URL : localhost:8080/golkar/index.php/report/report_pencapaian/search - USER ID : 340 - USER IP : ::1 - USER ROLE : 1 - BROWSER : Mozilla/5.0 (Windows NT 10.0; Win64; x64) AppleWebKit/537.36 (KHTML, like Gecko) Chrome/60.0.3112.101 Safari/537.36 - USERNAME : safari - VAR GET: [] - VAR POST: {"propinsi":"","date_from":"","date_to":"","btn_search":"Search"}
SYSTEM LOG -- DATE :2017-08-25 18:00:37 - CLASS : report_pencapaian - FUNCTION : index - URL : localhost:8080/golkar/index.php/report/report_pencapaian - USER ID : 340 - USER IP : ::1 - USER ROLE : 1 - BROWSER : Mozilla/5.0 (Windows NT 10.0; Win64; x64) AppleWebKit/537.36 (KHTML, like Gecko) Chrome/60.0.3112.101 Safari/537.36 - USERNAME : safari - VAR GET: [] - VAR POST: []
SYSTEM LOG -- DATE :2017-08-25 18:00:39 - CLASS : report_pencapaian - FUNCTION : search - URL : localhost:8080/golkar/index.php/report/report_pencapaian/search - USER ID : 340 - USER IP : ::1 - USER ROLE : 1 - BROWSER : Mozilla/5.0 (Windows NT 10.0; Win64; x64) AppleWebKit/537.36 (KHTML, like Gecko) Chrome/60.0.3112.101 Safari/537.36 - USERNAME : safari - VAR GET: [] - VAR POST: {"propinsi":"","date_from":"","date_to":"","btn_search":"Search"}
