SYSTEM LOG -- DATE :2017-08-30 15:30:03 - CLASS : me - FUNCTION : index - URL : localhost:8080/golkar/index.php/meme/me - USER ID : 340 - USER IP : ::1 - USER ROLE : 1 - BROWSER : Mozilla/5.0 (Windows NT 10.0; Win64; x64) AppleWebKit/537.36 (KHTML, like Gecko) Chrome/60.0.3112.113 Safari/537.36 - USERNAME : safari - VAR GET: [] - VAR POST: []
SYSTEM LOG -- DATE :2017-08-30 15:36:00 - CLASS : report_pencapaian - FUNCTION : index - URL : localhost:8080/golkar/index.php/report/report_pencapaian - USER ID : 340 - USER IP : ::1 - USER ROLE : 1 - BROWSER : Mozilla/5.0 (Windows NT 10.0; Win64; x64) AppleWebKit/537.36 (KHTML, like Gecko) Chrome/60.0.3112.113 Safari/537.36 - USERNAME : safari - VAR GET: [] - VAR POST: []
SYSTEM LOG -- DATE :2017-08-30 15:36:07 - CLASS : report_pencapaian - FUNCTION : search - URL : localhost:8080/golkar/index.php/report/report_pencapaian/search - USER ID : 340 - USER IP : ::1 - USER ROLE : 1 - BROWSER : Mozilla/5.0 (Windows NT 10.0; Win64; x64) AppleWebKit/537.36 (KHTML, like Gecko) Chrome/60.0.3112.113 Safari/537.36 - USERNAME : safari - VAR GET: [] - VAR POST: {"propinsi":"","date_from":"","date_to":"","btn_search":"Search"}
