SYSTEM LOG -- DATE :2020-05-20 19:44:03 - CLASS : me - FUNCTION : index - URL : localhost/private/cv-atp/index.php/meme/me - USER ID : 591 - USER IP : ::1 - USER ROLE : 46 - BROWSER : Mozilla/5.0 (Windows NT 10.0; Win64; x64; rv:76.0) Gecko/20100101 Firefox/76.0 - USERNAME : admin
SYSTEM LOG -- DATE :2020-05-20 19:53:19 - CLASS : auth - FUNCTION : out - URL : localhost/aba_anilo/satukartu-template/landing-page/admin/index.php/auth/out - USER ID : 591 - USER IP : ::1 - USER ROLE : 46 - BROWSER : Mozilla/5.0 (Windows NT 10.0; Win64; x64; rv:76.0) Gecko/20100101 Firefox/76.0 - USERNAME : admin
SYSTEM LOG -- DATE :2020-05-20 19:53:24 - CLASS : me - FUNCTION : index - URL : localhost/aba_anilo/satukartu-template/landing-page/admin/index.php/meme/me - USER ID : 591 - USER IP : ::1 - USER ROLE : 46 - BROWSER : Mozilla/5.0 (Windows NT 10.0; Win64; x64; rv:76.0) Gecko/20100101 Firefox/76.0 - USERNAME : admin
SYSTEM LOG -- DATE :2020-05-20 19:57:12 - CLASS : armada - FUNCTION : index - URL : localhost/aba_anilo/satukartu-template/landing-page/admin/index.php/master/armada - USER ID : 591 - USER IP : ::1 - USER ROLE : 46 - BROWSER : Mozilla/5.0 (Windows NT 10.0; Win64; x64; rv:76.0) Gecko/20100101 Firefox/76.0 - USERNAME : admin
SYSTEM LOG -- DATE :2020-05-20 19:57:12 - CLASS : armada - FUNCTION : ajax_list - URL : localhost/aba_anilo/satukartu-template/landing-page/admin/index.php/master/armada/ajax_list - USER ID : 591 - USER IP : ::1 - USER ROLE : 46 - BROWSER : Mozilla/5.0 (Windows NT 10.0; Win64; x64; rv:76.0) Gecko/20100101 Firefox/76.0 - USERNAME : admin
SYSTEM LOG -- DATE :2020-05-20 19:58:16 - CLASS : tujuan - FUNCTION : index - URL : localhost/aba_anilo/satukartu-template/landing-page/admin/index.php/master/tujuan - USER ID : 591 - USER IP : ::1 - USER ROLE : 46 - BROWSER : Mozilla/5.0 (Windows NT 10.0; Win64; x64; rv:76.0) Gecko/20100101 Firefox/76.0 - USERNAME : admin
SYSTEM LOG -- DATE :2020-05-20 19:58:17 - CLASS : tujuan - FUNCTION : ajax_list - URL : localhost/aba_anilo/satukartu-template/landing-page/admin/index.php/master/tujuan/ajax_list - USER ID : 591 - USER IP : ::1 - USER ROLE : 46 - BROWSER : Mozilla/5.0 (Windows NT 10.0; Win64; x64; rv:76.0) Gecko/20100101 Firefox/76.0 - USERNAME : admin
SYSTEM LOG -- DATE :2020-05-20 19:58:32 - CLASS : armada - FUNCTION : index - URL : localhost/aba_anilo/satukartu-template/landing-page/admin/index.php/master/armada - USER ID : 591 - USER IP : ::1 - USER ROLE : 46 - BROWSER : Mozilla/5.0 (Windows NT 10.0; Win64; x64; rv:76.0) Gecko/20100101 Firefox/76.0 - USERNAME : admin
SYSTEM LOG -- DATE :2020-05-20 19:58:33 - CLASS : armada - FUNCTION : ajax_list - URL : localhost/aba_anilo/satukartu-template/landing-page/admin/index.php/master/armada/ajax_list - USER ID : 591 - USER IP : ::1 - USER ROLE : 46 - BROWSER : Mozilla/5.0 (Windows NT 10.0; Win64; x64; rv:76.0) Gecko/20100101 Firefox/76.0 - USERNAME : admin
SYSTEM LOG -- DATE :2020-05-20 19:59:22 - CLASS : armada - FUNCTION : index - URL : localhost/aba_anilo/satukartu-template/landing-page/admin/index.php/master/armada - USER ID : 591 - USER IP : ::1 - USER ROLE : 46 - BROWSER : Mozilla/5.0 (Windows NT 10.0; Win64; x64; rv:76.0) Gecko/20100101 Firefox/76.0 - USERNAME : admin
SYSTEM LOG -- DATE :2020-05-20 19:59:23 - CLASS : armada - FUNCTION : ajax_list - URL : localhost/aba_anilo/satukartu-template/landing-page/admin/index.php/master/armada/ajax_list - USER ID : 591 - USER IP : ::1 - USER ROLE : 46 - BROWSER : Mozilla/5.0 (Windows NT 10.0; Win64; x64; rv:76.0) Gecko/20100101 Firefox/76.0 - USERNAME : admin
SYSTEM LOG -- DATE :2020-05-20 19:59:49 - CLASS : armada - FUNCTION : index - URL : localhost/aba_anilo/satukartu-template/landing-page/admin/index.php/master/armada - USER ID : 591 - USER IP : ::1 - USER ROLE : 46 - BROWSER : Mozilla/5.0 (Windows NT 10.0; Win64; x64; rv:76.0) Gecko/20100101 Firefox/76.0 - USERNAME : admin
SYSTEM LOG -- DATE :2020-05-20 19:59:49 - CLASS : armada - FUNCTION : ajax_list - URL : localhost/aba_anilo/satukartu-template/landing-page/admin/index.php/master/armada/ajax_list - USER ID : 591 - USER IP : ::1 - USER ROLE : 46 - BROWSER : Mozilla/5.0 (Windows NT 10.0; Win64; x64; rv:76.0) Gecko/20100101 Firefox/76.0 - USERNAME : admin
SYSTEM LOG -- DATE :2020-05-20 19:59:53 - CLASS : armada - FUNCTION : index - URL : localhost/aba_anilo/satukartu-template/landing-page/admin/index.php/master/armada - USER ID : 591 - USER IP : ::1 - USER ROLE : 46 - BROWSER : Mozilla/5.0 (Windows NT 10.0; Win64; x64; rv:76.0) Gecko/20100101 Firefox/76.0 - USERNAME : admin
SYSTEM LOG -- DATE :2020-05-20 19:59:54 - CLASS : armada - FUNCTION : ajax_list - URL : localhost/aba_anilo/satukartu-template/landing-page/admin/index.php/master/armada/ajax_list - USER ID : 591 - USER IP : ::1 - USER ROLE : 46 - BROWSER : Mozilla/5.0 (Windows NT 10.0; Win64; x64; rv:76.0) Gecko/20100101 Firefox/76.0 - USERNAME : admin
SYSTEM LOG -- DATE :2020-05-20 20:00:59 - CLASS : armada - FUNCTION : index - URL : localhost/aba_anilo/satukartu-template/landing-page/admin/index.php/master/armada - USER ID : 591 - USER IP : ::1 - USER ROLE : 46 - BROWSER : Mozilla/5.0 (Windows NT 10.0; Win64; x64; rv:76.0) Gecko/20100101 Firefox/76.0 - USERNAME : admin
SYSTEM LOG -- DATE :2020-05-20 20:01:00 - CLASS : armada - FUNCTION : ajax_list - URL : localhost/aba_anilo/satukartu-template/landing-page/admin/index.php/master/armada/ajax_list - USER ID : 591 - USER IP : ::1 - USER ROLE : 46 - BROWSER : Mozilla/5.0 (Windows NT 10.0; Win64; x64; rv:76.0) Gecko/20100101 Firefox/76.0 - USERNAME : admin
SYSTEM LOG -- DATE :2020-05-20 20:01:09 - CLASS : armada - FUNCTION : index - URL : localhost/aba_anilo/satukartu-template/landing-page/admin/index.php/master/armada - USER ID : 591 - USER IP : ::1 - USER ROLE : 46 - BROWSER : Mozilla/5.0 (Windows NT 10.0; Win64; x64; rv:76.0) Gecko/20100101 Firefox/76.0 - USERNAME : admin
SYSTEM LOG -- DATE :2020-05-20 20:01:10 - CLASS : armada - FUNCTION : ajax_list - URL : localhost/aba_anilo/satukartu-template/landing-page/admin/index.php/master/armada/ajax_list - USER ID : 591 - USER IP : ::1 - USER ROLE : 46 - BROWSER : Mozilla/5.0 (Windows NT 10.0; Win64; x64; rv:76.0) Gecko/20100101 Firefox/76.0 - USERNAME : admin
SYSTEM LOG -- DATE :2020-05-20 20:01:14 - CLASS : armada - FUNCTION : index - URL : localhost/aba_anilo/satukartu-template/landing-page/admin/index.php/master/armada - USER ID : 591 - USER IP : ::1 - USER ROLE : 46 - BROWSER : Mozilla/5.0 (Windows NT 10.0; Win64; x64; rv:76.0) Gecko/20100101 Firefox/76.0 - USERNAME : admin
SYSTEM LOG -- DATE :2020-05-20 20:01:14 - CLASS : armada - FUNCTION : ajax_list - URL : localhost/aba_anilo/satukartu-template/landing-page/admin/index.php/master/armada/ajax_list - USER ID : 591 - USER IP : ::1 - USER ROLE : 46 - BROWSER : Mozilla/5.0 (Windows NT 10.0; Win64; x64; rv:76.0) Gecko/20100101 Firefox/76.0 - USERNAME : admin
SYSTEM LOG -- DATE :2020-05-20 20:01:25 - CLASS : armada - FUNCTION : index - URL : localhost/aba_anilo/satukartu-template/landing-page/admin/index.php/master/armada - USER ID : 591 - USER IP : ::1 - USER ROLE : 46 - BROWSER : Mozilla/5.0 (Windows NT 10.0; Win64; x64; rv:76.0) Gecko/20100101 Firefox/76.0 - USERNAME : admin
SYSTEM LOG -- DATE :2020-05-20 20:01:26 - CLASS : armada - FUNCTION : ajax_list - URL : localhost/aba_anilo/satukartu-template/landing-page/admin/index.php/master/armada/ajax_list - USER ID : 591 - USER IP : ::1 - USER ROLE : 46 - BROWSER : Mozilla/5.0 (Windows NT 10.0; Win64; x64; rv:76.0) Gecko/20100101 Firefox/76.0 - USERNAME : admin
SYSTEM LOG -- DATE :2020-05-20 20:01:29 - CLASS : armada - FUNCTION : index - URL : localhost/aba_anilo/satukartu-template/landing-page/admin/index.php/master/armada - USER ID : 591 - USER IP : ::1 - USER ROLE : 46 - BROWSER : Mozilla/5.0 (Windows NT 10.0; Win64; x64; rv:76.0) Gecko/20100101 Firefox/76.0 - USERNAME : admin
SYSTEM LOG -- DATE :2020-05-20 20:01:30 - CLASS : armada - FUNCTION : ajax_list - URL : localhost/aba_anilo/satukartu-template/landing-page/admin/index.php/master/armada/ajax_list - USER ID : 591 - USER IP : ::1 - USER ROLE : 46 - BROWSER : Mozilla/5.0 (Windows NT 10.0; Win64; x64; rv:76.0) Gecko/20100101 Firefox/76.0 - USERNAME : admin
SYSTEM LOG -- DATE :2020-05-20 20:01:37 - CLASS : armada - FUNCTION : index - URL : localhost/aba_anilo/satukartu-template/landing-page/admin/index.php/master/armada - USER ID : 591 - USER IP : ::1 - USER ROLE : 46 - BROWSER : Mozilla/5.0 (Windows NT 10.0; Win64; x64; rv:76.0) Gecko/20100101 Firefox/76.0 - USERNAME : admin
SYSTEM LOG -- DATE :2020-05-20 20:01:37 - CLASS : armada - FUNCTION : ajax_list - URL : localhost/aba_anilo/satukartu-template/landing-page/admin/index.php/master/armada/ajax_list - USER ID : 591 - USER IP : ::1 - USER ROLE : 46 - BROWSER : Mozilla/5.0 (Windows NT 10.0; Win64; x64; rv:76.0) Gecko/20100101 Firefox/76.0 - USERNAME : admin
SYSTEM LOG -- DATE :2020-05-20 20:02:49 - CLASS : armada - FUNCTION : index - URL : localhost/aba_anilo/satukartu-template/landing-page/admin/index.php/master/armada - USER ID : 591 - USER IP : ::1 - USER ROLE : 46 - BROWSER : Mozilla/5.0 (Windows NT 10.0; Win64; x64; rv:76.0) Gecko/20100101 Firefox/76.0 - USERNAME : admin
SYSTEM LOG -- DATE :2020-05-20 20:02:50 - CLASS : armada - FUNCTION : ajax_list - URL : localhost/aba_anilo/satukartu-template/landing-page/admin/index.php/master/armada/ajax_list - USER ID : 591 - USER IP : ::1 - USER ROLE : 46 - BROWSER : Mozilla/5.0 (Windows NT 10.0; Win64; x64; rv:76.0) Gecko/20100101 Firefox/76.0 - USERNAME : admin
SYSTEM LOG -- DATE :2020-05-20 20:05:35 - CLASS : armada - FUNCTION : index - URL : localhost/aba_anilo/satukartu-template/landing-page/admin/index.php/master/armada - USER ID : 591 - USER IP : ::1 - USER ROLE : 46 - BROWSER : Mozilla/5.0 (Windows NT 10.0; Win64; x64; rv:76.0) Gecko/20100101 Firefox/76.0 - USERNAME : admin
SYSTEM LOG -- DATE :2020-05-20 20:05:36 - CLASS : armada - FUNCTION : ajax_list - URL : localhost/aba_anilo/satukartu-template/landing-page/admin/index.php/master/armada/ajax_list - USER ID : 591 - USER IP : ::1 - USER ROLE : 46 - BROWSER : Mozilla/5.0 (Windows NT 10.0; Win64; x64; rv:76.0) Gecko/20100101 Firefox/76.0 - USERNAME : admin
SYSTEM LOG -- DATE :2020-05-20 20:06:16 - CLASS : armada - FUNCTION : index - URL : localhost/aba_anilo/satukartu-template/landing-page/admin/index.php/master/armada - USER ID : 591 - USER IP : ::1 - USER ROLE : 46 - BROWSER : Mozilla/5.0 (Windows NT 10.0; Win64; x64; rv:76.0) Gecko/20100101 Firefox/76.0 - USERNAME : admin
SYSTEM LOG -- DATE :2020-05-20 20:06:17 - CLASS : armada - FUNCTION : ajax_list - URL : localhost/aba_anilo/satukartu-template/landing-page/admin/index.php/master/armada/ajax_list - USER ID : 591 - USER IP : ::1 - USER ROLE : 46 - BROWSER : Mozilla/5.0 (Windows NT 10.0; Win64; x64; rv:76.0) Gecko/20100101 Firefox/76.0 - USERNAME : admin
SYSTEM LOG -- DATE :2020-05-20 20:06:23 - CLASS : armada - FUNCTION : index - URL : localhost/aba_anilo/satukartu-template/landing-page/admin/index.php/master/armada - USER ID : 591 - USER IP : ::1 - USER ROLE : 46 - BROWSER : Mozilla/5.0 (Windows NT 10.0; Win64; x64; rv:76.0) Gecko/20100101 Firefox/76.0 - USERNAME : admin
SYSTEM LOG -- DATE :2020-05-20 20:06:23 - CLASS : armada - FUNCTION : ajax_list - URL : localhost/aba_anilo/satukartu-template/landing-page/admin/index.php/master/armada/ajax_list - USER ID : 591 - USER IP : ::1 - USER ROLE : 46 - BROWSER : Mozilla/5.0 (Windows NT 10.0; Win64; x64; rv:76.0) Gecko/20100101 Firefox/76.0 - USERNAME : admin
SYSTEM LOG -- DATE :2020-05-20 20:06:40 - CLASS : armada - FUNCTION : index - URL : localhost/aba_anilo/satukartu-template/landing-page/admin/index.php/master/armada - USER ID : 591 - USER IP : ::1 - USER ROLE : 46 - BROWSER : Mozilla/5.0 (Windows NT 10.0; Win64; x64; rv:76.0) Gecko/20100101 Firefox/76.0 - USERNAME : admin
SYSTEM LOG -- DATE :2020-05-20 20:06:41 - CLASS : armada - FUNCTION : ajax_list - URL : localhost/aba_anilo/satukartu-template/landing-page/admin/index.php/master/armada/ajax_list - USER ID : 591 - USER IP : ::1 - USER ROLE : 46 - BROWSER : Mozilla/5.0 (Windows NT 10.0; Win64; x64; rv:76.0) Gecko/20100101 Firefox/76.0 - USERNAME : admin
SYSTEM LOG -- DATE :2020-05-20 20:07:12 - CLASS : armada - FUNCTION : index - URL : localhost/aba_anilo/satukartu-template/landing-page/admin/index.php/master/armada - USER ID : 591 - USER IP : ::1 - USER ROLE : 46 - BROWSER : Mozilla/5.0 (Windows NT 10.0; Win64; x64; rv:76.0) Gecko/20100101 Firefox/76.0 - USERNAME : admin
SYSTEM LOG -- DATE :2020-05-20 20:07:13 - CLASS : armada - FUNCTION : ajax_list - URL : localhost/aba_anilo/satukartu-template/landing-page/admin/index.php/master/armada/ajax_list - USER ID : 591 - USER IP : ::1 - USER ROLE : 46 - BROWSER : Mozilla/5.0 (Windows NT 10.0; Win64; x64; rv:76.0) Gecko/20100101 Firefox/76.0 - USERNAME : admin
SYSTEM LOG -- DATE :2020-05-20 20:07:44 - CLASS : armada - FUNCTION : index - URL : localhost/aba_anilo/satukartu-template/landing-page/admin/index.php/master/armada - USER ID : 591 - USER IP : ::1 - USER ROLE : 46 - BROWSER : Mozilla/5.0 (Windows NT 10.0; Win64; x64; rv:76.0) Gecko/20100101 Firefox/76.0 - USERNAME : admin
SYSTEM LOG -- DATE :2020-05-20 20:07:45 - CLASS : armada - FUNCTION : ajax_list - URL : localhost/aba_anilo/satukartu-template/landing-page/admin/index.php/master/armada/ajax_list - USER ID : 591 - USER IP : ::1 - USER ROLE : 46 - BROWSER : Mozilla/5.0 (Windows NT 10.0; Win64; x64; rv:76.0) Gecko/20100101 Firefox/76.0 - USERNAME : admin
SYSTEM LOG -- DATE :2020-05-20 20:08:14 - CLASS : armada - FUNCTION : index - URL : localhost/aba_anilo/satukartu-template/landing-page/admin/index.php/master/armada - USER ID : 591 - USER IP : ::1 - USER ROLE : 46 - BROWSER : Mozilla/5.0 (Windows NT 10.0; Win64; x64; rv:76.0) Gecko/20100101 Firefox/76.0 - USERNAME : admin
SYSTEM LOG -- DATE :2020-05-20 20:08:14 - CLASS : armada - FUNCTION : ajax_list - URL : localhost/aba_anilo/satukartu-template/landing-page/admin/index.php/master/armada/ajax_list - USER ID : 591 - USER IP : ::1 - USER ROLE : 46 - BROWSER : Mozilla/5.0 (Windows NT 10.0; Win64; x64; rv:76.0) Gecko/20100101 Firefox/76.0 - USERNAME : admin
SYSTEM LOG -- DATE :2020-05-20 20:09:59 - CLASS : armada - FUNCTION : index - URL : localhost/aba_anilo/satukartu-template/landing-page/admin/index.php/master/armada - USER ID : 591 - USER IP : ::1 - USER ROLE : 46 - BROWSER : Mozilla/5.0 (Windows NT 10.0; Win64; x64; rv:76.0) Gecko/20100101 Firefox/76.0 - USERNAME : admin
SYSTEM LOG -- DATE :2020-05-20 20:10:00 - CLASS : armada - FUNCTION : ajax_list - URL : localhost/aba_anilo/satukartu-template/landing-page/admin/index.php/master/armada/ajax_list - USER ID : 591 - USER IP : ::1 - USER ROLE : 46 - BROWSER : Mozilla/5.0 (Windows NT 10.0; Win64; x64; rv:76.0) Gecko/20100101 Firefox/76.0 - USERNAME : admin
SYSTEM LOG -- DATE :2020-05-20 20:10:21 - CLASS : armada - FUNCTION : index - URL : localhost/aba_anilo/satukartu-template/landing-page/admin/index.php/master/armada - USER ID : 591 - USER IP : ::1 - USER ROLE : 46 - BROWSER : Mozilla/5.0 (Windows NT 10.0; Win64; x64; rv:76.0) Gecko/20100101 Firefox/76.0 - USERNAME : admin
SYSTEM LOG -- DATE :2020-05-20 20:10:22 - CLASS : armada - FUNCTION : ajax_list - URL : localhost/aba_anilo/satukartu-template/landing-page/admin/index.php/master/armada/ajax_list - USER ID : 591 - USER IP : ::1 - USER ROLE : 46 - BROWSER : Mozilla/5.0 (Windows NT 10.0; Win64; x64; rv:76.0) Gecko/20100101 Firefox/76.0 - USERNAME : admin
SYSTEM LOG -- DATE :2020-05-20 20:11:39 - CLASS : tujuan - FUNCTION : index - URL : localhost/aba_anilo/satukartu-template/landing-page/admin/index.php/master/tujuan - USER ID : 591 - USER IP : ::1 - USER ROLE : 46 - BROWSER : Mozilla/5.0 (Windows NT 10.0; Win64; x64; rv:76.0) Gecko/20100101 Firefox/76.0 - USERNAME : admin
SYSTEM LOG -- DATE :2020-05-20 20:11:40 - CLASS : tujuan - FUNCTION : ajax_list - URL : localhost/aba_anilo/satukartu-template/landing-page/admin/index.php/master/tujuan/ajax_list - USER ID : 591 - USER IP : ::1 - USER ROLE : 46 - BROWSER : Mozilla/5.0 (Windows NT 10.0; Win64; x64; rv:76.0) Gecko/20100101 Firefox/76.0 - USERNAME : admin
SYSTEM LOG -- DATE :2020-05-20 20:11:44 - CLASS : armada - FUNCTION : index - URL : localhost/aba_anilo/satukartu-template/landing-page/admin/index.php/master/armada - USER ID : 591 - USER IP : ::1 - USER ROLE : 46 - BROWSER : Mozilla/5.0 (Windows NT 10.0; Win64; x64; rv:76.0) Gecko/20100101 Firefox/76.0 - USERNAME : admin
SYSTEM LOG -- DATE :2020-05-20 20:11:44 - CLASS : armada - FUNCTION : ajax_list - URL : localhost/aba_anilo/satukartu-template/landing-page/admin/index.php/master/armada/ajax_list - USER ID : 591 - USER IP : ::1 - USER ROLE : 46 - BROWSER : Mozilla/5.0 (Windows NT 10.0; Win64; x64; rv:76.0) Gecko/20100101 Firefox/76.0 - USERNAME : admin
SYSTEM LOG -- DATE :2020-05-20 20:11:53 - CLASS : armada - FUNCTION : index - URL : localhost/aba_anilo/satukartu-template/landing-page/admin/index.php/master/armada - USER ID : 591 - USER IP : ::1 - USER ROLE : 46 - BROWSER : Mozilla/5.0 (Windows NT 10.0; Win64; x64; rv:76.0) Gecko/20100101 Firefox/76.0 - USERNAME : admin
SYSTEM LOG -- DATE :2020-05-20 20:11:53 - CLASS : armada - FUNCTION : ajax_list - URL : localhost/aba_anilo/satukartu-template/landing-page/admin/index.php/master/armada/ajax_list - USER ID : 591 - USER IP : ::1 - USER ROLE : 46 - BROWSER : Mozilla/5.0 (Windows NT 10.0; Win64; x64; rv:76.0) Gecko/20100101 Firefox/76.0 - USERNAME : admin
SYSTEM LOG -- DATE :2020-05-20 20:11:55 - CLASS : tujuan - FUNCTION : index - URL : localhost/aba_anilo/satukartu-template/landing-page/admin/index.php/master/tujuan - USER ID : 591 - USER IP : ::1 - USER ROLE : 46 - BROWSER : Mozilla/5.0 (Windows NT 10.0; Win64; x64; rv:76.0) Gecko/20100101 Firefox/76.0 - USERNAME : admin
SYSTEM LOG -- DATE :2020-05-20 20:11:55 - CLASS : tujuan - FUNCTION : ajax_list - URL : localhost/aba_anilo/satukartu-template/landing-page/admin/index.php/master/tujuan/ajax_list - USER ID : 591 - USER IP : ::1 - USER ROLE : 46 - BROWSER : Mozilla/5.0 (Windows NT 10.0; Win64; x64; rv:76.0) Gecko/20100101 Firefox/76.0 - USERNAME : admin
SYSTEM LOG -- DATE :2020-05-20 20:11:59 - CLASS : armada - FUNCTION : index - URL : localhost/aba_anilo/satukartu-template/landing-page/admin/index.php/master/armada - USER ID : 591 - USER IP : ::1 - USER ROLE : 46 - BROWSER : Mozilla/5.0 (Windows NT 10.0; Win64; x64; rv:76.0) Gecko/20100101 Firefox/76.0 - USERNAME : admin
SYSTEM LOG -- DATE :2020-05-20 20:12:00 - CLASS : armada - FUNCTION : ajax_list - URL : localhost/aba_anilo/satukartu-template/landing-page/admin/index.php/master/armada/ajax_list - USER ID : 591 - USER IP : ::1 - USER ROLE : 46 - BROWSER : Mozilla/5.0 (Windows NT 10.0; Win64; x64; rv:76.0) Gecko/20100101 Firefox/76.0 - USERNAME : admin
SYSTEM LOG -- DATE :2020-05-20 20:12:01 - CLASS : tujuan - FUNCTION : index - URL : localhost/aba_anilo/satukartu-template/landing-page/admin/index.php/master/tujuan - USER ID : 591 - USER IP : ::1 - USER ROLE : 46 - BROWSER : Mozilla/5.0 (Windows NT 10.0; Win64; x64; rv:76.0) Gecko/20100101 Firefox/76.0 - USERNAME : admin
SYSTEM LOG -- DATE :2020-05-20 20:12:02 - CLASS : tujuan - FUNCTION : ajax_list - URL : localhost/aba_anilo/satukartu-template/landing-page/admin/index.php/master/tujuan/ajax_list - USER ID : 591 - USER IP : ::1 - USER ROLE : 46 - BROWSER : Mozilla/5.0 (Windows NT 10.0; Win64; x64; rv:76.0) Gecko/20100101 Firefox/76.0 - USERNAME : admin
SYSTEM LOG -- DATE :2020-05-20 20:12:37 - CLASS : tujuan - FUNCTION : index - URL : localhost/aba_anilo/satukartu-template/landing-page/admin/index.php/master/tujuan - USER ID : 591 - USER IP : ::1 - USER ROLE : 46 - BROWSER : Mozilla/5.0 (Windows NT 10.0; Win64; x64; rv:76.0) Gecko/20100101 Firefox/76.0 - USERNAME : admin
SYSTEM LOG -- DATE :2020-05-20 20:12:37 - CLASS : tujuan - FUNCTION : ajax_list - URL : localhost/aba_anilo/satukartu-template/landing-page/admin/index.php/master/tujuan/ajax_list - USER ID : 591 - USER IP : ::1 - USER ROLE : 46 - BROWSER : Mozilla/5.0 (Windows NT 10.0; Win64; x64; rv:76.0) Gecko/20100101 Firefox/76.0 - USERNAME : admin
SYSTEM LOG -- DATE :2020-05-20 20:13:21 - CLASS : tujuan - FUNCTION : index - URL : localhost/aba_anilo/satukartu-template/landing-page/admin/index.php/master/tujuan - USER ID : 591 - USER IP : ::1 - USER ROLE : 46 - BROWSER : Mozilla/5.0 (Windows NT 10.0; Win64; x64; rv:76.0) Gecko/20100101 Firefox/76.0 - USERNAME : admin
SYSTEM LOG -- DATE :2020-05-20 20:13:22 - CLASS : tujuan - FUNCTION : ajax_list - URL : localhost/aba_anilo/satukartu-template/landing-page/admin/index.php/master/tujuan/ajax_list - USER ID : 591 - USER IP : ::1 - USER ROLE : 46 - BROWSER : Mozilla/5.0 (Windows NT 10.0; Win64; x64; rv:76.0) Gecko/20100101 Firefox/76.0 - USERNAME : admin
SYSTEM LOG -- DATE :2020-05-20 20:13:50 - CLASS : tujuan - FUNCTION : index - URL : localhost/aba_anilo/satukartu-template/landing-page/admin/index.php/master/tujuan - USER ID : 591 - USER IP : ::1 - USER ROLE : 46 - BROWSER : Mozilla/5.0 (Windows NT 10.0; Win64; x64; rv:76.0) Gecko/20100101 Firefox/76.0 - USERNAME : admin
SYSTEM LOG -- DATE :2020-05-20 20:13:50 - CLASS : tujuan - FUNCTION : ajax_list - URL : localhost/aba_anilo/satukartu-template/landing-page/admin/index.php/master/tujuan/ajax_list - USER ID : 591 - USER IP : ::1 - USER ROLE : 46 - BROWSER : Mozilla/5.0 (Windows NT 10.0; Win64; x64; rv:76.0) Gecko/20100101 Firefox/76.0 - USERNAME : admin
SYSTEM LOG -- DATE :2020-05-20 20:14:20 - CLASS : tujuan - FUNCTION : index - URL : localhost/aba_anilo/satukartu-template/landing-page/admin/index.php/master/tujuan - USER ID : 591 - USER IP : ::1 - USER ROLE : 46 - BROWSER : Mozilla/5.0 (Windows NT 10.0; Win64; x64; rv:76.0) Gecko/20100101 Firefox/76.0 - USERNAME : admin
SYSTEM LOG -- DATE :2020-05-20 20:14:21 - CLASS : tujuan - FUNCTION : ajax_list - URL : localhost/aba_anilo/satukartu-template/landing-page/admin/index.php/master/tujuan/ajax_list - USER ID : 591 - USER IP : ::1 - USER ROLE : 46 - BROWSER : Mozilla/5.0 (Windows NT 10.0; Win64; x64; rv:76.0) Gecko/20100101 Firefox/76.0 - USERNAME : admin
SYSTEM LOG -- DATE :2020-05-20 20:15:02 - CLASS : tujuan - FUNCTION : index - URL : localhost/aba_anilo/satukartu-template/landing-page/admin/index.php/master/tujuan - USER ID : 591 - USER IP : ::1 - USER ROLE : 46 - BROWSER : Mozilla/5.0 (Windows NT 10.0; Win64; x64; rv:76.0) Gecko/20100101 Firefox/76.0 - USERNAME : admin
SYSTEM LOG -- DATE :2020-05-20 20:15:03 - CLASS : tujuan - FUNCTION : ajax_list - URL : localhost/aba_anilo/satukartu-template/landing-page/admin/index.php/master/tujuan/ajax_list - USER ID : 591 - USER IP : ::1 - USER ROLE : 46 - BROWSER : Mozilla/5.0 (Windows NT 10.0; Win64; x64; rv:76.0) Gecko/20100101 Firefox/76.0 - USERNAME : admin
SYSTEM LOG -- DATE :2020-05-20 20:15:56 - CLASS : tujuan - FUNCTION : index - URL : localhost/aba_anilo/satukartu-template/landing-page/admin/index.php/master/tujuan - USER ID : 591 - USER IP : ::1 - USER ROLE : 46 - BROWSER : Mozilla/5.0 (Windows NT 10.0; Win64; x64; rv:76.0) Gecko/20100101 Firefox/76.0 - USERNAME : admin
SYSTEM LOG -- DATE :2020-05-20 20:15:57 - CLASS : tujuan - FUNCTION : ajax_list - URL : localhost/aba_anilo/satukartu-template/landing-page/admin/index.php/master/tujuan/ajax_list - USER ID : 591 - USER IP : ::1 - USER ROLE : 46 - BROWSER : Mozilla/5.0 (Windows NT 10.0; Win64; x64; rv:76.0) Gecko/20100101 Firefox/76.0 - USERNAME : admin
SYSTEM LOG -- DATE :2020-05-20 20:16:02 - CLASS : tujuan - FUNCTION : index - URL : localhost/aba_anilo/satukartu-template/landing-page/admin/index.php/master/tujuan - USER ID : 591 - USER IP : ::1 - USER ROLE : 46 - BROWSER : Mozilla/5.0 (Windows NT 10.0; Win64; x64; rv:76.0) Gecko/20100101 Firefox/76.0 - USERNAME : admin
SYSTEM LOG -- DATE :2020-05-20 20:16:03 - CLASS : tujuan - FUNCTION : ajax_list - URL : localhost/aba_anilo/satukartu-template/landing-page/admin/index.php/master/tujuan/ajax_list - USER ID : 591 - USER IP : ::1 - USER ROLE : 46 - BROWSER : Mozilla/5.0 (Windows NT 10.0; Win64; x64; rv:76.0) Gecko/20100101 Firefox/76.0 - USERNAME : admin
SYSTEM LOG -- DATE :2020-05-20 20:18:20 - CLASS : tujuan - FUNCTION : index - URL : localhost/aba_anilo/satukartu-template/landing-page/admin/index.php/master/tujuan - USER ID : 591 - USER IP : ::1 - USER ROLE : 46 - BROWSER : Mozilla/5.0 (Windows NT 10.0; Win64; x64; rv:76.0) Gecko/20100101 Firefox/76.0 - USERNAME : admin
SYSTEM LOG -- DATE :2020-05-20 20:18:21 - CLASS : tujuan - FUNCTION : ajax_list - URL : localhost/aba_anilo/satukartu-template/landing-page/admin/index.php/master/tujuan/ajax_list - USER ID : 591 - USER IP : ::1 - USER ROLE : 46 - BROWSER : Mozilla/5.0 (Windows NT 10.0; Win64; x64; rv:76.0) Gecko/20100101 Firefox/76.0 - USERNAME : admin
SYSTEM LOG -- DATE :2020-05-20 20:18:41 - CLASS : tujuan - FUNCTION : index - URL : localhost/aba_anilo/satukartu-template/landing-page/admin/index.php/master/tujuan - USER ID : 591 - USER IP : ::1 - USER ROLE : 46 - BROWSER : Mozilla/5.0 (Windows NT 10.0; Win64; x64; rv:76.0) Gecko/20100101 Firefox/76.0 - USERNAME : admin
SYSTEM LOG -- DATE :2020-05-20 20:18:41 - CLASS : tujuan - FUNCTION : ajax_list - URL : localhost/aba_anilo/satukartu-template/landing-page/admin/index.php/master/tujuan/ajax_list - USER ID : 591 - USER IP : ::1 - USER ROLE : 46 - BROWSER : Mozilla/5.0 (Windows NT 10.0; Win64; x64; rv:76.0) Gecko/20100101 Firefox/76.0 - USERNAME : admin
SYSTEM LOG -- DATE :2020-05-20 20:19:25 - CLASS : tujuan - FUNCTION : index - URL : localhost/aba_anilo/satukartu-template/landing-page/admin/index.php/master/tujuan - USER ID : 591 - USER IP : ::1 - USER ROLE : 46 - BROWSER : Mozilla/5.0 (Windows NT 10.0; Win64; x64; rv:76.0) Gecko/20100101 Firefox/76.0 - USERNAME : admin
SYSTEM LOG -- DATE :2020-05-20 20:19:26 - CLASS : tujuan - FUNCTION : ajax_list - URL : localhost/aba_anilo/satukartu-template/landing-page/admin/index.php/master/tujuan/ajax_list - USER ID : 591 - USER IP : ::1 - USER ROLE : 46 - BROWSER : Mozilla/5.0 (Windows NT 10.0; Win64; x64; rv:76.0) Gecko/20100101 Firefox/76.0 - USERNAME : admin
SYSTEM LOG -- DATE :2020-05-20 20:19:50 - CLASS : tujuan - FUNCTION : index - URL : localhost/aba_anilo/satukartu-template/landing-page/admin/index.php/master/tujuan - USER ID : 591 - USER IP : ::1 - USER ROLE : 46 - BROWSER : Mozilla/5.0 (Windows NT 10.0; Win64; x64; rv:76.0) Gecko/20100101 Firefox/76.0 - USERNAME : admin
SYSTEM LOG -- DATE :2020-05-20 20:19:51 - CLASS : tujuan - FUNCTION : ajax_list - URL : localhost/aba_anilo/satukartu-template/landing-page/admin/index.php/master/tujuan/ajax_list - USER ID : 591 - USER IP : ::1 - USER ROLE : 46 - BROWSER : Mozilla/5.0 (Windows NT 10.0; Win64; x64; rv:76.0) Gecko/20100101 Firefox/76.0 - USERNAME : admin
SYSTEM LOG -- DATE :2020-05-20 20:19:57 - CLASS : tujuan - FUNCTION : index - URL : localhost/aba_anilo/satukartu-template/landing-page/admin/index.php/master/tujuan - USER ID : 591 - USER IP : ::1 - USER ROLE : 46 - BROWSER : Mozilla/5.0 (Windows NT 10.0; Win64; x64; rv:76.0) Gecko/20100101 Firefox/76.0 - USERNAME : admin
SYSTEM LOG -- DATE :2020-05-20 20:19:57 - CLASS : tujuan - FUNCTION : ajax_list - URL : localhost/aba_anilo/satukartu-template/landing-page/admin/index.php/master/tujuan/ajax_list - USER ID : 591 - USER IP : ::1 - USER ROLE : 46 - BROWSER : Mozilla/5.0 (Windows NT 10.0; Win64; x64; rv:76.0) Gecko/20100101 Firefox/76.0 - USERNAME : admin
SYSTEM LOG -- DATE :2020-05-20 20:24:43 - CLASS : tujuan - FUNCTION : index - URL : localhost/aba_anilo/satukartu-template/landing-page/admin/index.php/master/tujuan - USER ID : 591 - USER IP : ::1 - USER ROLE : 46 - BROWSER : Mozilla/5.0 (Windows NT 10.0; Win64; x64; rv:76.0) Gecko/20100101 Firefox/76.0 - USERNAME : admin
SYSTEM LOG -- DATE :2020-05-20 20:24:43 - CLASS : tujuan - FUNCTION : ajax_list - URL : localhost/aba_anilo/satukartu-template/landing-page/admin/index.php/master/tujuan/ajax_list - USER ID : 591 - USER IP : ::1 - USER ROLE : 46 - BROWSER : Mozilla/5.0 (Windows NT 10.0; Win64; x64; rv:76.0) Gecko/20100101 Firefox/76.0 - USERNAME : admin
