SYSTEM LOG -- DATE :2018-03-15 19:31:33 - CLASS : me - FUNCTION : index - URL : localhost:8080/kaderisasi/index.php/meme/me - USER ID : 340 - USER IP : ::1 - USER ROLE : 1 - BROWSER : Mozilla/5.0 (Windows NT 10.0; Win64; x64; rv:59.0) Gecko/20100101 Firefox/59.0 - USERNAME : safari
SYSTEM LOG -- DATE :2018-03-15 19:31:34 - CLASS : data - FUNCTION : check_login - URL : localhost:8080/kaderisasi/index.php/ajax/data/check_login - USER ID : 340 - USER IP : ::1 - USER ROLE : 1 - BROWSER : Mozilla/5.0 (Windows NT 10.0; Win64; x64; rv:59.0) Gecko/20100101 Firefox/59.0 - USERNAME : safari
SYSTEM LOG -- DATE :2018-03-15 19:31:38 - CLASS : master_anggota - FUNCTION : index - URL : localhost:8080/kaderisasi/index.php/master/master_anggota - USER ID : 340 - USER IP : ::1 - USER ROLE : 1 - BROWSER : Mozilla/5.0 (Windows NT 10.0; Win64; x64; rv:59.0) Gecko/20100101 Firefox/59.0 - USERNAME : safari
SYSTEM LOG -- DATE :2018-03-15 19:31:39 - CLASS : data - FUNCTION : check_login - URL : localhost:8080/kaderisasi/index.php/ajax/data/check_login - USER ID : 340 - USER IP : ::1 - USER ROLE : 1 - BROWSER : Mozilla/5.0 (Windows NT 10.0; Win64; x64; rv:59.0) Gecko/20100101 Firefox/59.0 - USERNAME : safari
SYSTEM LOG -- DATE :2018-03-15 19:31:44 - CLASS : master_anggota - FUNCTION : add - URL : localhost:8080/kaderisasi/index.php/master/master_anggota/add - USER ID : 340 - USER IP : ::1 - USER ROLE : 1 - BROWSER : Mozilla/5.0 (Windows NT 10.0; Win64; x64; rv:59.0) Gecko/20100101 Firefox/59.0 - USERNAME : safari
SYSTEM LOG -- DATE :2018-03-15 19:31:45 - CLASS : data - FUNCTION : check_login - URL : localhost:8080/kaderisasi/index.php/ajax/data/check_login - USER ID : 340 - USER IP : ::1 - USER ROLE : 1 - BROWSER : Mozilla/5.0 (Windows NT 10.0; Win64; x64; rv:59.0) Gecko/20100101 Firefox/59.0 - USERNAME : safari
SYSTEM LOG -- DATE :2018-03-15 19:31:48 - CLASS : data - FUNCTION : ktp - URL : localhost:8080/kaderisasi/index.php/ajax/data/ktp - USER ID : 340 - USER IP : ::1 - USER ROLE : 1 - BROWSER : Mozilla/5.0 (Windows NT 10.0; Win64; x64; rv:59.0) Gecko/20100101 Firefox/59.0 - USERNAME : safari
SYSTEM LOG -- DATE :2018-03-15 19:31:50 - CLASS : data - FUNCTION : check_login - URL : localhost:8080/kaderisasi/index.php/ajax/data/check_login - USER ID : 340 - USER IP : ::1 - USER ROLE : 1 - BROWSER : Mozilla/5.0 (Windows NT 10.0; Win64; x64; rv:59.0) Gecko/20100101 Firefox/59.0 - USERNAME : safari
SYSTEM LOG -- DATE :2018-03-15 19:32:17 - CLASS : master_anggota - FUNCTION : save_upload - URL : localhost:8080/kaderisasi/index.php/master/master_anggota/save_upload - USER ID : 340 - USER IP : ::1 - USER ROLE : 1 - BROWSER : Mozilla/5.0 (Windows NT 10.0; Win64; x64; rv:59.0) Gecko/20100101 Firefox/59.0 - USERNAME : safari
SYSTEM LOG -- DATE :2018-03-15 19:32:17 - CLASS : master_anggota - FUNCTION : crop - URL : localhost:8080/kaderisasi/index.php/master/master_anggota/crop/?_id=%2BakDb8HVWGfYrCWpKZ36Sh0vTkv12kq4l7aNb5mSTQB%2FJNTreYESJL%2B7t2ogL8rC%2FjZNDypzufNEv9WmNYbwWQ%3D%3D - USER ID : 340 - USER IP : ::1 - USER ROLE : 1 - BROWSER : Mozilla/5.0 (Windows NT 10.0; Win64; x64; rv:59.0) Gecko/20100101 Firefox/59.0 - USERNAME : safari
SYSTEM LOG -- DATE :2018-03-15 19:32:18 - CLASS : data - FUNCTION : kabupaten - URL : localhost:8080/kaderisasi/index.php/ajax/data/kabupaten - USER ID : 340 - USER IP : ::1 - USER ROLE : 1 - BROWSER : Mozilla/5.0 (Windows NT 10.0; Win64; x64; rv:59.0) Gecko/20100101 Firefox/59.0 - USERNAME : safari
SYSTEM LOG -- DATE :2018-03-15 19:32:18 - CLASS : data - FUNCTION : kecamatan - URL : localhost:8080/kaderisasi/index.php/ajax/data/kecamatan - USER ID : 340 - USER IP : ::1 - USER ROLE : 1 - BROWSER : Mozilla/5.0 (Windows NT 10.0; Win64; x64; rv:59.0) Gecko/20100101 Firefox/59.0 - USERNAME : safari
SYSTEM LOG -- DATE :2018-03-15 19:32:18 - CLASS : data - FUNCTION : kelurahan - URL : localhost:8080/kaderisasi/index.php/ajax/data/kelurahan - USER ID : 340 - USER IP : ::1 - USER ROLE : 1 - BROWSER : Mozilla/5.0 (Windows NT 10.0; Win64; x64; rv:59.0) Gecko/20100101 Firefox/59.0 - USERNAME : safari
SYSTEM LOG -- DATE :2018-03-15 19:32:18 - CLASS : data - FUNCTION : check_login - URL : localhost:8080/kaderisasi/index.php/ajax/data/check_login - USER ID : 340 - USER IP : ::1 - USER ROLE : 1 - BROWSER : Mozilla/5.0 (Windows NT 10.0; Win64; x64; rv:59.0) Gecko/20100101 Firefox/59.0 - USERNAME : safari
SYSTEM LOG -- DATE :2018-03-15 19:32:38 - CLASS : master_anggota - FUNCTION : save_crop - URL : localhost:8080/kaderisasi/index.php/master/master_anggota/save_crop - USER ID : 340 - USER IP : ::1 - USER ROLE : 1 - BROWSER : Mozilla/5.0 (Windows NT 10.0; Win64; x64; rv:59.0) Gecko/20100101 Firefox/59.0 - USERNAME : safari
SYSTEM LOG -- DATE :2018-03-15 19:32:38 - CLASS : master_anggota - FUNCTION : Lampiran%20Surat%20Keterangan - URL : localhost:8080/kaderisasi/index.php/master/master_anggota/Lampiran%20Surat%20Keterangan - USER ID : 340 - USER IP : ::1 - USER ROLE : 1 - BROWSER : Mozilla/5.0 (Windows NT 10.0; Win64; x64; rv:59.0) Gecko/20100101 Firefox/59.0 - USERNAME : safari
SYSTEM LOG -- DATE :2018-03-15 19:32:39 - CLASS : data - FUNCTION : check_login - URL : localhost:8080/kaderisasi/index.php/ajax/data/check_login - USER ID : 340 - USER IP : ::1 - USER ROLE : 1 - BROWSER : Mozilla/5.0 (Windows NT 10.0; Win64; x64; rv:59.0) Gecko/20100101 Firefox/59.0 - USERNAME : safari
SYSTEM LOG -- DATE :2018-03-15 19:43:35 - CLASS : master_anggota - FUNCTION : save_crop - URL : localhost:8080/kaderisasi/index.php/master/master_anggota/save_crop - USER ID : 340 - USER IP : ::1 - USER ROLE : 1 - BROWSER : Mozilla/5.0 (Windows NT 10.0; Win64; x64; rv:59.0) Gecko/20100101 Firefox/59.0 - USERNAME : safari
SYSTEM LOG -- DATE :2018-03-15 19:43:35 - CLASS : data - FUNCTION : check_login - URL : localhost:8080/kaderisasi/index.php/ajax/data/check_login - USER ID : 340 - USER IP : ::1 - USER ROLE : 1 - BROWSER : Mozilla/5.0 (Windows NT 10.0; Win64; x64; rv:59.0) Gecko/20100101 Firefox/59.0 - USERNAME : safari
SYSTEM LOG -- DATE :2018-03-15 19:43:35 - CLASS : master_anggota - FUNCTION : Lampiran%20Surat%20Keterangan - URL : localhost:8080/kaderisasi/index.php/master/master_anggota/Lampiran%20Surat%20Keterangan - USER ID : 340 - USER IP : ::1 - USER ROLE : 1 - BROWSER : Mozilla/5.0 (Windows NT 10.0; Win64; x64; rv:59.0) Gecko/20100101 Firefox/59.0 - USERNAME : safari
SYSTEM LOG -- DATE :2018-03-15 19:43:36 - CLASS : data - FUNCTION : check_login - URL : localhost:8080/kaderisasi/index.php/ajax/data/check_login - USER ID : 340 - USER IP : ::1 - USER ROLE : 1 - BROWSER : Mozilla/5.0 (Windows NT 10.0; Win64; x64; rv:59.0) Gecko/20100101 Firefox/59.0 - USERNAME : safari
SYSTEM LOG -- DATE :2018-03-15 19:43:50 - CLASS : master_anggota - FUNCTION : save_crop - URL : localhost:8080/kaderisasi/index.php/master/master_anggota/save_crop - USER ID : 340 - USER IP : ::1 - USER ROLE : 1 - BROWSER : Mozilla/5.0 (Windows NT 10.0; Win64; x64; rv:59.0) Gecko/20100101 Firefox/59.0 - USERNAME : safari
SYSTEM LOG -- DATE :2018-03-15 19:43:50 - CLASS : master_anggota - FUNCTION : Lampiran%20Surat%20Keterangan - URL : localhost:8080/kaderisasi/index.php/master/master_anggota/Lampiran%20Surat%20Keterangan - USER ID : 340 - USER IP : ::1 - USER ROLE : 1 - BROWSER : Mozilla/5.0 (Windows NT 10.0; Win64; x64; rv:59.0) Gecko/20100101 Firefox/59.0 - USERNAME : safari
SYSTEM LOG -- DATE :2018-03-15 19:43:51 - CLASS : data - FUNCTION : check_login - URL : localhost:8080/kaderisasi/index.php/ajax/data/check_login - USER ID : 340 - USER IP : ::1 - USER ROLE : 1 - BROWSER : Mozilla/5.0 (Windows NT 10.0; Win64; x64; rv:59.0) Gecko/20100101 Firefox/59.0 - USERNAME : safari
SYSTEM LOG -- DATE :2018-03-15 19:44:26 - CLASS : master_anggota - FUNCTION : save_crop - URL : localhost:8080/kaderisasi/index.php/master/master_anggota/save_crop - USER ID : 340 - USER IP : ::1 - USER ROLE : 1 - BROWSER : Mozilla/5.0 (Windows NT 10.0; Win64; x64; rv:59.0) Gecko/20100101 Firefox/59.0 - USERNAME : safari
SYSTEM LOG -- DATE :2018-03-15 19:44:26 - CLASS : master_anggota - FUNCTION : Lampiran%20Surat%20Keterangan - URL : localhost:8080/kaderisasi/index.php/master/master_anggota/Lampiran%20Surat%20Keterangan - USER ID : 340 - USER IP : ::1 - USER ROLE : 1 - BROWSER : Mozilla/5.0 (Windows NT 10.0; Win64; x64; rv:59.0) Gecko/20100101 Firefox/59.0 - USERNAME : safari
SYSTEM LOG -- DATE :2018-03-15 19:44:27 - CLASS : data - FUNCTION : check_login - URL : localhost:8080/kaderisasi/index.php/ajax/data/check_login - USER ID : 340 - USER IP : ::1 - USER ROLE : 1 - BROWSER : Mozilla/5.0 (Windows NT 10.0; Win64; x64; rv:59.0) Gecko/20100101 Firefox/59.0 - USERNAME : safari
SYSTEM LOG -- DATE :2018-03-15 19:46:20 - CLASS : master_anggota - FUNCTION : save_crop - URL : localhost:8080/kaderisasi/index.php/master/master_anggota/save_crop - USER ID : 340 - USER IP : ::1 - USER ROLE : 1 - BROWSER : Mozilla/5.0 (Windows NT 10.0; Win64; x64; rv:59.0) Gecko/20100101 Firefox/59.0 - USERNAME : safari
SYSTEM LOG -- DATE :2018-03-15 19:46:21 - CLASS : master_anggota - FUNCTION : Lampiran%20Surat%20Keterangan - URL : localhost:8080/kaderisasi/index.php/master/master_anggota/Lampiran%20Surat%20Keterangan - USER ID : 340 - USER IP : ::1 - USER ROLE : 1 - BROWSER : Mozilla/5.0 (Windows NT 10.0; Win64; x64; rv:59.0) Gecko/20100101 Firefox/59.0 - USERNAME : safari
SYSTEM LOG -- DATE :2018-03-15 19:46:22 - CLASS : data - FUNCTION : kecamatan - URL : localhost:8080/kaderisasi/index.php/ajax/data/kecamatan - USER ID : 340 - USER IP : ::1 - USER ROLE : 1 - BROWSER : Mozilla/5.0 (Windows NT 10.0; Win64; x64; rv:59.0) Gecko/20100101 Firefox/59.0 - USERNAME : safari
SYSTEM LOG -- DATE :2018-03-15 19:46:22 - CLASS : data - FUNCTION : kabupaten - URL : localhost:8080/kaderisasi/index.php/ajax/data/kabupaten - USER ID : 340 - USER IP : ::1 - USER ROLE : 1 - BROWSER : Mozilla/5.0 (Windows NT 10.0; Win64; x64; rv:59.0) Gecko/20100101 Firefox/59.0 - USERNAME : safari
SYSTEM LOG -- DATE :2018-03-15 19:46:22 - CLASS : data - FUNCTION : kelurahan - URL : localhost:8080/kaderisasi/index.php/ajax/data/kelurahan - USER ID : 340 - USER IP : ::1 - USER ROLE : 1 - BROWSER : Mozilla/5.0 (Windows NT 10.0; Win64; x64; rv:59.0) Gecko/20100101 Firefox/59.0 - USERNAME : safari
SYSTEM LOG -- DATE :2018-03-15 19:46:22 - CLASS : data - FUNCTION : check_login - URL : localhost:8080/kaderisasi/index.php/ajax/data/check_login - USER ID : 340 - USER IP : ::1 - USER ROLE : 1 - BROWSER : Mozilla/5.0 (Windows NT 10.0; Win64; x64; rv:59.0) Gecko/20100101 Firefox/59.0 - USERNAME : safari
SYSTEM LOG -- DATE :2018-03-15 19:46:24 - CLASS : data - FUNCTION : kabupaten - URL : localhost:8080/kaderisasi/index.php/ajax/data/kabupaten - USER ID : 340 - USER IP : ::1 - USER ROLE : 1 - BROWSER : Mozilla/5.0 (Windows NT 10.0; Win64; x64; rv:59.0) Gecko/20100101 Firefox/59.0 - USERNAME : safari
SYSTEM LOG -- DATE :2018-03-15 19:46:26 - CLASS : data - FUNCTION : kecamatan - URL : localhost:8080/kaderisasi/index.php/ajax/data/kecamatan - USER ID : 340 - USER IP : ::1 - USER ROLE : 1 - BROWSER : Mozilla/5.0 (Windows NT 10.0; Win64; x64; rv:59.0) Gecko/20100101 Firefox/59.0 - USERNAME : safari
SYSTEM LOG -- DATE :2018-03-15 19:46:27 - CLASS : data - FUNCTION : check_login - URL : localhost:8080/kaderisasi/index.php/ajax/data/check_login - USER ID : 340 - USER IP : ::1 - USER ROLE : 1 - BROWSER : Mozilla/5.0 (Windows NT 10.0; Win64; x64; rv:59.0) Gecko/20100101 Firefox/59.0 - USERNAME : safari
SYSTEM LOG -- DATE :2018-03-15 19:46:28 - CLASS : data - FUNCTION : kelurahan - URL : localhost:8080/kaderisasi/index.php/ajax/data/kelurahan - USER ID : 340 - USER IP : ::1 - USER ROLE : 1 - BROWSER : Mozilla/5.0 (Windows NT 10.0; Win64; x64; rv:59.0) Gecko/20100101 Firefox/59.0 - USERNAME : safari
SYSTEM LOG -- DATE :2018-03-15 19:46:30 - CLASS : data - FUNCTION : kabupaten - URL : localhost:8080/kaderisasi/index.php/ajax/data/kabupaten - USER ID : 340 - USER IP : ::1 - USER ROLE : 1 - BROWSER : Mozilla/5.0 (Windows NT 10.0; Win64; x64; rv:59.0) Gecko/20100101 Firefox/59.0 - USERNAME : safari
SYSTEM LOG -- DATE :2018-03-15 19:46:31 - CLASS : data - FUNCTION : kecamatan - URL : localhost:8080/kaderisasi/index.php/ajax/data/kecamatan - USER ID : 340 - USER IP : ::1 - USER ROLE : 1 - BROWSER : Mozilla/5.0 (Windows NT 10.0; Win64; x64; rv:59.0) Gecko/20100101 Firefox/59.0 - USERNAME : safari
SYSTEM LOG -- DATE :2018-03-15 19:46:32 - CLASS : data - FUNCTION : check_login - URL : localhost:8080/kaderisasi/index.php/ajax/data/check_login - USER ID : 340 - USER IP : ::1 - USER ROLE : 1 - BROWSER : Mozilla/5.0 (Windows NT 10.0; Win64; x64; rv:59.0) Gecko/20100101 Firefox/59.0 - USERNAME : safari
SYSTEM LOG -- DATE :2018-03-15 19:46:32 - CLASS : data - FUNCTION : kelurahan - URL : localhost:8080/kaderisasi/index.php/ajax/data/kelurahan - USER ID : 340 - USER IP : ::1 - USER ROLE : 1 - BROWSER : Mozilla/5.0 (Windows NT 10.0; Win64; x64; rv:59.0) Gecko/20100101 Firefox/59.0 - USERNAME : safari
SYSTEM LOG -- DATE :2018-03-15 19:46:37 - CLASS : data - FUNCTION : check_login - URL : localhost:8080/kaderisasi/index.php/ajax/data/check_login - USER ID : 340 - USER IP : ::1 - USER ROLE : 1 - BROWSER : Mozilla/5.0 (Windows NT 10.0; Win64; x64; rv:59.0) Gecko/20100101 Firefox/59.0 - USERNAME : safari
SYSTEM LOG -- DATE :2018-03-15 20:24:35 - CLASS : master_anggota - FUNCTION : save_crop - URL : localhost:8080/kaderisasi/index.php/master/master_anggota/save_crop - USER ID : 340 - USER IP : ::1 - USER ROLE : 1 - BROWSER : Mozilla/5.0 (Windows NT 10.0; Win64; x64; rv:59.0) Gecko/20100101 Firefox/59.0 - USERNAME : safari
SYSTEM LOG -- DATE :2018-03-15 20:24:35 - CLASS : master_anggota - FUNCTION : Lampiran%20Surat%20Keterangan - URL : localhost:8080/kaderisasi/index.php/master/master_anggota/Lampiran%20Surat%20Keterangan - USER ID : 340 - USER IP : ::1 - USER ROLE : 1 - BROWSER : Mozilla/5.0 (Windows NT 10.0; Win64; x64; rv:59.0) Gecko/20100101 Firefox/59.0 - USERNAME : safari
SYSTEM LOG -- DATE :2018-03-15 20:24:35 - CLASS : data - FUNCTION : kabupaten - URL : localhost:8080/kaderisasi/index.php/ajax/data/kabupaten - USER ID : 340 - USER IP : ::1 - USER ROLE : 1 - BROWSER : Mozilla/5.0 (Windows NT 10.0; Win64; x64; rv:59.0) Gecko/20100101 Firefox/59.0 - USERNAME : safari
SYSTEM LOG -- DATE :2018-03-15 20:24:35 - CLASS : data - FUNCTION : kecamatan - URL : localhost:8080/kaderisasi/index.php/ajax/data/kecamatan - USER ID : 340 - USER IP : ::1 - USER ROLE : 1 - BROWSER : Mozilla/5.0 (Windows NT 10.0; Win64; x64; rv:59.0) Gecko/20100101 Firefox/59.0 - USERNAME : safari
SYSTEM LOG -- DATE :2018-03-15 20:24:36 - CLASS : data - FUNCTION : kelurahan - URL : localhost:8080/kaderisasi/index.php/ajax/data/kelurahan - USER ID : 340 - USER IP : ::1 - USER ROLE : 1 - BROWSER : Mozilla/5.0 (Windows NT 10.0; Win64; x64; rv:59.0) Gecko/20100101 Firefox/59.0 - USERNAME : safari
SYSTEM LOG -- DATE :2018-03-15 20:24:36 - CLASS : data - FUNCTION : check_login - URL : localhost:8080/kaderisasi/index.php/ajax/data/check_login - USER ID : 340 - USER IP : ::1 - USER ROLE : 1 - BROWSER : Mozilla/5.0 (Windows NT 10.0; Win64; x64; rv:59.0) Gecko/20100101 Firefox/59.0 - USERNAME : safari
SYSTEM LOG -- DATE :2018-03-15 20:24:57 - CLASS : master_anggota - FUNCTION : save_crop - URL : localhost:8080/kaderisasi/index.php/master/master_anggota/save_crop - USER ID : 340 - USER IP : ::1 - USER ROLE : 1 - BROWSER : Mozilla/5.0 (Windows NT 10.0; Win64; x64; rv:59.0) Gecko/20100101 Firefox/59.0 - USERNAME : safari
SYSTEM LOG -- DATE :2018-03-15 20:24:58 - CLASS : master_anggota - FUNCTION : Lampiran%20Surat%20Keterangan - URL : localhost:8080/kaderisasi/index.php/master/master_anggota/Lampiran%20Surat%20Keterangan - USER ID : 340 - USER IP : ::1 - USER ROLE : 1 - BROWSER : Mozilla/5.0 (Windows NT 10.0; Win64; x64; rv:59.0) Gecko/20100101 Firefox/59.0 - USERNAME : safari
SYSTEM LOG -- DATE :2018-03-15 20:24:58 - CLASS : data - FUNCTION : kabupaten - URL : localhost:8080/kaderisasi/index.php/ajax/data/kabupaten - USER ID : 340 - USER IP : ::1 - USER ROLE : 1 - BROWSER : Mozilla/5.0 (Windows NT 10.0; Win64; x64; rv:59.0) Gecko/20100101 Firefox/59.0 - USERNAME : safari
SYSTEM LOG -- DATE :2018-03-15 20:24:58 - CLASS : data - FUNCTION : kecamatan - URL : localhost:8080/kaderisasi/index.php/ajax/data/kecamatan - USER ID : 340 - USER IP : ::1 - USER ROLE : 1 - BROWSER : Mozilla/5.0 (Windows NT 10.0; Win64; x64; rv:59.0) Gecko/20100101 Firefox/59.0 - USERNAME : safari
SYSTEM LOG -- DATE :2018-03-15 20:24:58 - CLASS : data - FUNCTION : kelurahan - URL : localhost:8080/kaderisasi/index.php/ajax/data/kelurahan - USER ID : 340 - USER IP : ::1 - USER ROLE : 1 - BROWSER : Mozilla/5.0 (Windows NT 10.0; Win64; x64; rv:59.0) Gecko/20100101 Firefox/59.0 - USERNAME : safari
SYSTEM LOG -- DATE :2018-03-15 20:24:58 - CLASS : data - FUNCTION : check_login - URL : localhost:8080/kaderisasi/index.php/ajax/data/check_login - USER ID : 340 - USER IP : ::1 - USER ROLE : 1 - BROWSER : Mozilla/5.0 (Windows NT 10.0; Win64; x64; rv:59.0) Gecko/20100101 Firefox/59.0 - USERNAME : safari
SYSTEM LOG -- DATE :2018-03-15 20:46:11 - CLASS : master_anggota - FUNCTION : save_crop - URL : localhost:8080/kaderisasi/index.php/master/master_anggota/save_crop - USER ID : 340 - USER IP : ::1 - USER ROLE : 1 - BROWSER : Mozilla/5.0 (Windows NT 10.0; Win64; x64; rv:59.0) Gecko/20100101 Firefox/59.0 - USERNAME : safari
SYSTEM LOG -- DATE :2018-03-15 20:46:12 - CLASS : data - FUNCTION : check_login - URL : localhost:8080/kaderisasi/index.php/ajax/data/check_login - USER ID : 340 - USER IP : ::1 - USER ROLE : 1 - BROWSER : Mozilla/5.0 (Windows NT 10.0; Win64; x64; rv:59.0) Gecko/20100101 Firefox/59.0 - USERNAME : safari
SYSTEM LOG -- DATE :2018-03-15 20:46:12 - CLASS : master_anggota - FUNCTION : Lampiran%20Surat%20Keterangan - URL : localhost:8080/kaderisasi/index.php/master/master_anggota/Lampiran%20Surat%20Keterangan - USER ID : 340 - USER IP : ::1 - USER ROLE : 1 - BROWSER : Mozilla/5.0 (Windows NT 10.0; Win64; x64; rv:59.0) Gecko/20100101 Firefox/59.0 - USERNAME : safari
SYSTEM LOG -- DATE :2018-03-15 20:46:12 - CLASS : data - FUNCTION : kabupaten - URL : localhost:8080/kaderisasi/index.php/ajax/data/kabupaten - USER ID : 340 - USER IP : ::1 - USER ROLE : 1 - BROWSER : Mozilla/5.0 (Windows NT 10.0; Win64; x64; rv:59.0) Gecko/20100101 Firefox/59.0 - USERNAME : safari
SYSTEM LOG -- DATE :2018-03-15 20:46:12 - CLASS : data - FUNCTION : kecamatan - URL : localhost:8080/kaderisasi/index.php/ajax/data/kecamatan - USER ID : 340 - USER IP : ::1 - USER ROLE : 1 - BROWSER : Mozilla/5.0 (Windows NT 10.0; Win64; x64; rv:59.0) Gecko/20100101 Firefox/59.0 - USERNAME : safari
SYSTEM LOG -- DATE :2018-03-15 20:46:12 - CLASS : data - FUNCTION : kelurahan - URL : localhost:8080/kaderisasi/index.php/ajax/data/kelurahan - USER ID : 340 - USER IP : ::1 - USER ROLE : 1 - BROWSER : Mozilla/5.0 (Windows NT 10.0; Win64; x64; rv:59.0) Gecko/20100101 Firefox/59.0 - USERNAME : safari
SYSTEM LOG -- DATE :2018-03-15 20:46:13 - CLASS : data - FUNCTION : check_login - URL : localhost:8080/kaderisasi/index.php/ajax/data/check_login - USER ID : 340 - USER IP : ::1 - USER ROLE : 1 - BROWSER : Mozilla/5.0 (Windows NT 10.0; Win64; x64; rv:59.0) Gecko/20100101 Firefox/59.0 - USERNAME : safari
SYSTEM LOG -- DATE :2018-03-15 20:47:08 - CLASS : data - FUNCTION : kabupaten - URL : localhost:8080/kaderisasi/index.php/ajax/data/kabupaten - USER ID : 340 - USER IP : ::1 - USER ROLE : 1 - BROWSER : Mozilla/5.0 (Windows NT 10.0; Win64; x64; rv:59.0) Gecko/20100101 Firefox/59.0 - USERNAME : safari
SYSTEM LOG -- DATE :2018-03-15 20:47:09 - CLASS : data - FUNCTION : kecamatan - URL : localhost:8080/kaderisasi/index.php/ajax/data/kecamatan - USER ID : 340 - USER IP : ::1 - USER ROLE : 1 - BROWSER : Mozilla/5.0 (Windows NT 10.0; Win64; x64; rv:59.0) Gecko/20100101 Firefox/59.0 - USERNAME : safari
SYSTEM LOG -- DATE :2018-03-15 20:47:10 - CLASS : data - FUNCTION : kelurahan - URL : localhost:8080/kaderisasi/index.php/ajax/data/kelurahan - USER ID : 340 - USER IP : ::1 - USER ROLE : 1 - BROWSER : Mozilla/5.0 (Windows NT 10.0; Win64; x64; rv:59.0) Gecko/20100101 Firefox/59.0 - USERNAME : safari
SYSTEM LOG -- DATE :2018-03-15 20:47:11 - CLASS : data - FUNCTION : kabupaten - URL : localhost:8080/kaderisasi/index.php/ajax/data/kabupaten - USER ID : 340 - USER IP : ::1 - USER ROLE : 1 - BROWSER : Mozilla/5.0 (Windows NT 10.0; Win64; x64; rv:59.0) Gecko/20100101 Firefox/59.0 - USERNAME : safari
SYSTEM LOG -- DATE :2018-03-15 20:47:12 - CLASS : data - FUNCTION : kecamatan - URL : localhost:8080/kaderisasi/index.php/ajax/data/kecamatan - USER ID : 340 - USER IP : ::1 - USER ROLE : 1 - BROWSER : Mozilla/5.0 (Windows NT 10.0; Win64; x64; rv:59.0) Gecko/20100101 Firefox/59.0 - USERNAME : safari
SYSTEM LOG -- DATE :2018-03-15 20:47:13 - CLASS : data - FUNCTION : check_login - URL : localhost:8080/kaderisasi/index.php/ajax/data/check_login - USER ID : 340 - USER IP : ::1 - USER ROLE : 1 - BROWSER : Mozilla/5.0 (Windows NT 10.0; Win64; x64; rv:59.0) Gecko/20100101 Firefox/59.0 - USERNAME : safari
SYSTEM LOG -- DATE :2018-03-15 20:47:14 - CLASS : data - FUNCTION : kelurahan - URL : localhost:8080/kaderisasi/index.php/ajax/data/kelurahan - USER ID : 340 - USER IP : ::1 - USER ROLE : 1 - BROWSER : Mozilla/5.0 (Windows NT 10.0; Win64; x64; rv:59.0) Gecko/20100101 Firefox/59.0 - USERNAME : safari
SYSTEM LOG -- DATE :2018-03-15 20:47:14 - CLASS : master_anggota - FUNCTION : save - URL : localhost:8080/kaderisasi/index.php/master/master_anggota/save - USER ID : 340 - USER IP : ::1 - USER ROLE : 1 - BROWSER : Mozilla/5.0 (Windows NT 10.0; Win64; x64; rv:59.0) Gecko/20100101 Firefox/59.0 - USERNAME : safari
SYSTEM LOG -- DATE :2018-03-15 20:47:16 - CLASS : master_anggota - FUNCTION : Lampiran%20Surat%20Keterangan - URL : localhost:8080/kaderisasi/index.php/master/master_anggota/Lampiran%20Surat%20Keterangan - USER ID : 340 - USER IP : ::1 - USER ROLE : 1 - BROWSER : Mozilla/5.0 (Windows NT 10.0; Win64; x64; rv:59.0) Gecko/20100101 Firefox/59.0 - USERNAME : safari
SYSTEM LOG -- DATE :2018-03-15 20:47:17 - CLASS : data - FUNCTION : check_login - URL : localhost:8080/kaderisasi/index.php/ajax/data/check_login - USER ID : 340 - USER IP : ::1 - USER ROLE : 1 - BROWSER : Mozilla/5.0 (Windows NT 10.0; Win64; x64; rv:59.0) Gecko/20100101 Firefox/59.0 - USERNAME : safari
SYSTEM LOG -- DATE :2018-03-15 20:48:13 - CLASS : master_anggota - FUNCTION : index - URL : localhost:8080/kaderisasi/index.php/master/master_anggota - USER ID : 340 - USER IP : ::1 - USER ROLE : 1 - BROWSER : Mozilla/5.0 (Windows NT 10.0; Win64; x64; rv:59.0) Gecko/20100101 Firefox/59.0 - USERNAME : safari
SYSTEM LOG -- DATE :2018-03-15 20:48:14 - CLASS : data - FUNCTION : check_login - URL : localhost:8080/kaderisasi/index.php/ajax/data/check_login - USER ID : 340 - USER IP : ::1 - USER ROLE : 1 - BROWSER : Mozilla/5.0 (Windows NT 10.0; Win64; x64; rv:59.0) Gecko/20100101 Firefox/59.0 - USERNAME : safari
