SYSTEM LOG -- DATE :2018-06-29 23:30:37 - CLASS : me - FUNCTION : index - URL : localhost:8080/kaderisasi/index.php/meme/me - USER ID : 340 - USER IP : ::1 - USER ROLE : 1 - BROWSER : Mozilla/5.0 (Windows NT 10.0; Win64; x64) AppleWebKit/537.36 (KHTML, like Gecko) Chrome/67.0.3396.99 Safari/537.36 - USERNAME : safari
SYSTEM LOG -- DATE :2018-06-29 23:31:07 - CLASS : master_anggota - FUNCTION : index - URL : localhost:8080/kaderisasi/index.php/master/master_anggota - USER ID : 340 - USER IP : ::1 - USER ROLE : 1 - BROWSER : Mozilla/5.0 (Windows NT 10.0; Win64; x64) AppleWebKit/537.36 (KHTML, like Gecko) Chrome/67.0.3396.99 Safari/537.36 - USERNAME : safari
SYSTEM LOG -- DATE :2018-06-29 23:32:50 - CLASS : master_anggota - FUNCTION : add - URL : localhost:8080/kaderisasi/index.php/master/master_anggota/add - USER ID : 340 - USER IP : ::1 - USER ROLE : 1 - BROWSER : Mozilla/5.0 (Windows NT 10.0; Win64; x64) AppleWebKit/537.36 (KHTML, like Gecko) Chrome/67.0.3396.99 Safari/537.36 - USERNAME : safari
SYSTEM LOG -- DATE :2018-06-29 23:32:50 - CLASS : master_anggota - FUNCTION : favicon.ico - URL : localhost:8080/kaderisasi/index.php/master/master_anggota/favicon.ico - USER ID : 340 - USER IP : ::1 - USER ROLE : 1 - BROWSER : Mozilla/5.0 (Windows NT 10.0; Win64; x64) AppleWebKit/537.36 (KHTML, like Gecko) Chrome/67.0.3396.99 Safari/537.36 - USERNAME : safari
SYSTEM LOG -- DATE :2018-06-29 23:32:53 - CLASS : master_anggota - FUNCTION : index - URL : localhost:8080/kaderisasi/index.php/master/master_anggota - USER ID : 340 - USER IP : ::1 - USER ROLE : 1 - BROWSER : Mozilla/5.0 (Windows NT 10.0; Win64; x64) AppleWebKit/537.36 (KHTML, like Gecko) Chrome/67.0.3396.99 Safari/537.36 - USERNAME : safari
SYSTEM LOG -- DATE :2018-06-29 23:32:56 - CLASS : tanda_terima - FUNCTION : index - URL : localhost:8080/kaderisasi/index.php/report/tanda_terima - USER ID : 340 - USER IP : ::1 - USER ROLE : 1 - BROWSER : Mozilla/5.0 (Windows NT 10.0; Win64; x64) AppleWebKit/537.36 (KHTML, like Gecko) Chrome/67.0.3396.99 Safari/537.36 - USERNAME : safari
SYSTEM LOG -- DATE :2018-06-29 23:34:47 - CLASS : tanda_terima - FUNCTION : add - URL : localhost:8080/kaderisasi/index.php/report/tanda_terima/add - USER ID : 340 - USER IP : ::1 - USER ROLE : 1 - BROWSER : Mozilla/5.0 (Windows NT 10.0; Win64; x64) AppleWebKit/537.36 (KHTML, like Gecko) Chrome/67.0.3396.99 Safari/537.36 - USERNAME : safari
SYSTEM LOG -- DATE :2018-06-29 23:34:48 - CLASS : tanda_terima - FUNCTION : favicon.ico - URL : localhost:8080/kaderisasi/index.php/report/tanda_terima/favicon.ico - USER ID : 340 - USER IP : ::1 - USER ROLE : 1 - BROWSER : Mozilla/5.0 (Windows NT 10.0; Win64; x64) AppleWebKit/537.36 (KHTML, like Gecko) Chrome/67.0.3396.99 Safari/537.36 - USERNAME : safari
SYSTEM LOG -- DATE :2018-06-29 23:36:46 - CLASS : tanda_terima - FUNCTION : add - URL : localhost:8080/kaderisasi/index.php/report/tanda_terima/add - USER ID : 340 - USER IP : ::1 - USER ROLE : 1 - BROWSER : Mozilla/5.0 (Windows NT 10.0; Win64; x64) AppleWebKit/537.36 (KHTML, like Gecko) Chrome/67.0.3396.99 Safari/537.36 - USERNAME : safari
SYSTEM LOG -- DATE :2018-06-29 23:37:17 - CLASS : tanda_terima - FUNCTION : save - URL : localhost:8080/kaderisasi/index.php/report/tanda_terima/save - USER ID : 340 - USER IP : ::1 - USER ROLE : 1 - BROWSER : Mozilla/5.0 (Windows NT 10.0; Win64; x64) AppleWebKit/537.36 (KHTML, like Gecko) Chrome/67.0.3396.99 Safari/537.36 - USERNAME : safari
SYSTEM LOG -- DATE :2018-06-29 23:37:20 - CLASS : tanda_terima - FUNCTION : print_pdf - URL : localhost:8080/kaderisasi/index.php/report/tanda_terima/print_pdf/?id=1011&filename=20180629113719TEST%20ANGKATAN%204.pdf - USER ID : 340 - USER IP : ::1 - USER ROLE : 1 - BROWSER : Mozilla/5.0 (Windows NT 10.0; Win64; x64) AppleWebKit/537.36 (KHTML, like Gecko) Chrome/67.0.3396.99 Safari/537.36 - USERNAME : safari
SYSTEM LOG -- DATE :2018-06-29 23:37:30 - CLASS : tanda_terima - FUNCTION : index - URL : localhost:8080/kaderisasi/index.php/report/tanda_terima - USER ID : 340 - USER IP : ::1 - USER ROLE : 1 - BROWSER : Mozilla/5.0 (Windows NT 10.0; Win64; x64) AppleWebKit/537.36 (KHTML, like Gecko) Chrome/67.0.3396.99 Safari/537.36 - USERNAME : safari
SYSTEM LOG -- DATE :2018-06-29 23:38:25 - CLASS : master_anggota - FUNCTION : index - URL : localhost:8080/kaderisasi/index.php/master/master_anggota - USER ID : 340 - USER IP : ::1 - USER ROLE : 1 - BROWSER : Mozilla/5.0 (Windows NT 10.0; Win64; x64) AppleWebKit/537.36 (KHTML, like Gecko) Chrome/67.0.3396.99 Safari/537.36 - USERNAME : safari
SYSTEM LOG -- DATE :2018-06-29 23:52:18 - CLASS : auth - FUNCTION : out - URL : localhost:8080/kaderisasi/index.php/auth/out - USER ID : 340 - USER IP : ::1 - USER ROLE : 1 - BROWSER : Mozilla/5.0 (Windows NT 10.0; Win64; x64) AppleWebKit/537.36 (KHTML, like Gecko) Chrome/67.0.3396.99 Safari/537.36 - USERNAME : safari
SYSTEM LOG -- DATE :2018-06-29 23:52:22 - CLASS : me - FUNCTION : index - URL : localhost:8080/kaderisasi/index.php/meme/me - USER ID : 340 - USER IP : ::1 - USER ROLE : 1 - BROWSER : Mozilla/5.0 (Windows NT 10.0; Win64; x64) AppleWebKit/537.36 (KHTML, like Gecko) Chrome/67.0.3396.99 Safari/537.36 - USERNAME : safari
