SYSTEM LOG -- DATE :2018-03-08 14:52:44 - CLASS : me - FUNCTION : index - URL : localhost:8080/golkar/index.php/meme/me - USER ID : 340 - USER IP : ::1 - USER ROLE : 1 - BROWSER : Mozilla/5.0 (Windows NT 10.0; Win64; x64) AppleWebKit/537.36 (KHTML, like Gecko) Chrome/64.0.3282.186 Safari/537.36 - USERNAME : safari
SYSTEM LOG -- DATE :2018-03-08 14:52:45 - CLASS : data - FUNCTION : check_login - URL : localhost:8080/golkar/index.php/ajax/data/check_login - USER ID : 340 - USER IP : ::1 - USER ROLE : 1 - BROWSER : Mozilla/5.0 (Windows NT 10.0; Win64; x64) AppleWebKit/537.36 (KHTML, like Gecko) Chrome/64.0.3282.186 Safari/537.36 - USERNAME : safari
SYSTEM LOG -- DATE :2018-03-08 14:52:47 - CLASS : me - FUNCTION : app_version - URL : localhost:8080/golkar/index.php/meme/me/app_version - USER ID : 340 - USER IP : ::1 - USER ROLE : 1 - BROWSER : Mozilla/5.0 (Windows NT 10.0; Win64; x64) AppleWebKit/537.36 (KHTML, like Gecko) Chrome/64.0.3282.186 Safari/537.36 - USERNAME : safari
SYSTEM LOG -- DATE :2018-03-08 14:52:48 - CLASS : data - FUNCTION : check_login - URL : localhost:8080/golkar/index.php/ajax/data/check_login - USER ID : 340 - USER IP : ::1 - USER ROLE : 1 - BROWSER : Mozilla/5.0 (Windows NT 10.0; Win64; x64) AppleWebKit/537.36 (KHTML, like Gecko) Chrome/64.0.3282.186 Safari/537.36 - USERNAME : safari
