SYSTEM LOG -- DATE :2018-01-27 00:00:16 - CLASS : me - FUNCTION : index - URL : localhost:8080/golkar/ - USER ID : 340 - USER IP : ::1 - USER ROLE : 1 - BROWSER : Mozilla/5.0 (Windows NT 10.0; Win64; x64) AppleWebKit/537.36 (KHTML, like Gecko) Chrome/63.0.3239.132 Safari/537.36 - USERNAME : safari
SYSTEM LOG -- DATE :2018-01-27 00:00:17 - CLASS : data - FUNCTION : check_login - URL : localhost:8080/golkar/index.php/ajax/data/check_login - USER ID : 340 - USER IP : ::1 - USER ROLE : 1 - BROWSER : Mozilla/5.0 (Windows NT 10.0; Win64; x64) AppleWebKit/537.36 (KHTML, like Gecko) Chrome/63.0.3239.132 Safari/537.36 - USERNAME : safari
SYSTEM LOG -- DATE :2018-01-27 00:00:25 - CLASS : me - FUNCTION : index - URL : localhost:8080/golkar/ - USER ID : 340 - USER IP : ::1 - USER ROLE : 1 - BROWSER : Mozilla/5.0 (Windows NT 10.0; Win64; x64) AppleWebKit/537.36 (KHTML, like Gecko) Chrome/63.0.3239.132 Safari/537.36 - USERNAME : safari
